##FastQC	0.10.1
>>Basic Statistics	pass
#Measure	Value	
Filename	SRR2040577_1.fastq.gz	
File type	Conventional base calls	
Encoding	Sanger / Illumina 1.9	
Total Sequences	70846205	
Filtered Sequences	0	
Sequence length	25-100	
%GC	49	
>>END_MODULE
>>Per base sequence quality	pass
#Base	Mean	Median	Lower Quartile	Upper Quartile	10th Percentile	90th Percentile
1	32.55904647256688	34.0	31.0	34.0	31.0	34.0
2	32.89407875834704	34.0	31.0	34.0	31.0	34.0
3	33.07271480526021	34.0	33.0	34.0	31.0	34.0
4	36.419490909922416	37.0	37.0	37.0	35.0	37.0
5	36.37232612530198	37.0	37.0	37.0	35.0	37.0
6	36.33807490464733	37.0	37.0	37.0	35.0	37.0
7	36.29205647641959	37.0	37.0	37.0	35.0	37.0
8	36.291671191138605	37.0	37.0	37.0	35.0	37.0
9	38.122479192781036	39.0	39.0	39.0	37.0	39.0
10-14	38.308260297075904	39.4	38.8	39.4	36.2	39.4
15-19	39.587678391524285	41.0	39.2	41.0	37.0	41.0
20-24	39.64702470654568	41.0	39.8	41.0	37.0	41.0
25-29	39.48035646232028	41.0	39.0	41.0	36.6	41.0
30-34	39.19730919750236	40.0	38.8	41.0	35.8	41.0
35-39	38.908252065257415	40.0	38.0	41.0	35.0	41.0
40-44	38.8374206186211	40.0	38.0	41.0	35.0	41.0
45-49	38.742940195741916	40.0	38.0	41.0	35.0	41.0
50-54	38.60122372767898	40.0	37.2	41.0	35.0	41.0
55-59	38.075736333238986	39.4	36.0	41.0	34.0	41.0
60-64	37.37798969602268	38.2	35.0	40.6	33.8	41.0
65-69	36.57659846408805	36.6	35.0	39.4	33.0	41.0
70-74	35.813222393511744	35.4	35.0	38.0	33.0	40.2
75-79	34.4947943716977	34.8	33.4	36.0	31.6	38.4
80-84	34.73572536219455	35.0	35.0	35.6	33.0	37.0
85-89	34.34948129979784	35.0	34.0	35.0	32.2	36.0
90-94	34.11205221001363	35.0	34.0	35.0	32.0	35.8
95-99	34.20623200420072	35.0	34.0	35.0	32.4	35.0
100	33.91390241623501	34.0	33.0	35.0	31.0	35.0
>>END_MODULE
>>Per sequence quality scores	pass
#Quality	Count
19	1.0
20	3.0
21	57.0
22	273.0
23	1300.0
24	4394.0
25	11425.0
26	25656.0
27	53315.0
28	103818.0
29	190210.0
30	416721.0
31	821564.0
32	1393373.0
33	2164740.0
34	3432463.0
35	5713066.0
36	1.0993089E7
37	2.0151778E7
38	2.0761657E7
39	4586792.0
40	20510.0
>>END_MODULE
>>Per base sequence content	fail
#Base	G	A	T	C
1	44.25223166292479	8.574772978361297	11.316785594212156	35.856209764501756
2	28.91842490925788	10.452613043159555	35.16833836333642	25.460623684246148
3	27.84648521399276	13.778887662366671	23.42907569996163	34.945551423678936
4	30.56561462960507	20.293102502808726	22.048853569503123	27.092429298083083
5	31.81420515043819	23.81616912296149	24.173702741028965	20.19592298557135
6	26.955599103720516	28.17133112493464	24.108277923990425	20.76479184735442
7	20.715723587452565	23.740757885337683	38.4360291422808	17.107489384928947
8	23.00580955606585	23.01044494902726	32.08834686346291	21.895398631443985
9	23.29216222661468	20.841949120633917	34.367806998271824	21.498081654479588
10-14	26.663584309138365	24.996023146193927	26.735722259223344	21.604670285444367
15-19	26.988634041865755	23.67116996598477	27.178160072229694	22.162035919919777
20-24	26.577326440934712	23.831226685321116	27.235192563114374	22.356254310629794
25-29	26.525525617931944	23.993925261725817	27.03800950638512	22.44253961395712
30-34	26.485388733203933	23.985176851825262	26.97364381457995	22.55579060039085
35-39	26.41644682537125	24.071536219728287	26.883956087242016	22.628060867658444
40-44	26.596161811213825	23.844940875422417	26.814732765320098	22.744164548043656
45-49	26.618156304004785	23.86828138128393	26.88000190989846	22.633560404812822
50-54	26.692580399998356	23.88584146554483	26.65733978151658	22.76423835294024
55-59	26.438067639342496	23.948425875465755	26.76687477033196	22.84663171485979
60-64	26.517383236198278	23.64553368080673	26.85594828967785	22.98113479331714
65-69	26.472915629649574	23.93083511674994	26.810672445385464	22.785576808215026
70-74	26.575820776235137	23.98593355456914	26.560083404837513	22.87816226435821
75-79	26.527697377139415	23.728065314962123	26.833753141126042	22.91048416677242
80-84	26.512769396938513	23.737725756585405	26.892883467700262	22.856621378775817
85-89	26.576925259338996	23.79346076435756	26.798632911526134	22.830981064777305
90-94	26.239709684832256	23.878066944454428	26.821103804616577	23.06111956609674
95-99	26.260363156090577	24.118262692162197	26.766305952586283	22.855068199160936
100	24.078349964461736	25.487644357609152	26.02945103793352	24.40455463999559
>>END_MODULE
>>Per base GC content	fail
#Base	%GC
1	80.10844142742654
2	54.37904859350403
3	62.7920366376717
4	57.658043927688155
5	52.01012813600955
6	47.72039095107494
7	37.82321297238151
8	44.90120818750983
9	44.79024388109426
10-14	48.268254594582736
15-19	49.15066996178553
20-24	48.933580751564506
25-29	48.968065231889064
30-34	49.04117933359478
35-39	49.04450769302969
40-44	49.34032635925749
45-49	49.25171670881761
50-54	49.45681875293859
55-59	49.28469935420228
60-64	49.498518029515424
65-69	49.2584924378646
70-74	49.45398304059335
75-79	49.43818154391184
80-84	49.36939077571433
85-89	49.407906324116304
90-94	49.300829250929
95-99	49.115431355251516
100	48.482904604457325
>>END_MODULE
>>Per sequence GC content	warn
#GC Content	Count
0	193.0
1	192.5
2	343.5
3	507.0
4	594.5
5	926.0
6	1433.0
7	1775.5
8	2081.0
9	2671.5
10	3447.5
11	4147.5
12	4831.5
13	5891.5
14	7080.5
15	8073.0
16	9191.5
17	10692.5
18	12624.5
19	15294.0
20	18954.5
21	23768.0
22	30631.0
23	40078.0
24	52059.5
25	66604.0
26	85207.0
27	107678.5
28	135347.5
29	168586.0
30	207032.0
31	255863.5
32	327317.0
33	422233.5
34	563229.5
35	728288.0
36	920957.0
37	1182186.5
38	1502423.0
39	1819253.0
40	2065609.5
41	2304944.5
42	2601121.5
43	2882700.5
44	3017079.0
45	3118932.5
46	3231779.5
47	3205980.5
48	3118430.5
49	3031542.0
50	2960747.0
51	2832045.0
52	2627449.5
53	2494654.0
54	2389177.5
55	2311662.0
56	2190161.5
57	2015026.5
58	1886451.5
59	1771423.5
60	1689179.0
61	1580654.0
62	1421922.0
63	1277206.0
64	1150615.5
65	1021162.5
66	900417.0
67	786425.5
68	655411.5
69	518785.5
70	405723.5
71	318666.5
72	255818.5
73	202196.5
74	154849.5
75	125427.5
76	105300.5
77	85524.5
78	68687.5
79	55390.0
80	43061.0
81	33294.0
82	25403.5
83	19340.5
84	14990.0
85	11882.5
86	9373.5
87	6996.5
88	5022.0
89	3724.5
90	2909.0
91	2346.5
92	2244.5
93	2358.0
94	2087.0
95	1245.5
96	458.5
97	225.5
98	157.0
99	72.0
100	51.0
>>END_MODULE
>>Per base N content	pass
#Base	N-Count
1	0.050029496992817044
2	0.0032634069813619517
3	0.0
4	0.0
5	0.0
6	0.0
7	0.0
8	0.0
9	0.0
10-14	0.0
15-19	0.0
20-24	1.6768717533987884E-4
25-29	0.0021421658146810996
30-34	0.0
35-39	0.0
40-44	0.0
45-49	0.0
50-54	0.0
55-59	0.0
60-64	0.0
65-69	4.925557813772505E-6
70-74	0.0
75-79	0.0
80-84	0.0
85-89	0.0
90-94	0.0
95-99	1.717076454116927E-5
100	0.0
>>END_MODULE
>>Sequence Length Distribution	warn
#Length	Count
24-25	26262.0
26-27	60394.0
28-29	71434.0
30-31	77293.0
32-33	79151.0
34-35	78408.0
36-37	77481.0
38-39	68668.0
40-41	73739.0
42-43	73147.0
44-45	73566.0
46-47	70488.0
48-49	69181.0
50-51	79218.0
52-53	93145.0
54-55	96551.0
56-57	105273.0
58-59	115664.0
60-61	124713.0
62-63	120998.0
64-65	121215.0
66-67	124927.0
68-69	122322.0
70-71	127639.0
72-73	145898.0
74-75	174826.0
76-77	106972.0
78-79	111714.0
80-81	133566.0
82-83	168896.0
84-85	196091.0
86-87	257496.0
88-89	277812.0
90-91	323914.0
92-93	420720.0
94-95	628049.0
96-97	866988.0
98-99	8757268.0
100-101	5.6145118E7
>>END_MODULE
>>Sequence Duplication Levels	fail
#Total Duplicate Percentage	82.35670841048987
#Duplication Level	Relative count
1	100.0
2	50.08400572483458
3	28.452013026072887
4	19.364875235942005
5	14.29341851444691
6	11.379145838086744
7	9.389973242620979
8	7.979506751571218
9	6.757793864470764
10++	167.14235340482463
>>END_MODULE
>>Overrepresented sequences	pass
>>END_MODULE
>>Kmer Content	warn
#Sequence	Count	Obs/Exp Overall	Obs/Exp Max	Max Obs/Exp Position
CTCCT	16869300	2.9309356	9.093581	1
CTCCA	14421390	2.8649573	9.469208	1
TCCTC	14727085	2.5587392	5.190725	2
CCCAG	12249460	2.450161	7.2614446	1
TCCAG	13560660	2.3075309	6.5987663	2
CCCCA	8748885	2.0430295	6.653159	1
TCCTT	13731930	2.0296905	5.035139	2
GCCAG	11772490	2.0169804	6.0734973	1
CTCAG	11847145	2.015953	5.676548	1
GGCAG	13294695	1.9510458	5.5206795	1
CTCCC	8973145	1.8325877	5.9502954	1
GGGGA	12560110	1.5788407	5.218461	1
GGGGG	13127615	1.4530998	5.974303	1
GTGGG	12785965	1.4056479	5.4971566	1
GTCCT	9240090	1.3751215	5.8781004	1
GTCCA	7783080	1.3243971	6.221811	1
>>END_MODULE
