##FastQC	0.10.1
>>Basic Statistics	pass
#Measure	Value	
Filename	D06BVACXX_s4_1_nextera12index_7_SL7130.fastq.gz	
File type	Conventional base calls	
Encoding	Sanger / Illumina 1.9	
Total Sequences	51034218	
Filtered Sequences	0	
Sequence length	20-50	
%GC	48	
>>END_MODULE
>>Per base sequence quality	pass
#Base	Mean	Median	Lower Quartile	Upper Quartile	10th Percentile	90th Percentile
1	28.160294118742055	31.0	30.0	34.0	10.0	34.0
2	27.510255099823418	33.0	30.0	34.0	2.0	34.0
3	29.93987069616703	34.0	30.0	34.0	16.0	34.0
4	34.423529601256945	37.0	35.0	37.0	28.0	37.0
5	35.29801328590946	37.0	35.0	37.0	32.0	37.0
6	35.542244871862245	37.0	35.0	37.0	32.0	37.0
7	35.5700181591888	37.0	35.0	37.0	32.0	37.0
8	35.58188409980143	37.0	35.0	37.0	32.0	37.0
9	36.97145828706536	39.0	37.0	39.0	32.0	39.0
10	37.088009832932094	39.0	37.0	39.0	32.0	39.0
11	37.18533723785089	39.0	37.0	39.0	33.0	39.0
12	37.07410931622387	39.0	37.0	39.0	32.0	39.0
13	36.98479917924872	39.0	37.0	39.0	32.0	39.0
14	38.30932410877737	40.0	38.0	41.0	32.0	41.0
15	38.37131481078048	40.0	38.0	41.0	32.0	41.0
16	38.318342763672796	40.0	38.0	41.0	32.0	41.0
17	38.29524328167427	40.0	38.0	41.0	32.0	41.0
18	38.067316070170804	40.0	38.0	41.0	32.0	41.0
19	38.15226791561693	40.0	38.0	41.0	32.0	41.0
20	38.07805700089301	40.0	38.0	41.0	32.0	41.0
21	38.059922282254746	40.0	38.0	41.0	32.0	41.0
22	37.98546336769876	40.0	37.0	41.0	32.0	41.0
23	37.92571157659547	40.0	37.0	41.0	32.0	41.0
24	37.817627942174695	40.0	37.0	41.0	31.0	41.0
25	37.751914163877686	40.0	37.0	41.0	31.0	41.0
26	37.631829149017605	40.0	37.0	41.0	31.0	41.0
27	37.5362956122298	40.0	37.0	41.0	31.0	41.0
28	37.45362910943101	40.0	37.0	40.0	31.0	41.0
29	37.32530150975498	39.0	36.0	40.0	30.0	41.0
30	37.289983496037614	39.0	36.0	40.0	30.0	41.0
31	37.260357144398	39.0	36.0	40.0	30.0	41.0
32	37.14858106039211	39.0	36.0	40.0	30.0	41.0
33	37.070562786037996	39.0	36.0	40.0	30.0	41.0
34	36.90480451903823	39.0	36.0	40.0	30.0	41.0
35	36.80108362228706	39.0	35.0	40.0	30.0	41.0
36	36.770132129215646	39.0	35.0	40.0	30.0	41.0
37	36.72025967553499	38.0	35.0	40.0	30.0	41.0
38	36.59674260861305	38.0	35.0	40.0	30.0	41.0
39	36.493344091445834	38.0	35.0	40.0	30.0	41.0
40	36.342399602569344	38.0	35.0	40.0	30.0	41.0
41	36.2330746054637	38.0	34.0	40.0	30.0	41.0
42	36.08177708953808	38.0	34.0	40.0	30.0	41.0
43	35.99347342966123	38.0	34.0	40.0	30.0	41.0
44	35.817720455992436	38.0	34.0	40.0	29.0	41.0
45	35.69613815582938	38.0	33.0	40.0	29.0	40.0
46	35.62263623494958	38.0	33.0	40.0	29.0	40.0
47	35.61967797527609	38.0	33.0	40.0	29.0	40.0
48	35.64467534875355	37.0	33.0	39.0	29.0	40.0
49	35.49135763185435	37.0	33.0	39.0	29.0	40.0
50	32.96285888931414	34.0	30.0	37.0	26.0	39.0
>>END_MODULE
>>Per sequence quality scores	pass
#Quality	Count
17	5.0
18	120.0
19	2396.0
20	22496.0
21	56110.0
22	106615.0
23	170884.0
24	251323.0
25	356253.0
26	514742.0
27	874947.0
28	1451859.0
29	651647.0
30	948134.0
31	1302381.0
32	1267629.0
33	1708724.0
34	2416075.0
35	3648990.0
36	5665529.0
37	7862624.0
38	1.4123939E7
39	7630796.0
>>END_MODULE
>>Per base sequence content	fail
#Base	G	A	T	C
1	47.80137401101079	18.79972238986947	9.993347686121389	23.405555912998345
2	18.069581716861123	21.149803410182095	36.01638156235848	24.764233310598303
3	19.315563844172573	23.297631914910127	31.46562620345658	25.921178037460717
4	12.87682837262785	15.181310761228506	38.048901741897	33.892959124246644
5	13.497680100379133	36.67143572591329	36.38017350627679	13.450710667430782
6	34.16393516504618	37.798633073507574	15.59599249130975	12.441439270136497
7	27.67027758295615	31.508417519105596	22.24668833110628	18.57461656683197
8	26.170674916246313	35.897444036826286	20.33377125816024	17.598109788767157
9	26.545971800311506	12.968763416551699	18.356049137259024	42.12921564587777
10	14.262868992288984	27.185160434173333	37.01313624247164	21.53883433106604
11	38.23390571631558	20.668602810093866	21.744276222432216	19.353215251158332
12	19.758496565256138	24.86127277917847	32.95359912063283	22.426631534932557
13	29.62622842579855	20.030795808412307	25.917093507732403	24.425882258056742
14	20.88176395193417	19.161594125840082	27.121581419823134	32.83506050240262
15	24.18350672540318	28.449872288676335	22.913539905278032	24.45308108064245
16	24.190352331176456	27.527542520207334	25.171614268542054	23.11049088007416
17	23.289549097176476	27.423934505350633	26.04411022838099	23.2424061690919
18	23.54447857340877	27.362997080605833	26.412209019749938	22.68031532623546
19	24.617222484476482	26.493512102192067	25.87926496637468	23.010000446956763
20	24.084973933825548	26.526289672703406	25.886925168019502	23.50181122545154
21	24.437451386705884	26.083063166073572	25.835002654044942	23.6444827931756
22	23.641731757834194	26.254910224404703	26.080307246307093	24.02305077145401
23	23.828700873472613	26.016689868199094	26.0957143413035	24.058894917024794
24	23.5943619642322	26.527331859428493	26.079023940591927	23.79928223574738
25	23.976947406357073	25.834016299512164	26.618059571903157	23.570976722227606
26	23.82109974467338	26.015176710307514	26.505813979806504	23.6579095652126
27	23.84248315624378	26.59551892512011	25.59989327228062	23.962104646355485
28	23.485271149179678	26.454997959208505	26.444869433222788	23.614861458389026
29	24.43859620374595	26.22921014595616	25.71845143412309	23.6137422161748
30	23.495531208799765	26.917907903118376	26.0747642917244	23.51179659635746
31	24.219027928590222	25.646564413602125	26.41077572886158	23.72363192894607
32	23.628374368021067	26.034113017968235	26.470498228696982	23.867014385313716
33	23.672032185970156	26.18496722483026	26.37870797367824	23.76429261552135
34	23.664189917832275	26.0810778032619	26.634664171626525	23.620068107279305
35	23.5247566956016	26.400588790668582	26.35787955685336	23.71677495687646
36	23.59951109575571	26.406154041560054	26.430175740602692	23.564159122081545
37	23.73159080870314	26.055854591060157	26.372013332950377	23.840541267286326
38	24.034887633172566	26.03784472881861	26.31087881562184	23.616388822386984
39	23.98337411850535	26.354805320447756	25.876638914171224	23.78518164687567
40	23.524289133260098	26.546092913418956	26.510573605258998	23.41904434806195
41	24.0631187942447	25.791904819121807	26.269394554060067	23.875581832573424
42	23.504507750462047	26.553328696822526	26.08669949953818	23.85546405317725
43	23.66617577440563	25.844588838301462	26.68008223650743	23.80915315078548
44	23.534710851333525	25.796522080255418	26.576233113838395	24.092533954572666
45	23.492426181317636	26.328323713172562	26.419654681287664	23.75959542422214
46	23.361166181417993	25.792340117103162	27.193434224394597	23.65305947708425
47	23.61692422131674	25.567962555407775	26.643448841681433	24.17166438159405
48	23.643520161401128	24.207631248366802	27.55539840525788	24.593450184974195
49	23.60904368896253	19.675102249501546	29.945039532269995	26.77081452926593
50	25.853129566413525	0.0	38.5370941803797	35.60977625320678
>>END_MODULE
>>Per base GC content	fail
#Base	%GC
1	71.20692992400915
2	42.83381502745942
3	45.23674188163329
4	46.76978749687449
5	26.948390767809915
6	46.60537443518268
7	46.24489414978812
8	43.76878470501347
9	68.67518744618928
10	35.80170332335503
11	57.587120967473915
12	42.1851281001887
13	54.05211068385529
14	53.71682445433679
15	48.636587806045625
16	47.300843211250616
17	46.531955266268376
18	46.224793899644226
19	47.627222931433245
20	47.58678515927709
21	48.081934179881486
22	47.66478252928821
23	47.88759579049741
24	47.393644199979576
25	47.547924128584675
26	47.47900930988598
27	47.804587802599265
28	47.1001326075687
29	48.05233841992075
30	47.007327805157225
31	47.9426598575363
32	47.49538875333478
33	47.43632480149151
34	47.284258025111576
35	47.24153165247806
36	47.16367021783726
37	47.572132075989465
38	47.651276455559554
39	47.76855576538102
40	46.94333348132205
41	47.938700626818125
42	47.3599718036393
43	47.47532892519111
44	47.62724480590619
45	47.25202160553978
46	47.01422565850224
47	47.78858860291079
48	48.236970346375315
49	50.379858218228456
50	61.4629058196203
>>END_MODULE
>>Per sequence GC content	warn
#GC Content	Count
0	1854.0
1	1534.5
2	1191.5
3	1358.0
4	1546.5
5	2078.0
6	2771.5
7	4141.0
8	5570.0
9	8322.0
10	11338.0
11	16923.0
12	22625.5
13	31849.5
14	42655.5
15	57465.5
16	72651.5
17	92960.5
18	116273.5
19	153044.5
20	189589.5
21	237047.0
22	287137.0
23	350882.5
24	419910.5
25	480315.0
26	577079.5
27	711027.5
28	839421.5
29	930805.0
30	1021145.5
31	1102992.5
32	1163580.0
33	1281512.0
34	1426171.5
35	1525760.0
36	1626197.5
37	1787755.5
38	1963101.0
39	2151737.0
40	2335349.5
41	2550359.0
42	2765141.0
43	3048477.5
44	3355332.5
45	3625262.5
46	3873238.0
47	4076780.0
48	4288862.0
49	4477020.5
50	4624429.5
51	4629716.0
52	4568424.0
53	4351143.5
54	4063888.5
55	3779876.0
56	3502830.0
57	3165362.5
58	2845690.5
59	2527416.5
60	2199787.0
61	1861728.0
62	1537136.0
63	1292140.5
64	1041326.5
65	839766.0
66	669679.5
67	542435.5
68	425035.5
69	325870.0
70	248157.0
71	201018.5
72	165895.0
73	139150.0
74	113407.0
75	91693.5
76	76854.0
77	67273.5
78	58524.0
79	47095.5
80	36302.5
81	29555.5
82	23568.5
83	18832.0
84	14304.5
85	10693.5
86	7768.0
87	6540.0
88	5419.0
89	4512.0
90	3815.0
91	3156.5
92	2641.0
93	2001.0
94	1115.5
95	531.5
96	189.0
97	150.0
98	83.0
99	16.5
100	14.0
>>END_MODULE
>>Per base N content	warn
#Base	N-Count
1	5.680672916355846
2	13.617400780002153
3	0.00808477167221412
4	0.004894755122925563
5	0.010357756437063461
6	3.527045324766219E-5
7	6.995306560786333E-4
8	6.760170205801919E-4
9	0.0022964984003477824
10	0.002962718072803624
11	0.004283400599966085
12	0.0022631874167249903
13	0.0
14	2.5277158160824566E-4
15	0.03064806440259357
16	0.022835659008236395
17	0.0125719571131667
18	6.701386117055815E-4
19	3.899344553491542E-4
20	5.133810417159719E-4
21	0.0
22	0.0
23	0.0
24	0.007308994173159817
25	0.004522641750554952
26	0.0031213703737000653
27	0.0016764575927050022
28	0.0
29	0.0021321713262836112
30	0.0
31	0.002182932601926229
32	0.007792658214050369
33	0.00109367140787447
34	2.60451609969698E-4
35	0.0036330012270939667
36	0.005821470332972936
37	0.001794074167026065
38	0.003983940169759961
39	0.0022579168334636544
40	0.005258331944961582
41	1.7610403821741015E-4
42	0.0
43	6.129002384120637E-6
44	0.0
45	2.07217166698958E-6
46	0.0
47	0.0
48	0.0
49	0.0
50	0.0
>>END_MODULE
>>Sequence Length Distribution	warn
#Length	Count
20	30937.0
21	33360.0
22	35067.0
23	38658.0
24	40963.0
25	44217.0
26	49219.0
27	53530.0
28	55677.0
29	60497.0
30	63735.0
31	70608.0
32	76987.0
33	83512.0
34	90827.0
35	98808.0
36	109683.0
37	122686.0
38	139137.0
39	157650.0
40	175845.0
41	210451.0
42	244557.0
43	305484.0
44	383573.0
45	549335.0
46	909827.0
47	2075041.0
48	4761805.0
49	1.251759E7
50	2.7444952E7
>>END_MODULE
>>Sequence Duplication Levels	fail
#Total Duplicate Percentage	63.35453864846439
#Duplication Level	Relative count
1	100.0
2	25.464527027027028
3	12.974799123447772
4	8.27132030679328
5	5.8699324324324325
6	4.494612856099343
7	3.685399926953981
8	2.93781957633309
9	2.4139426588750914
10++	62.156455441928415
>>END_MODULE
>>Overrepresented sequences	pass
>>END_MODULE
>>Kmer Content	warn
#Sequence	Count	Obs/Exp Overall	Obs/Exp Max	Max Obs/Exp Position
GTGTG	6220695	2.786894	8.831813	9
CACAC	5356835	2.6759634	7.931863	5
ACACA	5526475	2.5923045	8.7231455	6
CAGCA	5237500	2.5921824	7.354987	4
TGCTG	5627580	2.5446825	6.546128	2
CTCCA	5279390	2.5325384	7.526278	1
TGTGT	6154535	2.5094206	8.371785	10
TCCAG	5257365	2.4986765	9.980462	2
CTGGA	5215980	2.4561079	9.957778	4
TGGAG	5249260	2.448946	7.712966	5
CAGAG	4870515	2.3882842	8.921058	4
AGCAG	4785295	2.3464959	7.10688	7
CTCTG	5104210	2.3295436	7.57949	2
CTGCT	5073435	2.3154979	7.327893	9
GAGGA	4760600	2.312823	6.507455	6
AGGAG	4664630	2.2661984	7.9803853	7
AGCTG	4695885	2.2112045	7.8623877	7
CAGCT	4648775	2.209431	5.37372	9
AGAAG	4637550	2.1353328	5.9535804	5
AGAGA	4598360	2.117288	5.6954637	6
CTTCT	5056845	2.10048	5.18457	1
GGAGA	4317465	2.0975366	5.06847	6
GAAGA	4517820	2.080204	5.138883	6
CTTCA	4784635	2.0696046	5.205912	1
TGAAG	4641605	2.0523224	5.200747	5
CTGCA	4253620	2.0216248	5.5606494	4
CCAGA	4051720	2.0053074	7.1219845	3
TGCAG	4220725	1.9874609	5.7244	2
CAGGA	4020465	1.9714575	8.153216	4
TCTGG	4359600	1.9713262	6.7563553	3
GCTGC	3870845	1.9411157	5.4429555	8
CACTG	4022185	1.9116305	7.867353	7
CTGTG	4224220	1.91011	9.406164	9
TCCTG	4174715	1.9053253	6.8787804	2
CAGTG	4038740	1.9017674	7.2406964	9
CACAG	3840065	1.9005535	6.2583923	7
GAGAG	3910290	1.8997203	6.6665387	7
GCTGA	3948395	1.8592257	5.656158	8
CTGAA	4150515	1.8522934	5.8617377	4
ACAGA	3952140	1.8367063	6.8710895	8
CAGAA	3945530	1.8336344	6.161621	4
ACAGC	3681950	1.822298	7.3061547	8
GGCTG	3641310	1.809143	6.17479	7
AGAGG	3716370	1.805509	5.991561	5
CTGAG	3818200	1.797919	6.886188	9
CTCAG	3778080	1.7956144	5.526129	2
GCTGT	3959645	1.7904747	6.506712	8
CCAGG	3402165	1.7766447	6.020204	3
CCTCA	3688490	1.7693793	5.200779	1
AAACA	4006810	1.7648284	5.1040554	6
TGAGG	3774310	1.7608352	5.1544847	5
GAGCT	3724415	1.7537576	5.845953	6
CCTGG	3476800	1.7435137	5.6174326	3
TTCAG	4038885	1.7308909	5.8125362	2
AAGAG	3702515	1.7048016	5.743216	5
TTCTG	4060735	1.6711414	5.4675727	2
AGAGC	3392195	1.6633817	6.0450335	5
TCAGA	3687980	1.6458731	5.9213634	3
TCTGA	3764980	1.613507	5.567494	3
TCAGG	3384645	1.5937661	5.5034933	3
TGAGC	3369385	1.5865808	5.454923	5
CAAGA	3408265	1.5839474	6.264288	4
CCTGA	3307610	1.5720134	5.1295385	3
CTGTC	3357810	1.5324926	5.693405	9
ACCTG	3223990	1.532271	5.4654374	7
AACAG	3283760	1.5260853	6.6656704	7
GCTCT	3336630	1.5228262	5.0710096	1
GACAG	3093525	1.5169271	6.7930107	7
TGCTC	3305330	1.5085411	5.068095	10
CAGGG	2897885	1.4993256	5.744086	4
TCTTG	3618655	1.4892093	5.450048	2
GTCCA	3085720	1.4665554	7.385873	1
TGGAC	3073665	1.4473317	7.67825	5
AACAC	3075470	1.4426112	5.3624363	5
TGTGC	3169045	1.4329807	6.673933	10
ACACC	2845455	1.4214239	5.3586507	6
AGACA	3052110	1.4184288	5.433702	6
GTGCT	3118195	1.4099872	5.0092607	1
AGCAC	2830955	1.4011171	5.7005854	5
ACTGG	2957430	1.3925985	5.1211624	8
GGACA	2836330	1.3908103	6.1141233	6
GAACA	2934660	1.3638455	5.0443964	6
GTGTT	3296015	1.3439013	5.0414257	1
TGTCC	2937620	1.3407196	5.1398897	10
ACTGA	2972110	1.3263943	6.114597	8
TACAG	2948215	1.3157305	5.4561706	7
ACTGC	2733190	1.2990077	6.045962	8
AGGTG	2783370	1.2985302	5.0142145	7
TGAAC	2894570	1.2917899	5.5157228	5
ACACT	2867350	1.2915728	7.007304	6
GACTG	2730985	1.2859699	6.5283422	7
AGGAC	2588920	1.2694913	6.617062	5
ACAGT	2843595	1.2690408	6.482818	8
ACTGT	2930580	1.2559195	7.751975	8
AGTGT	2925090	1.241987	5.0735846	8
AACTG	2761200	1.2322695	5.670142	7
GTTCA	2865720	1.2281234	5.350142	1
AAGAC	2594815	1.205907	5.232069	5
GTCCT	2633395	1.2018723	5.3401275	1
ATACA	2838955	1.2007776	6.0058026	6
GTACA	2641715	1.1789457	6.445576	1
AGACT	2620495	1.1694754	5.4404726	6
TGCAC	2414425	1.1475078	5.0105314	5
GTGCA	2433215	1.1457556	5.146325	1
TGTAC	2462640	1.0553806	5.8936486	5
TACAC	2198115	0.9901216	7.2314734	5
TACTG	2231820	0.9564612	5.2557178	7
GGACT	1988790	0.93648416	5.3674145	6
GTGTA	2131520	0.90503883	6.939621	1
ATACT	1883445	0.7649929	5.174719	6
>>END_MODULE
