Sender: LSF System <lsfadmin@node0089b>
Subject: Job 391373: <strand_g1k_encode_var_8> in cluster <thmorgan-cluster1> Done

Job <strand_g1k_encode_var_8> was submitted from host <node0070a> by user <aalonso> in cluster <thmorgan-cluster1>.
Job was executed on host(s) <node0089b>, in queue <normal>, as user <aalonso> in cluster <thmorgan-cluster1>.
</gpfs/gpfs1/home/aalonso> was used as the home directory.
</gpfs/gpfs1/home/aalonso/article/stranded_GSE69241/strand_g1k_encode> was used as the working directory.
Started at Thu Feb 25 13:55:13 2016
Results reported on Fri Feb 26 11:38:53 2016

Your job looked like:

------------------------------------------------------------
# LSBATCH: User input
/gpfs/gpfs1/software/samtools-1.2/bin/samtools mpileup -B -f /gpfs/gpfs1/myerslab/reference/genomes/rnaseq_pipeline/bedpipe/genomes_processed/g1k_v37/genome.fa /gpfs/gpfs1/home/aalonso/article/stranded_GSE69241/strand_g1k_encode/results_sam2sortbam/TS_2.sorted.bam | java -jar /gpfs/gpfs1/software/varscan/VarScan.v2.3.6.jar mpileup2cns --output-vcf 1 --variants 1 > /gpfs/gpfs1/home/aalonso/article/stranded_GSE69241/strand_g1k_encode/results_varscan/TS_2.vcf && (echo 'TS_2' >> /gpfs/gpfs1/home/aalonso/article/stranded_GSE69241/strand_g1k_encode/results_varscan/samples_ok.txt) || (echo 'TS_2' >> /gpfs/gpfs1/home/aalonso/article/stranded_GSE69241/strand_g1k_encode/results_varscan/samples_ko.txt)

------------------------------------------------------------

Successfully completed.

Resource usage summary:

    CPU time :                                   102375.06 sec.
    Max Memory :                                 1518 MB
    Average Memory :                             1265.94 MB
    Total Requested Memory :                     -
    Delta Memory :                               -
    Max Swap :                                   35149 MB
    Max Processes :                              5
    Max Threads :                                25

The output (if any) follows:

[mpileup] 1 samples in 1 input files
<mpileup> Set max per-file depth to 8000
Only variants will be reported
Warning: No p-value threshold provided, so p-values will not be calculated
Min coverage:	8
Min reads2:	2
Min var freq:	0.2
Min avg qual:	15
P-value thresh:	0.01
Input stream not ready, waiting for 5 seconds...
Reading input from STDIN
2004390287 bases in pileup file
231564 variant positions (218572 SNP, 12992 indel)
3399 were failed by the strand-filter
228165 variant positions reported (215265 SNP, 12900 indel)
