##FastQC	0.10.1
>>Basic Statistics	pass
#Measure	Value	
Filename	SRR018265_1.fastq.gz	
File type	Conventional base calls	
Encoding	Sanger / Illumina 1.9	
Total Sequences	8168750	
Filtered Sequences	0	
Sequence length	51	
%GC	48	
>>END_MODULE
>>Per base sequence quality	warn
#Base	Mean	Median	Lower Quartile	Upper Quartile	10th Percentile	90th Percentile
1	38.64826503442999	40.0	40.0	40.0	40.0	40.0
2	38.40169805661821	40.0	40.0	40.0	40.0	40.0
3	38.14871320581484	40.0	40.0	40.0	40.0	40.0
4	38.02797404743688	40.0	40.0	40.0	40.0	40.0
5	38.00107874521806	40.0	40.0	40.0	40.0	40.0
6	37.855256557000764	40.0	40.0	40.0	40.0	40.0
7	38.04785738332058	40.0	40.0	40.0	40.0	40.0
8	37.931395256312165	40.0	40.0	40.0	40.0	40.0
9	38.05561426166794	40.0	40.0	40.0	40.0	40.0
10	37.84726745218057	40.0	40.0	40.0	40.0	40.0
11	38.001194062739096	40.0	40.0	40.0	40.0	40.0
12	38.072902708492734	40.0	40.0	40.0	40.0	40.0
13	37.94396339709258	40.0	40.0	40.0	40.0	40.0
14	37.804732915072684	40.0	40.0	40.0	40.0	40.0
15	37.609706258607495	40.0	40.0	40.0	38.0	40.0
16	37.62299348125478	40.0	40.0	40.0	39.0	40.0
17	37.315164621270085	40.0	40.0	40.0	32.0	40.0
18	37.022426687069625	40.0	40.0	40.0	28.0	40.0
19	36.78589931140015	40.0	40.0	40.0	26.0	40.0
20	36.49361811782708	40.0	40.0	40.0	23.0	40.0
21	36.41814745218057	40.0	40.0	40.0	22.0	40.0
22	36.06605123182862	40.0	40.0	40.0	20.0	40.0
23	35.77177499617444	40.0	40.0	40.0	18.0	40.0
24	35.63030610558531	40.0	40.0	40.0	18.0	40.0
25	35.24915342004591	40.0	40.0	40.0	16.0	40.0
26	35.07692070390207	40.0	40.0	40.0	16.0	40.0
27	34.69252076511094	40.0	38.0	40.0	14.0	40.0
28	34.435594185156845	40.0	37.0	40.0	14.0	40.0
29	34.09855644988523	40.0	34.0	40.0	13.0	40.0
30	33.6633924407039	40.0	32.0	40.0	12.0	40.0
31	33.21532449885233	40.0	30.0	40.0	11.0	40.0
32	32.89429557765876	40.0	28.0	40.0	11.0	40.0
33	32.395708890589134	40.0	26.0	40.0	10.0	40.0
34	31.988856434583013	40.0	25.0	40.0	10.0	40.0
35	31.391920918133128	40.0	23.0	40.0	10.0	40.0
36	30.884715286916602	40.0	22.0	40.0	9.0	40.0
37	30.36323427697016	40.0	20.0	40.0	8.0	40.0
38	29.80897028309105	40.0	19.0	40.0	8.0	40.0
39	29.162947574598316	39.0	18.0	40.0	7.0	40.0
40	28.663710971690897	37.0	17.0	40.0	7.0	40.0
41	28.134581055853097	35.0	16.0	40.0	6.0	40.0
42	27.489475745983167	33.0	15.0	40.0	6.0	40.0
43	26.85834185156848	31.0	14.0	40.0	5.0	40.0
44	26.445535730680948	30.0	13.0	40.0	5.0	40.0
45	25.826349441469013	28.0	13.0	40.0	5.0	40.0
46	25.2890026013772	27.0	12.0	40.0	5.0	40.0
47	24.680990726855395	25.0	11.0	40.0	5.0	40.0
48	24.11458999234889	24.0	10.0	40.0	5.0	40.0
49	23.52033444529457	23.0	10.0	40.0	4.0	40.0
50	22.98138442234124	22.0	10.0	40.0	4.0	40.0
51	22.540448905891353	21.0	9.0	40.0	4.0	40.0
>>END_MODULE
>>Per sequence quality scores	pass
#Quality	Count
0	31928.0
1	12604.0
2	9043.0
3	12879.0
4	12979.0
5	11451.0
6	10556.0
7	11288.0
8	11157.0
9	12072.0
10	13136.0
11	14440.0
12	15356.0
13	18232.0
14	22731.0
15	27258.0
16	34110.0
17	41662.0
18	51552.0
19	61903.0
20	74151.0
21	86807.0
22	101103.0
23	117086.0
24	134066.0
25	152570.0
26	174526.0
27	197691.0
28	224403.0
29	254460.0
30	289614.0
31	330059.0
32	376956.0
33	432599.0
34	492132.0
35	557340.0
36	622797.0
37	706449.0
38	842802.0
39	1091321.0
40	473481.0
>>END_MODULE
>>Per base sequence content	warn
#Base	G	A	T	C
1	30.034682808078962	18.62156722263336	21.238318262183945	30.105431707103737
2	27.668067045766655	22.160894567588304	28.153802762084585	22.017235624560456
3	25.633163021842776	23.03446246469536	24.689858554319837	26.642515959142028
4	26.889576768153496	25.41595855464986	24.419276094702372	23.275188582494273
5	27.142995306443567	25.633606649610492	25.624219289715295	21.599178754230643
6	25.04748670946534	27.799782667317075	24.330143094437435	22.822587528780154
7	23.875059266574443	23.118596646580475	30.389811609503504	22.61653247734158
8	24.179744298611876	24.722596621588078	27.005720591783994	24.09193848801605
9	24.115640512289303	23.817453837007747	27.7271743817807	24.339731268922247
10	23.96208283631487	29.2818030185715	24.921074846443364	21.835039298670264
11	25.52244606656776	26.190517062201764	23.565927737036706	24.72110913419377
12	24.460835742113083	24.577358725916575	25.963160953006103	24.998644578964235
13	23.78044314375178	25.727863161466264	26.552299418529607	23.939394276252347
14	23.87613505385682	25.587902539895076	26.569822075325572	23.96614033092253
15	24.002332615333152	25.491357440319067	26.191623781411067	24.314686162936713
16	24.23056468657588	25.661854955055276	25.863371152792535	24.244209205576308
17	24.265432606792075	25.78641906381784	25.970878045513313	23.977270283876777
18	23.947158626707683	25.691645768005706	25.637175349756447	24.724020255530164
19	24.143534726492373	25.363252366135296	25.884590070729136	24.608622836643192
20	23.930823205144673	25.601141282837816	26.01502694015548	24.453008571862032
21	23.9416036733253	25.462779266015	26.078136678909846	24.51748038174985
22	24.05990931329152	25.72277098935361	25.82621298913006	24.391106708224815
23	23.95894031858295	25.662226702862924	25.881622313392878	24.49721066516125
24	23.685867827937763	25.89424533862934	25.94447647852387	24.475410354909027
25	24.05853975900279	25.63737107974146	25.729831290087514	24.574257871168236
26	23.8958780113106	25.91486017587649	26.04968967587903	24.13957213693388
27	23.703792620170432	25.681885022135187	26.075152206836883	24.5391701508575
28	23.926860819573427	25.863802118015972	25.86693070452924	24.34240635788136
29	23.86657256143131	25.709910594667342	26.144922639585072	24.278594204316285
30	23.622589727608343	25.61288772064929	26.172004246529777	24.59251830521259
31	23.835163371419053	25.375581300577217	26.114728614675126	24.674526713328607
32	24.08805385467576	25.33736802159037	26.317928403665114	24.25664972006876
33	23.795464464648056	25.314251799421527	26.448389168508275	24.441894567422143
34	24.108310418103702	25.326932534883216	26.238996823315077	24.325760223698005
35	24.193129153646204	25.196567310919598	26.270102258920424	24.340201276513778
36	23.946313752666114	24.91478697423928	26.720966647360704	24.4179326257339
37	24.03985030943741	24.850071770465227	26.52247957921068	24.587598340886686
38	24.09601986805688	25.226589709951064	26.4272773019056	24.250113120086453
39	24.16498844792233	24.939392900475635	26.351089343534788	24.544529308067244
40	24.176238197031	24.73075758200239	26.40481152814141	24.688192692825197
41	23.983895370909398	24.899404864983364	26.728752786194658	24.38794697791258
42	24.048219696017355	24.630641928976093	26.93957341466553	24.381564960341017
43	23.852615296398607	24.843585032661405	26.70499714224322	24.59880252869677
44	23.980590222755257	24.951141033726127	27.12455040706513	23.943718336453486
45	23.741175065194106	24.77755191364092	27.426271551478436	24.055001469686538
46	24.160221769566075	24.53159755288071	27.229580776401686	24.078599901151527
47	24.448090153943472	24.795012530542152	27.2134139847372	23.543483330777175
48	24.065515385807466	24.69435529268625	27.30319346995131	23.93693585155497
49	24.363098045361202	24.309310209154653	27.33666582169512	23.990925923789025
50	24.55697757527026	24.07787109006621	27.48157330474404	23.883578029919494
51	24.571473336173874	23.074739956557625	29.198585490802515	23.155201216465993
>>END_MODULE
>>Per base GC content	fail
#Base	%GC
1	60.140114515182695
2	49.68530267032711
3	52.27567898098481
4	50.16476535064777
5	48.742174060674216
6	47.870074238245486
7	46.49159174391602
8	48.27168278662793
9	48.45537178121155
10	45.79712213498513
11	50.243555200761534
12	49.45948032107732
13	47.71983742000413
14	47.842275384779356
15	48.31701877826987
16	48.47477389215219
17	48.242702890668845
18	48.67117888223785
19	48.75215756313557
20	48.383831777006705
21	48.45908405507515
22	48.45101602151633
23	48.4561509837442
24	48.161278182846786
25	48.63279763017103
26	48.03545014824448
27	48.24296277102793
28	48.269267177454786
29	48.14516676574759
30	48.21510803282093
31	48.50969008474766
32	48.34470357474452
33	48.237359032070195
34	48.43407064180171
35	48.53333043015998
36	48.36424637840002
37	48.6274486503241
38	48.34613298814333
39	48.70951775598957
40	48.8644308898562
41	48.37184234882198
42	48.42978465635837
43	48.451417825095376
44	47.92430855920874
45	47.796176534880644
46	48.2388216707176
47	47.991573484720654
48	48.002451237362436
49	48.35402396915022
50	48.44055560518975
51	47.726674552639864
>>END_MODULE
>>Per sequence GC content	pass
#GC Content	Count
0	34474.0
1	28763.5
2	23053.0
3	16348.5
4	9644.0
5	7646.5
6	5649.0
7	5468.0
8	5287.0
9	5691.0
10	6095.0
11	6617.0
12	7139.0
13	8172.5
14	9206.0
15	10981.0
16	12756.0
17	15775.5
18	18795.0
19	23659.0
20	28523.0
21	35236.0
22	41949.0
23	51107.0
24	60265.0
25	73114.5
26	102060.5
27	118157.0
28	132986.5
29	147816.0
30	168353.5
31	188891.0
32	222994.0
33	257097.0
34	288145.5
35	319194.0
36	346821.0
37	374448.0
38	393808.5
39	413169.0
40	434062.0
41	454955.0
42	471573.5
43	488192.0
44	494358.0
45	500524.0
46	505145.0
47	509766.0
48	502916.5
49	496067.0
50	488939.0
51	481811.0
52	467489.5
53	453168.0
54	439408.0
55	425648.0
56	407190.0
57	388732.0
58	366956.5
59	345181.0
60	323988.5
61	302796.0
62	277490.5
63	252185.0
64	227664.0
65	203143.0
66	182025.0
67	160907.0
68	141980.0
69	123053.0
70	108764.0
71	94475.0
72	81946.0
73	69417.0
74	61114.0
75	46172.5
76	39534.0
77	35627.0
78	31720.0
79	27351.5
80	22983.0
81	20272.0
82	17561.0
83	15590.0
84	13619.0
85	12329.5
86	11040.0
87	9901.0
88	8762.0
89	8420.0
90	8078.0
91	7561.5
92	7045.0
93	6328.0
94	5611.0
95	5062.5
96	4514.0
97	4819.5
98	5125.0
99	13940.5
100	22756.0
>>END_MODULE
>>Per base N content	pass
#Base	N-Count
1	0.351265493496557
2	0.606212700841622
3	0.8217169089517979
4	0.8898668706962509
5	0.8906748278500384
6	0.8976526396327468
7	0.9054996174445294
8	0.8732792654934965
9	0.8708553940321346
10	0.8522846212700842
11	0.8741484315225707
12	0.8769395562356542
13	0.8881530221882172
14	0.8746381025248662
15	0.8950696250956389
16	0.9498270849273145
17	0.9357123182861514
18	0.956327467482785
19	0.9551644988523336
20	0.9916939556235654
21	0.9947054322876817
22	0.9931262433052793
23	0.9869441469013007
24	0.981080336648814
25	0.9512104055087989
26	0.9432165263963275
27	0.9743596021423107
28	1.004205049732211
29	1.0132149961744452
30	1.028688599846978
31	1.0187237949502679
32	1.0468553940321348
33	1.0155409334353482
34	1.0579954093343535
35	1.0483978576893649
36	1.0392287681713848
37	1.1044284621270084
38	1.0605172149961744
39	1.0925906656465187
40	1.0934475899005356
41	1.1027268553940321
42	1.1573251721499616
43	1.1536036725325172
44	1.1943075745983167
45	1.2119602142310635
46	1.2221453710788064
47	1.2640489671002295
48	1.3361530221882172
49	1.3381117061973986
50	1.3440244835501147
51	1.3948523335883705
>>END_MODULE
>>Sequence Length Distribution	pass
#Length	Count
51	8168750.0
>>END_MODULE
>>Sequence Duplication Levels	warn
#Total Duplicate Percentage	40.51450870958599
#Duplication Level	Relative count
1	100.0
2	19.78127496756507
3	7.788047820446099
4	3.267681617275173
5	1.6660924890234339
6	1.1170809297279864
7	0.9030470508037265
8	0.7351917142501118
9	0.5614724358081612
10++	10.778658183497402
>>END_MODULE
>>Overrepresented sequences	warn
#Sequence	Count	Percentage	Possible Source
CCCCCCCCCCCCCCCCCCCCCCCCCCCCCCCCCCCCCCCCCCCCCCCCCCC	22516	0.27563580719204284	No Hit
NNNNNNNNNNNNNNNNNNNNNNNNNNNNNNNNNNNNNNNNNNNNNNNNNNN	11558	0.14149043611323642	No Hit
CAAACCCACTCCACCTTACTACCAGACAACCTTAGCCAAACCATTTACCCA	8877	0.10867023718439174	No Hit
>>END_MODULE
>>Kmer Content	warn
#Sequence	Count	Obs/Exp Overall	Obs/Exp Max	Max Obs/Exp Position
CCCCC	2444810	7.682182	8.087498	18
TTTTT	2521590	5.2984724	7.7135706	47
AAAAA	1493230	3.998854	6.250352	2
GGGGG	968145	2.9369373	6.100067	47
GTGGG	639930	1.8038116	5.081417	1
>>END_MODULE
