##FastQC	0.10.1
>>Basic Statistics	pass
#Measure	Value	
Filename	D03LTACXX_s7_2_nextera12index_12_SL6065.fastq.gz	
File type	Conventional base calls	
Encoding	Sanger / Illumina 1.9	
Total Sequences	27160078	
Filtered Sequences	0	
Sequence length	20-50	
%GC	49	
>>END_MODULE
>>Per base sequence quality	pass
#Base	Mean	Median	Lower Quartile	Upper Quartile	10th Percentile	90th Percentile
1	32.64096697365891	34.0	31.0	34.0	31.0	34.0
2	32.9596278405386	34.0	33.0	34.0	31.0	34.0
3	33.153344515431804	34.0	33.0	34.0	31.0	34.0
4	36.09039598487162	37.0	37.0	37.0	35.0	37.0
5	36.236999761193616	37.0	37.0	37.0	35.0	37.0
6	36.34339135550347	37.0	37.0	37.0	35.0	37.0
7	36.40734290232893	37.0	37.0	37.0	35.0	37.0
8	36.45973634538163	37.0	37.0	37.0	35.0	37.0
9	37.749547663301996	39.0	39.0	39.0	35.0	39.0
10	38.12471959763886	39.0	39.0	39.0	37.0	39.0
11	38.24881684802231	39.0	39.0	39.0	37.0	39.0
12	38.24898577242672	39.0	39.0	39.0	37.0	39.0
13	38.265674568386736	39.0	39.0	39.0	37.0	39.0
14	39.83498696137765	41.0	40.0	41.0	38.0	41.0
15	39.886322012771835	41.0	40.0	41.0	38.0	41.0
16	39.88572227222617	41.0	40.0	41.0	38.0	41.0
17	39.86872125330421	41.0	40.0	41.0	38.0	41.0
18	39.842113045478	41.0	40.0	41.0	38.0	41.0
19	39.84651770882249	41.0	40.0	41.0	38.0	41.0
20	39.79617297122637	41.0	40.0	41.0	38.0	41.0
21	39.76041583794618	41.0	40.0	41.0	38.0	41.0
22	39.715098021652416	41.0	40.0	41.0	38.0	41.0
23	39.67702961981871	41.0	40.0	41.0	38.0	41.0
24	39.65326221889054	41.0	40.0	41.0	38.0	41.0
25	39.60397620173042	41.0	40.0	41.0	38.0	41.0
26	39.53802259425935	41.0	40.0	41.0	37.0	41.0
27	39.48806605064219	41.0	40.0	41.0	37.0	41.0
28	39.42906153238312	41.0	39.0	41.0	37.0	41.0
29	39.37782583993092	41.0	39.0	41.0	37.0	41.0
30	39.31724123847995	40.0	39.0	41.0	37.0	41.0
31	39.25925728495225	40.0	39.0	41.0	37.0	41.0
32	39.35996704371653	40.0	39.0	41.0	37.0	41.0
33	39.39197249379326	40.0	39.0	41.0	37.0	41.0
34	39.38212458908474	40.0	39.0	41.0	37.0	41.0
35	39.37585784071467	40.0	39.0	41.0	37.0	41.0
36	39.270880173063084	40.0	39.0	41.0	36.0	41.0
37	37.67327290370795	40.0	38.0	41.0	33.0	41.0
38	38.234146341463415	40.0	38.0	41.0	33.0	41.0
39	35.75001075109503	39.0	35.0	41.0	24.0	41.0
40	37.05699400080246	39.0	36.0	41.0	30.0	41.0
41	36.38277479304872	39.0	35.0	40.0	30.0	41.0
42	37.16136140100124	39.0	37.0	40.0	31.0	41.0
43	35.992248009965834	39.0	35.0	40.0	27.0	41.0
44	36.79871730639847	39.0	36.0	40.0	30.0	41.0
45	36.7353473310983	39.0	35.0	40.0	30.0	41.0
46	37.061723480666444	39.0	36.0	40.0	31.0	41.0
47	36.653066051443275	38.0	35.0	40.0	30.0	41.0
48	36.944838229593714	38.0	35.0	40.0	31.0	41.0
49	36.74081991139289	38.0	35.0	40.0	31.0	41.0
50	36.45177660566169	38.0	34.0	40.0	30.0	41.0
>>END_MODULE
>>Per sequence quality scores	pass
#Quality	Count
17	46.0
18	489.0
19	2255.0
20	10159.0
21	17489.0
22	24570.0
23	31476.0
24	40108.0
25	49199.0
26	59291.0
27	72948.0
28	89220.0
29	111410.0
30	141520.0
31	186819.0
32	258572.0
33	389973.0
34	641381.0
35	1092026.0
36	1915410.0
37	3681492.0
38	7814459.0
39	1.0529766E7
>>END_MODULE
>>Per base sequence content	fail
#Base	G	A	T	C
1	44.42205946536678	18.56341870594039	9.985044961947457	27.029476866745377
2	17.26506455541107	20.51241899968034	35.99142461962002	26.231091825288573
3	19.753058146592952	22.31282620027822	30.729363148367984	27.204752504760847
4	13.337189237821775	14.545632011807918	36.36840439118032	35.74877435918998
5	13.99923446464329	36.19244024262375	35.5720701538486	14.236255138884356
6	35.54663944632265	35.924230409058474	15.538018705248197	12.99111143937068
7	28.86957835688101	30.51790204726216	21.494603218738913	19.117916377117915
8	27.082985549599677	35.18107348587144	19.932111387898075	17.803829576630818
9	26.92663106490342	13.280300594129368	17.89747437396903	41.89559396699818
10	15.246432650156603	26.621797625176185	35.61568563978351	22.5160840848837
11	39.103282398526254	20.02246090751286	20.907992237724795	19.966264456236097
12	20.36565579819027	24.168623521626113	32.2486187263527	23.217101953830912
13	30.568608823582906	19.1567159711397	25.065594436069	25.2090807692084
14	21.463609198765923	18.464843878577962	26.124380055167734	33.94716686748838
15	25.047115107695934	27.491342256086305	22.116111006750423	25.345431629467335
16	25.221584415184665	26.4315330758623	24.35862665784686	23.98825585110617
17	24.487856772723553	26.327199796701617	25.10103616049998	24.08390727007485
18	24.442731718222607	26.415612650302407	25.603173893683223	23.53848173779177
19	25.697772296530225	25.439260520533114	24.922568337248517	23.940398845688147
20	24.93825312283713	25.411230409573932	25.056397113439804	24.59411935414913
21	24.974722183425826	25.193662770722725	25.051947883573096	24.77966716227835
22	24.536634579555404	25.1742070635074	25.309549865801266	24.979608491135934
23	24.764457338104368	24.97152890376548	25.100260722110157	25.163753036019994
24	24.52046225494117	25.54305965055595	25.26621543637434	24.67026265812854
25	25.034642845178873	24.785044650532274	25.51572460509739	24.66458789919146
26	24.907707706244583	25.13263008962236	25.473913274089536	24.485748930043517
27	24.949630243871347	25.704516461974116	24.54461888660247	24.801234407552066
28	24.437478137661888	25.346718623547375	25.39097259604991	24.824830642740825
29	25.143577682565404	25.295688099999513	24.761379185716823	24.79935503171826
30	24.494234231394735	25.872585832484145	25.150909399905636	24.48227053621548
31	25.107858242881075	24.73391832543623	25.32966423182787	24.82855919985483
32	24.770625785957904	25.089923123615517	25.193181946580516	24.946269143846063
33	24.784661395481745	25.19607679907469	25.286844047827717	24.73241775761585
34	24.660322550147388	25.102666152435404	25.57876453637232	24.65824676104489
35	24.65155959379764	25.16367757753723	25.36313632830828	24.821626500356853
36	24.64113042315588	25.009230305965264	25.592374407726716	24.757264863152148
37	25.573512235618175	24.996959220625673	25.268030569715723	24.161497974040433
38	25.079052992912292	24.223533627099837	25.630282016226275	25.067131363761597
39	25.873537442174467	26.026218948783058	24.326237451038637	23.77400615800384
40	24.692660181622152	25.032580621422944	25.737862798659037	24.536896398295866
41	25.466542605941967	25.205984335917474	24.99526235622809	24.332210701912473
42	24.52241756278887	25.233393922314917	25.34523010383086	24.898958411065347
43	25.106651308082522	25.154833394840615	25.29262380122968	24.44589149584718
44	24.651190697373437	24.87488112706387	25.401215964647832	25.07271221091486
45	24.709429602946397	25.486666164994865	25.25658136128854	24.5473228707702
46	24.44746145946867	24.636173449997177	26.11453162800358	24.801833462530574
47	24.75384739575298	24.752986688113065	25.618367361931522	24.874798554202435
48	24.755721253723202	23.240404558486574	26.492812542553562	25.51106164523666
49	24.889027964288186	19.37238549569218	28.290686824118804	27.44789971590083
50	26.451053958973446	0.0	36.837303641178394	36.71164239984816
>>END_MODULE
>>Per base GC content	fail
#Base	%GC
1	71.45153633211216
2	43.49615638069964
3	46.957810651353796
4	49.08596359701176
5	28.235489603527647
6	48.537750885693335
7	47.98749473399893
8	44.88681512623049
9	68.82222503190161
10	37.7625167350403
11	59.06954685476234
12	43.58275775202118
13	55.777689592791305
14	55.4107760662543
15	50.39254673716327
16	49.20984026629084
17	48.57176404279841
18	47.98121345601437
19	49.63817114221837
20	49.53237247698626
21	49.75438934570418
22	49.51624307069134
23	49.92821037412436
24	49.19072491306971
25	49.69923074437034
26	49.3934566362881
27	49.75086465142341
28	49.26230878040271
29	49.942932714283664
30	48.976504767610216
31	49.9364174427359
32	49.71689492980397
33	49.51707915309759
34	49.31856931119228
35	49.47318609415449
36	49.39839528630802
37	49.73501020965861
38	50.146184356673885
39	49.64754360017831
40	49.22955657991802
41	49.79875330785444
42	49.42137597385422
43	49.5525428039297
44	49.723902908288295
45	49.256752473716595
46	49.249294921999244
47	49.62864594995541
48	50.26678289895986
49	52.336927680189014
50	63.1626963588216
>>END_MODULE
>>Per sequence GC content	warn
#GC Content	Count
0	2429.0
1	1692.0
2	901.5
3	940.5
4	1098.5
5	1422.0
6	1752.5
7	2545.0
8	3358.0
9	4548.0
10	5867.0
11	8087.5
12	10640.0
13	14792.5
14	19228.5
15	24458.5
16	29961.0
17	37388.5
18	45932.0
19	58452.5
20	71726.0
21	89671.5
22	109029.0
23	133632.5
24	157888.5
25	178269.0
26	209230.0
27	248223.5
28	289503.5
29	326218.0
30	362502.0
31	399953.5
32	435139.5
33	484410.5
34	539100.5
35	593010.0
36	654526.0
37	732625.0
38	813172.0
39	910421.5
40	1007539.0
41	1133622.0
42	1268828.5
43	1433236.5
44	1610127.0
45	1789240.0
46	1973275.0
47	2140403.5
48	2290048.5
49	2440091.0
50	2584414.0
51	2659717.5
52	2695564.5
53	2611757.5
54	2487193.0
55	2359218.0
56	2230475.5
57	2056160.5
58	1877839.0
59	1680530.5
60	1485736.0
61	1283590.0
62	1077050.5
63	914817.0
64	745005.5
65	604684.5
66	490796.5
67	399618.0
68	315155.5
69	247497.5
70	189352.0
71	153213.5
72	128055.0
73	111079.5
74	94087.0
75	76322.0
76	63539.0
77	55477.0
78	48093.5
79	38502.0
80	30198.5
81	25387.0
82	20079.5
83	14849.0
84	10206.0
85	7672.0
86	5700.5
87	4880.0
88	4046.5
89	3563.0
90	3409.0
91	2871.5
92	2423.5
93	1952.5
94	1151.0
95	613.0
96	251.5
97	163.0
98	87.5
99	13.5
100	12.0
>>END_MODULE
>>Per base N content	pass
#Base	N-Count
1	0.0
2	0.0
3	0.0
4	0.0
5	0.0
6	0.0
7	0.0
8	0.0
9	0.0
10	0.0
11	0.0
12	0.0
13	0.0
14	0.0
15	0.0
16	0.0
17	0.0
18	0.0
19	0.0
20	0.0
21	0.0
22	0.0
23	0.0
24	0.0
25	0.0
26	0.0
27	0.0
28	0.0
29	0.0
30	0.0
31	0.0
32	0.0
33	0.0
34	0.0
35	0.0
36	0.0
37	0.0
38	0.0
39	0.0
40	0.0
41	0.0
42	0.0
43	0.0
44	0.0
45	0.0
46	0.0
47	0.0
48	0.0
49	0.0
50	0.0
>>END_MODULE
>>Sequence Length Distribution	warn
#Length	Count
20	9790.0
21	10315.0
22	10705.0
23	11851.0
24	12253.0
25	12707.0
26	14204.0
27	14016.0
28	15465.0
29	16990.0
30	18084.0
31	20363.0
32	25458.0
33	38359.0
34	68325.0
35	161103.0
36	341716.0
37	388769.0
38	902391.0
39	131379.0
40	218907.0
41	206971.0
42	382733.0
43	143632.0
44	209749.0
45	287789.0
46	481727.0
47	980614.0
48	2318974.0
49	5426669.0
50	1.427807E7
>>END_MODULE
>>Sequence Duplication Levels	fail
#Total Duplicate Percentage	52.395709595550045
#Duplication Level	Relative count
1	100.0
2	17.998581991289374
3	8.813752842923307
4	5.495244146110144
5	4.0293546218796905
6	2.9741351528042506
7	2.2780217857701905
8	1.9971823982762906
9	1.7329171385689162
10++	38.83778532821377
>>END_MODULE
>>Overrepresented sequences	pass
>>END_MODULE
>>Kmer Content	warn
#Sequence	Count	Obs/Exp Overall	Obs/Exp Max	Max Obs/Exp Position
GTGTG	3570230	2.9238925	8.908926	9
CAGCA	3102335	2.7912343	7.9407353	4
TGCTG	3377935	2.7823608	7.225542	2
TGTGT	3403000	2.7251625	8.822426	10
ACACA	2946895	2.7018526	8.605137	6
CACAC	2977970	2.6947896	7.7375145	5
TCCAG	3091450	2.6689818	10.957597	2
CTCCA	3068520	2.6644607	8.408653	1
TGGAG	3083290	2.6315029	8.315281	5
CTGGA	3012030	2.585507	10.797693	4
CAGAG	2886145	2.5818365	9.775893	4
AGCAG	2841745	2.5421178	7.1294217	7
GAGGA	2829610	2.5167508	6.9764295	6
CTCTG	2994250	2.4805455	8.120116	2
CTGCT	2986565	2.474179	7.611244	9
AGGAG	2690450	2.3929772	8.188847	7
AGCTG	2712380	2.3282893	7.5286756	7
TGAAG	2674455	2.3260236	5.8047104	5
CTTCA	2716470	2.293261	5.9199476	1
CAGCT	2639085	2.2784357	5.320767	9
AGAAG	2473310	2.2417214	5.8042665	5
GAAGA	2446175	2.217127	5.1822386	6
CTCCT	2651790	2.2095063	5.4139442	1
AGAGA	2419540	2.192986	5.3494396	6
CTTCT	2691920	2.1806529	5.3774476	1
CCAGA	2393695	2.1536565	7.8662443	3
GGAGA	2418520	2.1511133	5.271778	6
TGCAG	2472320	2.1222231	6.033195	2
CTGCA	2447865	2.113347	5.7414904	4
TCTGG	2543370	2.0949404	7.4292264	3
GCAGA	2314880	2.0708044	5.1756577	3
CAGGA	2294035	2.0521574	8.940558	4
GAGAG	2224595	1.9786301	6.6976924	7
GCTGA	2299405	1.9737945	5.4744415	8
TCCTG	2371075	1.9642847	7.5410175	2
CTGTG	2378100	1.9588097	9.211554	9
CTGAA	2234810	1.9548634	6.2925024	4
GCTGC	2301725	1.9500575	5.3923626	8
CAGTG	2271245	1.9496218	7.020254	9
CACTG	2243660	1.9370481	7.5426984	7
CACAG	2125410	1.9122747	5.953575	7
CAGAA	2066615	1.8839076	6.625107	4
AGAGG	2108605	1.8754647	6.408798	5
ACAGA	2046930	1.865963	6.995671	8
CCTCA	2136375	1.8550597	5.7528577	1
TGAGG	2144795	1.8305231	5.213075	5
CTCAG	2109365	1.8211055	5.9200945	2
TTCAG	2167735	1.8195244	6.3794746	2
CTGAG	2105470	1.8073215	6.498636	9
ACAGC	1988845	1.7894044	6.8318615	8
GAGCT	2058130	1.7666855	5.5532403	6
GCTGT	2143805	1.7658244	6.39724	8
AAGAG	1934245	1.7531317	5.550877	5
AGAGC	1951365	1.7456176	6.2718873	5
TTCTG	2163535	1.7425746	5.934045	2
TCAGA	1990910	1.741516	6.452716	3
CCAGG	1958390	1.729089	6.2493553	3
TCTGA	2027605	1.7019036	5.4666452	3
CCTCT	2019570	1.6827326	5.3522797	1
GCTCA	1944570	1.678831	5.295171	1
CAAGA	1836035	1.673713	6.9294057	4
CCTGG	1959350	1.659992	5.617307	3
TGAGC	1920090	1.6481925	5.197702	10
GGCTG	1935315	1.6302291	5.798585	7
CCTGA	1824995	1.5755967	5.3380203	3
GCTCT	1900840	1.5747252	5.2599187	1
AACAG	1719425	1.5674124	6.49598	7
TGCTC	1891815	1.5672483	5.1109138	10
TCTTG	1937745	1.5607165	6.1171174	2
TCAGG	1817715	1.5603145	5.7596617	3
GTCCA	1785405	1.5414169	8.075665	1
CAGGG	1748875	1.5352529	5.9164424	4
CCCTG	1786730	1.522474	5.161845	2
ACCTG	1737315	1.4998987	5.2729874	7
GACAG	1676500	1.4997337	6.7496705	7
TGGAC	1739505	1.4931798	8.151337	5
CTGTC	1801770	1.4926517	5.521177	9
GAACA	1617115	1.4741476	5.3512564	6
GTGCT	1784475	1.4698488	5.2981405	1
GGACA	1622390	1.4513289	6.339665	6
AGACA	1591610	1.4508975	5.4953976	6
TCAAG	1654215	1.4469975	5.0321193	3
ACTGG	1677315	1.4397962	5.1451073	8
ACACC	1588280	1.4372478	5.339253	6
AACAC	1560460	1.4307035	5.238951	5
AGCAC	1584720	1.4258049	5.6846557	5
TGTGC	1721720	1.4181583	6.623716	10
ACTGA	1589915	1.3907521	5.985523	8
GTGTT	1717530	1.3754182	5.3439293	1
TGAAC	1547520	1.3536677	5.8789062	5
GACTG	1571155	1.3486692	6.4124856	7
ACTGC	1547720	1.3362132	6.0137577	8
GTTCA	1589510	1.3341814	5.9263783	1
TACAG	1514335	1.3246398	5.285695	7
AGGAC	1468345	1.3135262	6.831986	5
ACAGT	1491765	1.3048971	6.444648	8
AGAAC	1430750	1.304259	5.381886	5
ACACT	1478960	1.3011557	6.727378	6
ACTGT	1532795	1.2865767	7.635535	8
AGTGT	1528075	1.2752618	5.177983	8
AACTG	1453555	1.2714735	5.595172	7
AGACT	1449365	1.2678084	5.6739335	6
GTCCT	1497195	1.2403307	5.87595	1
AAGAC	1344220	1.2253789	5.4239273	5
ATACA	1294430	1.1538353	5.6282706	6
GTGCA	1330090	1.1417406	5.0223846	1
GTCTT	1414605	1.1393642	5.279403	1
GTACA	1299690	1.1368825	6.2994184	1
TGTAC	1219525	1.0236285	5.481393	5
TACTG	1191515	1.0001178	5.2843385	7
TACAC	1062790	0.93501866	6.877502	5
GGACT	1077875	0.9252408	5.1805477	6
GTGTA	1106805	0.92368907	6.8885207	1
ATACT	899165	0.76909584	5.074799	6
>>END_MODULE
