##FastQC	0.10.1
>>Basic Statistics	pass
#Measure	Value	
Filename	SRR2040582_2.fastq.gz	
File type	Conventional base calls	
Encoding	Sanger / Illumina 1.9	
Total Sequences	85271817	
Filtered Sequences	0	
Sequence length	25-100	
%GC	46	
>>END_MODULE
>>Per base sequence quality	pass
#Base	Mean	Median	Lower Quartile	Upper Quartile	10th Percentile	90th Percentile
1	32.721296650685886	34.0	31.0	34.0	31.0	34.0
2	32.806521303515794	34.0	31.0	34.0	31.0	34.0
3	32.861815305284274	34.0	31.0	34.0	31.0	34.0
4	36.31919393719498	37.0	37.0	37.0	35.0	37.0
5	36.315565962432814	37.0	37.0	37.0	35.0	37.0
6	36.32853146544303	37.0	37.0	37.0	35.0	37.0
7	36.320470079815465	37.0	37.0	37.0	35.0	37.0
8	36.31250166746183	37.0	37.0	37.0	35.0	37.0
9	38.127804348299506	39.0	39.0	39.0	37.0	39.0
10-14	38.4268996496228	39.4	39.2	39.4	37.0	39.4
15-19	39.639094701124996	41.0	40.0	41.0	37.0	41.0
20-24	39.608350365045	41.0	39.6	41.0	37.0	41.0
25-29	39.527128625409304	41.0	39.0	41.0	37.0	41.0
30-34	39.42186173729273	41.0	39.0	41.0	36.0	41.0
35-39	39.273022448415944	40.8	39.0	41.0	35.8	41.0
40-44	39.07737943140269	40.0	38.4	41.0	35.0	41.0
45-49	38.8220458464039	40.0	38.0	41.0	35.0	41.0
50-54	37.715929922333174	39.2	36.6	40.2	33.2	40.6
55-59	38.05928492854185	39.6	36.4	41.0	33.8	41.0
60-64	37.47265540569039	38.8	35.2	40.6	33.0	41.0
65-69	36.99698671500656	37.4	35.0	40.0	33.0	41.0
70-74	36.647441864316896	36.6	35.0	39.2	33.4	41.0
75-79	35.86238774096607	35.4	35.0	37.8	33.0	39.8
80-84	35.16896411586074	35.0	35.0	36.4	33.0	38.4
85-89	34.68473234183115	35.0	35.0	35.6	33.0	36.8
90-94	34.392509211724914	35.0	34.2	35.0	33.0	36.0
95-99	34.34561099336374	35.0	34.0	35.0	33.0	35.8
100	34.420419372369345	35.0	34.0	35.0	33.0	35.0
>>END_MODULE
>>Per sequence quality scores	pass
#Quality	Count
18	1.0
19	14.0
20	38.0
21	247.0
22	1264.0
23	4281.0
24	11857.0
25	25963.0
26	52184.0
27	97058.0
28	171491.0
29	293537.0
30	683107.0
31	1156251.0
32	1711044.0
33	2404380.0
34	3482737.0
35	5574199.0
36	1.0494886E7
37	2.0670281E7
38	2.7894954E7
39	1.0442119E7
40	99924.0
>>END_MODULE
>>Per base sequence content	fail
#Base	G	A	T	C
1	42.326664517176674	21.17536975451698	8.70201545192323	27.795950276383113
2	25.832893885678548	26.84331213441834	29.558501139948735	17.765292839954377
3	22.881298518594953	26.956540635225352	28.01451269649854	22.147648149681153
4	24.79110184787079	33.69312981802651	21.52948142291843	19.986286911184266
5	25.79677644256132	34.99240083039394	20.68469234096419	18.52613038608055
6	21.969507228865545	36.71315224818066	20.82634992989536	20.49099059305843
7	21.349542721717775	20.7400928257457	35.04644799582493	22.8639164567116
8	21.64497444683277	24.139646279614283	27.105860779300624	27.109518494252328
9	22.235038362499516	23.390207850152976	28.63849293417183	25.736260853175686
10-14	24.17948370056967	27.861122278950308	24.466066691459893	23.49332732902013
15-19	23.848815946296853	27.17196443080904	25.777524753419932	23.20169486947417
20-24	23.691281962480055	27.497946713156118	25.66231982602177	23.14845149834206
25-29	23.689748243760892	27.31422019929097	25.762045767123404	23.23398578982474
30-34	23.49992327273117	27.383680790660986	25.874430775211593	23.24196516139625
35-39	23.451202377915294	27.442380918661918	25.877085725692655	23.22933097773013
40-44	23.4898347004799	27.3526844838753	25.91266508643839	23.244815729206415
45-49	23.392894973155	27.346809130840064	26.04815397220363	23.212141923801305
50-54	23.285339570855783	27.443365795327296	26.03092874651493	23.24036588730199
55-59	23.341412921248146	27.364492106510575	25.97008744491278	23.3240075273285
60-64	23.28839156892141	27.381103114120315	26.093992893768668	23.236512423189605
65-69	23.20873682110074	27.521686607094725	26.092130943015334	23.177445628789204
70-74	23.320956955365503	27.49013118055207	26.04231857947252	23.1465932846099
75-79	23.243163983892924	27.518815560656584	26.11323767078496	23.12478278466553
80-84	23.198090166637357	27.548968799464767	26.14934588684613	23.103595147051745
85-89	23.24639457421495	27.507785337493612	26.059483154241757	23.186336934049677
90-94	23.126268462300466	27.50360436340576	26.173054163141842	23.197073011151932
95-99	22.909107276318508	27.685439715630793	26.154276052418833	23.251176955631863
100	23.6351245818847	27.442433297888424	25.452230328027575	23.4702117921993
>>END_MODULE
>>Per base GC content	fail
#Base	%GC
1	70.12261479355979
2	43.59818672563293
3	45.02894666827611
4	44.77738875905506
5	44.32290682864187
6	42.46049782192397
7	44.213459178429375
8	48.75449294108509
9	47.9712992156752
10-14	47.6728110295898
15-19	47.05051081577103
20-24	46.83973346082212
25-29	46.92373403358563
30-34	46.74188843412742
35-39	46.68053335564542
40-44	46.73465042968631
45-49	46.60503689695631
50-54	46.52570545815777
55-59	46.66542044857665
60-64	46.524903992111014
65-69	46.386182449889944
70-74	46.46755023997541
75-79	46.367946768558454
80-84	46.3016853136891
85-89	46.43273150826463
90-94	46.323341473452395
95-99	46.16028423195037
100	47.105336374084
>>END_MODULE
>>Per sequence GC content	pass
#GC Content	Count
0	5815.0
1	4848.0
2	3379.5
3	2886.5
4	3088.0
5	3898.5
6	5167.5
7	6169.5
8	7122.5
9	8580.5
10	10332.5
11	12012.0
12	13786.0
13	16358.0
14	19415.0
15	22464.5
16	26372.5
17	32143.0
18	40489.0
19	52415.0
20	69527.5
21	95337.5
22	132772.0
23	184844.5
24	252998.0
25	340533.5
26	447682.0
27	571357.5
28	712011.0
29	864121.0
30	1026419.0
31	1200193.5
32	1378541.0
33	1558944.5
34	1744977.5
35	1936686.5
36	2128070.5
37	2329951.0
38	2504445.0
39	2641920.5
40	2759084.5
41	2842900.0
42	2926036.0
43	2994596.0
44	3016895.0
45	3022980.0
46	2983487.0
47	2912106.0
48	2866574.5
49	2828056.5
50	2778817.0
51	2721838.0
52	2659160.0
53	2590713.5
54	2515506.5
55	2426263.5
56	2327584.5
57	2209036.5
58	2087526.0
59	1978177.5
60	1858242.0
61	1720990.0
62	1561987.0
63	1389926.5
64	1226515.5
65	1072202.0
66	923217.5
67	781271.5
68	644370.0
69	518827.5
70	409915.0
71	316729.0
72	241686.0
73	180519.5
74	133133.5
75	98725.5
76	74124.0
77	56098.5
78	42594.0
79	32464.0
80	24996.0
81	19631.0
82	15711.0
83	12122.0
84	9316.0
85	7432.5
86	5885.5
87	4583.0
88	3537.5
89	2870.0
90	2332.0
91	1800.5
92	1475.0
93	1317.0
94	1005.5
95	506.0
96	230.0
97	194.0
98	130.5
99	60.0
100	50.0
>>END_MODULE
>>Per base N content	pass
#Base	N-Count
1	0.04960255508569731
2	0.0
3	0.0
4	0.0
5	0.0
6	0.0
7	0.0
8	0.0
9	1.172720407728617E-6
10-14	7.871299376674477E-4
15-19	5.25613286743966E-4
20-24	0.0
25-29	3.709558972106847E-5
30-34	0.004315685826499801
35-39	0.00633910484831249
40-44	0.006263999025014712
45-49	0.0025953205547618726
50-54	0.003270836611164269
55-59	0.002216298085393275
60-64	0.0019475283951527898
65-69	0.0016688453954684637
70-74	0.0010748338229356908
75-79	0.004305600593653606
80-84	0.002767382253973727
85-89	3.5867157352828316E-4
90-94	0.0013065212572776163
95-99	4.591360127034356E-4
100	0.0
>>END_MODULE
>>Sequence Length Distribution	warn
#Length	Count
24-25	42374.0
26-27	87377.0
28-29	90172.0
30-31	95132.0
32-33	100640.0
34-35	102725.0
36-37	106253.0
38-39	111311.0
40-41	115055.0
42-43	122069.0
44-45	125856.0
46-47	133065.0
48-49	146288.0
50-51	144002.0
52-53	103584.0
54-55	113204.0
56-57	119210.0
58-59	123657.0
60-61	127245.0
62-63	130045.0
64-65	129579.0
66-67	112517.0
68-69	120825.0
70-71	140840.0
72-73	158813.0
74-75	240924.0
76-77	202786.0
78-79	219579.0
80-81	235341.0
82-83	266361.0
84-85	292570.0
86-87	331509.0
88-89	367755.0
90-91	421260.0
92-93	509332.0
94-95	724383.0
96-97	762787.0
98-99	4680990.0
100-101	7.3114402E7
>>END_MODULE
>>Sequence Duplication Levels	fail
#Total Duplicate Percentage	67.73627052245106
#Duplication Level	Relative count
1	100.0
2	43.50420193199151
3	25.25346173400724
4	17.087358315638365
5	13.006549630648683
6	10.412118312049525
7	8.526482638992732
8	6.775428417621198
9	5.939528067709424
10++	68.56476358524988
>>END_MODULE
>>Overrepresented sequences	pass
>>END_MODULE
>>Kmer Content	warn
#Sequence	Count	Obs/Exp Overall	Obs/Exp Max	Max Obs/Exp Position
TTTTT	29446050	3.2498772	5.0059094	2
GAAGA	22814940	2.4720998	6.2064395	2
GGAAG	16226120	2.0470512	6.7274723	1
GGAGA	16047690	2.024541	5.6617036	1
GAAAA	21006455	1.9549338	5.739612	2
GGAAA	16335460	1.7700194	6.486493	1
GTGGA	12483245	1.6798368	5.0268426	1
GTTTT	12912885	1.5556251	5.6259284	1
>>END_MODULE
