##FastQC	0.10.1
>>Basic Statistics	pass
#Measure	Value	
Filename	SRR2040581_1.fastq.gz	
File type	Conventional base calls	
Encoding	Sanger / Illumina 1.9	
Total Sequences	68228322	
Filtered Sequences	0	
Sequence length	25-100	
%GC	48	
>>END_MODULE
>>Per base sequence quality	pass
#Base	Mean	Median	Lower Quartile	Upper Quartile	10th Percentile	90th Percentile
1	32.657374660335336	34.0	31.0	34.0	31.0	34.0
2	32.996558745794744	34.0	33.0	34.0	31.0	34.0
3	33.16767400493889	34.0	33.0	34.0	31.0	34.0
4	36.49513212416392	37.0	37.0	37.0	35.0	37.0
5	36.45655293999462	37.0	37.0	37.0	35.0	37.0
6	36.43016989337654	37.0	37.0	37.0	35.0	37.0
7	36.38630681844997	37.0	37.0	37.0	35.0	37.0
8	36.38364915379276	37.0	37.0	37.0	35.0	37.0
9	38.22316132881005	39.0	39.0	39.0	37.0	39.0
10-14	38.42736736805574	39.4	39.2	39.4	37.2	39.4
15-19	39.75291090992975	41.0	40.0	41.0	37.8	41.0
20-24	39.81288924561269	41.0	40.0	41.0	38.0	41.0
25-29	39.66450974598355	41.0	39.8	41.0	37.0	41.0
30-34	39.40805947751246	40.8	39.0	41.0	36.4	41.0
35-39	39.147382058153205	40.0	38.6	41.0	35.4	41.0
40-44	39.10127163084856	40.0	38.6	41.0	35.0	41.0
45-49	39.04199503751148	40.0	38.2	41.0	35.0	41.0
50-54	38.93887525729275	40.0	38.0	41.0	35.0	41.0
55-59	38.49908173831769	40.0	36.8	41.0	35.0	41.0
60-64	37.89842145604764	39.0	35.4	41.0	34.0	41.0
65-69	37.18585781371943	37.8	35.0	40.2	33.8	41.0
70-74	36.45008197971073	36.4	35.0	39.2	33.0	41.0
75-79	35.052642254627685	35.0	34.0	37.2	31.8	39.2
80-84	35.156270087935084	35.0	35.0	36.4	33.0	38.0
85-89	34.63129480380493	35.0	35.0	35.4	33.0	36.6
90-94	34.29705943694947	35.0	34.0	35.0	33.0	36.0
95-99	34.32729194868832	35.0	34.0	35.0	33.0	35.4
100	33.962198975876305	34.0	33.0	35.0	31.0	35.0
>>END_MODULE
>>Per sequence quality scores	pass
#Quality	Count
20	2.0
21	23.0
22	152.0
23	744.0
24	2448.0
25	6758.0
26	15905.0
27	34283.0
28	69498.0
29	132591.0
30	296164.0
31	603160.0
32	1065063.0
33	1712408.0
34	2766456.0
35	4673784.0
36	8982791.0
37	1.7158764E7
38	2.3099484E7
39	7580618.0
40	27226.0
>>END_MODULE
>>Per base sequence content	fail
#Base	G	A	T	C
1	39.646576369700895	8.566199095558089	11.57089911936197	40.21632541537905
2	25.64639440612657	10.539783399512825	36.3738201540848	27.440002040275807
3	25.44595336816286	13.155991143970974	23.435651839715476	37.96240364815069
4	27.754411137357298	19.95614372576831	22.53851706920185	29.750928067672543
5	29.26916185920562	23.99595728002808	24.836360477984496	21.898520382781804
6	24.773163848291624	28.390031342116256	24.710039036281735	22.126765773310385
7	18.864942919159	23.958006764404963	39.030445450497815	18.146604865938222
8	21.167618632039638	23.00577757137278	32.607089472316204	23.21951432427138
9	20.71170678944735	20.853551110343883	35.33956910152356	23.09517299868521
10-14	23.943113535754257	25.551921971641043	27.569366574778144	22.93559791782656
15-19	24.412129027590623	24.162250978413333	27.708113061904115	23.717506932091926
20-24	24.005860003159455	24.39970406029601	27.890007792757597	23.704428143786938
25-29	23.918819635568237	24.481986664156704	27.72639923970844	23.87279446056662
30-34	24.000866857964663	24.45518228791388	27.5022724412098	24.04167841291165
35-39	24.03875225655561	24.443508425782078	27.53222705800664	23.985512259655664
40-44	24.101534022749238	24.446781257731804	27.449064366090504	24.00262035342845
45-49	24.050380911988004	24.38848420441578	27.49045760975955	24.070677273836672
50-54	24.112972073338465	24.44745579341237	27.365794405743888	24.073777727505274
55-59	24.041450974132097	24.40824322731717	27.411539280115676	24.138766518435055
60-64	24.054161764161314	24.323163280413375	27.408602640752548	24.214072314672762
65-69	24.00849021551126	24.38971730567082	27.457530027452005	24.14426245136592
70-74	24.05652007147161	24.412508041686777	27.342491348514503	24.18848053832711
75-79	24.07717084866031	24.374117359009624	27.37115193171837	24.1775598606117
80-84	24.08939579927892	24.286066741933574	27.461307064214058	24.16323039457345
85-89	24.072177013307332	24.357898650377045	27.380980989129117	24.188943347186505
90-94	24.001038676146795	24.326503576826077	27.37000381131437	24.302453935712762
95-99	23.84197641602364	24.435456696778814	27.421949699889385	24.300617187308156
100	21.047069003432156	25.77862002631936	27.262349579550875	25.91196139069761
>>END_MODULE
>>Per base GC content	fail
#Base	%GC
1	79.86290178507994
2	53.08639644640238
3	63.408357016313545
4	57.505339205029834
5	51.16768224198742
6	46.89992962160201
7	37.01154778509722
8	44.387132956311014
9	43.806879788132555
10-14	46.87871145358082
15-19	48.129635959682545
20-24	47.7102881469464
25-29	47.79161409613486
30-34	48.04254527087632
35-39	48.02426451621128
40-44	48.10415437617769
45-49	48.12105818582467
50-54	48.18674980084374
55-59	48.18021749256716
60-64	48.26823407883408
65-69	48.15275266687718
70-74	48.24500060979872
75-79	48.25473070927201
80-84	48.25262619385237
85-89	48.261120360493834
90-94	48.303492611859554
95-99	48.142593603331804
100	46.95903039412976
>>END_MODULE
>>Per sequence GC content	warn
#GC Content	Count
0	315.0
1	291.0
2	392.0
3	528.5
4	598.5
5	942.5
6	1558.0
7	2033.5
8	2496.5
9	3294.0
10	4195.0
11	4957.5
12	5677.5
13	6914.5
14	8430.0
15	9707.0
16	11131.5
17	13037.5
18	15606.5
19	19268.5
20	24516.5
21	31876.0
22	41503.0
23	54596.5
24	71782.0
25	93397.5
26	121830.0
27	157502.5
28	200917.0
29	253383.5
30	322121.5
31	407934.5
32	513512.0
33	653485.5
34	835648.5
35	1046391.0
36	1291016.5
37	1574301.0
38	1865963.5
39	2127931.0
40	2342731.0
41	2523096.0
42	2670228.0
43	2763356.0
44	2805255.0
45	2818779.0
46	2796788.5
47	2725159.0
48	2640139.5
49	2561518.0
50	2487003.0
51	2410860.0
52	2310728.0
53	2212340.0
54	2134347.5
55	2049276.0
56	1922789.5
57	1786259.5
58	1684007.0
59	1587146.0
60	1495884.0
61	1406161.5
62	1279108.0
63	1139345.5
64	1002636.0
65	866431.5
66	745088.0
67	640352.0
68	543443.0
69	450637.5
70	367128.0
71	297229.0
72	246545.5
73	197383.0
74	150898.5
75	124221.0
76	106270.5
77	87803.5
78	70688.5
79	56525.0
80	44406.0
81	34800.5
82	26667.5
83	20293.0
84	16134.5
85	12993.0
86	10294.5
87	7675.5
88	5284.5
89	3884.5
90	3191.5
91	2588.5
92	2335.5
93	2343.0
94	2066.5
95	1279.5
96	502.5
97	259.0
98	170.5
99	72.0
100	54.0
>>END_MODULE
>>Per base N content	pass
#Base	N-Count
1	0.04918925017678142
2	0.0033006820833143165
3	0.0
4	0.0
5	0.0
6	0.0
7	0.0
8	0.0
9	0.0
10-14	0.0
15-19	0.0
20-24	1.4568729976973492E-4
25-29	0.002163552355855084
30-34	0.0
35-39	0.0
40-44	0.0
45-49	0.0
50-54	0.0
55-59	0.0
60-64	0.0
65-69	4.7930218442899205E-6
70-74	0.0
75-79	0.0
80-84	0.0
85-89	0.0
90-94	0.0
95-99	2.8078167459307615E-5
100	0.0
>>END_MODULE
>>Sequence Length Distribution	warn
#Length	Count
24-25	19864.0
26-27	46542.0
28-29	53495.0
30-31	56839.0
32-33	59745.0
34-35	61213.0
36-37	60973.0
38-39	54613.0
40-41	58066.0
42-43	59826.0
44-45	59471.0
46-47	57488.0
48-49	58530.0
50-51	68142.0
52-53	77736.0
54-55	81073.0
56-57	88233.0
58-59	94166.0
60-61	96985.0
62-63	99581.0
64-65	100895.0
66-67	102296.0
68-69	100069.0
70-71	103000.0
72-73	112662.0
74-75	139890.0
76-77	81410.0
78-79	79042.0
80-81	92239.0
82-83	107523.0
84-85	123370.0
86-87	167842.0
88-89	167258.0
90-91	198356.0
92-93	243915.0
94-95	399021.0
96-97	757303.0
98-99	8238749.0
100-101	5.5600901E7
>>END_MODULE
>>Sequence Duplication Levels	fail
#Total Duplicate Percentage	74.22624552749829
#Duplication Level	Relative count
1	100.0
2	53.544891079778175
3	29.107615353945413
4	19.39541121461452
5	14.634455761354163
6	11.684004494544928
7	9.757512051904744
8	8.115553300228353
9	6.970169270361376
10++	109.2536880640835
>>END_MODULE
>>Overrepresented sequences	pass
>>END_MODULE
>>Kmer Content	warn
#Sequence	Count	Obs/Exp Overall	Obs/Exp Max	Max Obs/Exp Position
CCAGG	14441425	2.7092175	5.1018744	2
CTCCA	14961025	2.4556382	9.316292	1
CAGGA	12807055	2.4357657	5.2797346	3
CTGGG	14624270	2.4011016	6.427455	1
CTCCT	16615610	2.3757095	8.705459	1
TCCAG	14249530	2.3498068	7.141798	2
GGCAG	12464240	2.3492446	6.769516	1
CCCAG	11906305	2.223219	7.483235	1
GGCTG	13282590	2.1808164	5.6587915	1
CCTGG	12890130	2.1065178	5.1259375	1
GCCAG	10586690	1.9860674	5.967218	1
GGGAG	10427430	1.9745506	5.1346474	1
CTCTG	13555260	1.9472133	6.3312526	1
TCCTG	13361035	1.9193128	5.5709133	2
CTCAG	11582065	1.9099308	5.394226	1
GGCCA	9981195	1.8724765	5.2127385	1
GGGGA	8872890	1.680181	5.195969	1
CCCCA	8668660	1.6111227	5.895701	1
GGGGG	8520740	1.5989852	6.600896	1
CTCCC	9697260	1.57	5.760001	1
GTGGG	8860955	1.4616572	5.6667805	1
GTCCA	8171160	1.3474582	6.7584834	1
GTCTG	8755405	1.2636024	5.2557545	1
GTCCT	8461940	1.2155576	5.733147	1
>>END_MODULE
