##FastQC	0.10.1
>>Basic Statistics	pass
#Measure	Value	
Filename	SRR2040581_2.fastq.gz	
File type	Conventional base calls	
Encoding	Sanger / Illumina 1.9	
Total Sequences	68228322	
Filtered Sequences	0	
Sequence length	25-100	
%GC	48	
>>END_MODULE
>>Per base sequence quality	pass
#Base	Mean	Median	Lower Quartile	Upper Quartile	10th Percentile	90th Percentile
1	32.79613863286862	34.0	31.0	34.0	31.0	34.0
2	32.96619424408532	34.0	31.0	34.0	31.0	34.0
3	32.92740933889595	34.0	31.0	34.0	31.0	34.0
4	36.3079417811272	37.0	37.0	37.0	35.0	37.0
5	36.29870580724527	37.0	37.0	37.0	35.0	37.0
6	36.2764552673595	37.0	37.0	37.0	35.0	37.0
7	36.293374179713815	37.0	37.0	37.0	35.0	37.0
8	36.29281376727981	37.0	37.0	37.0	35.0	37.0
9	38.138246533455714	39.0	39.0	39.0	37.0	39.0
10-14	38.33060822161214	39.4	38.8	39.4	36.2	39.4
15-19	39.549983720836636	41.0	40.0	41.0	37.0	41.0
20-24	39.49461428642493	41.0	39.0	41.0	36.8	41.0
25-29	39.39198947841059	41.0	39.0	41.0	36.4	41.0
30-34	39.172627040435785	40.2	39.0	41.0	35.6	41.0
35-39	39.04950579666407	40.0	38.2	41.0	35.0	41.0
40-44	38.88774789504511	40.0	38.0	41.0	35.0	41.0
45-49	38.551543851508775	40.0	37.8	41.0	34.4	41.0
50-54	37.21887750842997	38.6	35.6	39.8	32.8	40.2
55-59	38.10683203396004	39.6	36.2	41.0	34.0	41.0
60-64	37.6470683252078	38.8	35.0	40.8	34.0	41.0
65-69	36.79464599066853	37.2	35.0	39.6	33.0	41.0
70-74	35.93007457278175	35.8	35.0	38.6	32.4	40.4
75-79	35.103670482862064	35.0	34.0	36.8	32.0	39.0
80-84	34.38932609043307	35.0	34.0	35.8	31.0	37.2
85-89	33.91680914899172	35.0	34.0	35.0	31.0	36.2
90-94	33.61789275643923	35.0	33.4	35.0	31.0	35.4
95-99	33.69334572836076	35.0	33.4	35.0	31.2	35.0
100	33.20223536946256	34.0	32.0	35.0	31.0	35.0
>>END_MODULE
>>Per sequence quality scores	pass
#Quality	Count
20	2.0
21	43.0
22	249.0
23	1089.0
24	3227.0
25	8088.0
26	17708.0
27	35840.0
28	68385.0
29	128227.0
30	415289.0
31	845009.0
32	1441261.0
33	2362772.0
34	3841097.0
35	6354112.0
36	1.1048607E7
37	1.8438948E7
38	1.9646339E7
39	3563503.0
40	8527.0
>>END_MODULE
>>Per base sequence content	fail
#Base	G	A	T	C
1	31.774366683920995	16.10391747599489	14.376380484852522	37.74533535523159
2	25.412402784872828	25.488072240733107	28.90732678432279	20.192198190071274
3	23.07520035448036	26.791343336862365	26.47232625770864	23.661130050948636
4	25.62555033963755	31.275608683443807	20.88591890036516	22.212922076553486
5	27.968149355922893	32.35415198984375	20.426271072590644	19.25142758164271
6	23.0182034961962	36.77774018830479	20.06849149829597	20.13556481720304
7	22.685812870667196	21.89566443963445	32.64800452363476	22.770518166063596
8	22.94987172188157	24.489766096528015	25.89820918341294	26.662152998177476
9	23.254239247657875	23.152236151319038	28.093945034936446	25.499579566086638
10-14	24.97384174373167	27.82228506757718	22.946050510843367	24.257822677847788
15-19	25.055872545128693	27.10519188790837	23.79456173640032	24.04437383056262
20-24	24.72440462481255	27.32306035607911	23.96610252264448	23.98643249646386
25-29	24.743791162864582	26.967459866751526	24.024914781763364	24.263834188620525
30-34	24.51411052125164	27.10478022519242	24.071688989408006	24.30942026414793
35-39	24.561276518313196	27.17948199701562	23.96226117344962	24.296980311221567
40-44	24.485117325161916	27.037109098960894	24.123710258171787	24.354063317705403
45-49	24.28541292021619	27.118924475455763	24.281248126637355	24.314414477690697
50-54	24.322851908815533	27.208217950461837	24.19303802133892	24.275892119383712
55-59	24.377061595350355	27.16325961759875	24.168088521488603	24.29159026556229
60-64	24.210180145597516	27.214809656453255	24.331430964309074	24.24357923364016
65-69	24.14101328654408	27.459264511278782	24.272290355017333	24.12743184715981
70-74	24.1894292697051	27.371205898409066	24.22547962778168	24.213885204104148
75-79	24.013202524332783	27.503277913426643	24.45286303978777	24.0306565224528
80-84	23.992481078510426	27.572041827640497	24.466095032396744	23.969382061452336
85-89	23.915673377080047	27.56543485627596	24.515266361617392	24.003625405026604
90-94	23.677437546521205	27.691070747342287	24.68844169056653	23.943050015569977
95-99	23.412788127571776	27.90772466100586	24.768398459679442	23.911088751742916
100	24.186700694492924	26.213356896162214	24.22927486617247	25.37066754317239
>>END_MODULE
>>Per base GC content	fail
#Base	%GC
1	69.51970203915259
2	45.6046009749441
3	46.736330405428994
4	47.83847241619104
5	47.219576937565606
6	43.15376831339924
7	45.45633103673079
8	49.61202472005905
9	48.753818813744516
10-14	49.23166442157946
15-19	49.10024637569131
20-24	48.71083712127641
25-29	49.0076253514851
30-34	48.82353078539957
35-39	48.85825682953476
40-44	48.83918064286732
45-49	48.599827397906886
50-54	48.59874402819925
55-59	48.66865186091265
60-64	48.453759379237674
65-69	48.26844513370389
70-74	48.40331447380925
75-79	48.043859046785585
80-84	47.961863139962766
85-89	47.91929878210665
90-94	47.62048756209118
95-99	47.32387687931469
100	49.557368237665315
>>END_MODULE
>>Per sequence GC content	warn
#GC Content	Count
0	1515.0
1	1164.5
2	1115.5
3	1420.0
4	1519.5
5	1917.5
6	2545.5
7	3035.0
8	3484.0
9	4151.5
10	4919.0
11	5724.0
12	6613.0
13	7795.0
14	9091.0
15	10328.0
16	11790.0
17	13780.0
18	16683.0
19	20781.0
20	26398.0
21	34057.0
22	44186.5
23	58023.5
24	76652.5
25	99446.0
26	128554.5
27	165523.0
28	211412.5
29	269993.5
30	344030.5
31	441544.0
32	569583.5
33	731469.5
34	934667.0
35	1174273.0
36	1437368.5
37	1725557.5
38	2001191.0
39	2228818.0
40	2409757.5
41	2551338.5
42	2661348.0
43	2738725.5
44	2781092.0
45	2774188.5
46	2727072.0
47	2656100.5
48	2589649.0
49	2526768.0
50	2455048.0
51	2401894.0
52	2341224.0
53	2258011.5
54	2161347.5
55	2051469.5
56	1946398.5
57	1844498.5
58	1758600.0
59	1669739.0
60	1588875.0
61	1508969.0
62	1378457.0
63	1230751.5
64	1095729.5
65	972949.0
66	876825.0
67	777184.5
68	666399.5
69	568670.0
70	475513.5
71	399314.0
72	337527.5
73	287271.5
74	246721.5
75	211187.5
76	182064.5
77	158241.5
78	137950.0
79	118659.0
80	100306.0
81	83892.5
82	70474.5
83	59481.5
84	49572.0
85	40206.5
86	32163.0
87	25478.5
88	19619.0
89	15526.0
90	12614.0
91	10219.0
92	8756.0
93	7989.5
94	6535.0
95	4014.5
96	1976.5
97	1226.0
98	827.5
99	433.0
100	388.0
>>END_MODULE
>>Per base N content	pass
#Base	N-Count
1	4.2504342991170146E-5
2	0.0
3	0.0
4	0.0
5	0.0
6	0.0
7	2.9313339993910446E-6
8	8.794001998173134E-6
9	1.4656669996955223E-6
10-14	0.002741676689630444
15-19	0.0
20-24	0.0
25-29	7.47442328534506E-4
30-34	0.014877772599187556
35-39	0.004614935902710398
40-44	0.013459770683184671
45-49	0.0
50-54	0.0
55-59	2.490187098871476E-4
60-64	0.0
65-69	0.0
70-74	9.360405752622069E-6
75-79	1.4440439601107663E-4
80-84	0.0
85-89	0.0
90-94	5.976506526463655E-5
95-99	2.3954049693047604E-4
100	0.0
>>END_MODULE
>>Sequence Length Distribution	warn
#Length	Count
24-25	49410.0
26-27	105342.0
28-29	109553.0
30-31	121013.0
32-33	123063.0
34-35	123845.0
36-37	132574.0
38-39	145714.0
40-41	155900.0
42-43	162164.0
44-45	179641.0
46-47	210808.0
48-49	223860.0
50-51	203099.0
52-53	119301.0
54-55	129520.0
56-57	145164.0
58-59	166496.0
60-61	186054.0
62-63	212852.0
64-65	247037.0
66-67	266210.0
68-69	293451.0
70-71	315269.0
72-73	322588.0
74-75	319800.0
76-77	326740.0
78-79	341530.0
80-81	361093.0
82-83	391008.0
84-85	428399.0
86-87	473378.0
88-89	533696.0
90-91	650643.0
92-93	857772.0
94-95	1339663.0
96-97	2049777.0
98-99	2.35469E7
100-101	3.2157995E7
>>END_MODULE
>>Sequence Duplication Levels	fail
#Total Duplicate Percentage	74.2008461491816
#Duplication Level	Relative count
1	100.0
2	51.720334846046754
3	30.26812996076588
4	20.73441935308901
5	15.373628161781989
6	12.254786743567955
7	10.021877090527763
8	8.577265906091233
9	7.308033050678913
10++	105.34632699922255
>>END_MODULE
>>Overrepresented sequences	pass
>>END_MODULE
>>Kmer Content	warn
#Sequence	Count	Obs/Exp Overall	Obs/Exp Max	Max Obs/Exp Position
GAAGA	20250165	2.6949184	5.721275	2
GGAAG	13797585	2.0509934	5.081669	1
>>END_MODULE
