##FastQC	0.10.1
>>Basic Statistics	pass
#Measure	Value	
Filename	SRR2040580_1.fastq.gz	
File type	Conventional base calls	
Encoding	Sanger / Illumina 1.9	
Total Sequences	77680887	
Filtered Sequences	0	
Sequence length	25-100	
%GC	47	
>>END_MODULE
>>Per base sequence quality	pass
#Base	Mean	Median	Lower Quartile	Upper Quartile	10th Percentile	90th Percentile
1	33.01726392490858	34.0	31.0	34.0	31.0	34.0
2	33.13462263889958	34.0	33.0	34.0	31.0	34.0
3	33.203689666931844	34.0	33.0	34.0	31.0	34.0
4	36.54434240690377	37.0	37.0	37.0	35.0	37.0
5	36.487990591559544	37.0	37.0	37.0	35.0	37.0
6	36.476796911446186	37.0	37.0	37.0	35.0	37.0
7	36.45542604321704	37.0	37.0	37.0	35.0	37.0
8	36.45861012117434	37.0	37.0	37.0	35.0	37.0
9	38.31273705718628	39.0	39.0	39.0	37.0	39.0
10-14	38.594522928143185	39.4	39.2	39.4	37.2	39.4
15-19	39.792389167749846	41.0	40.0	41.0	37.8	41.0
20-24	39.75088517462474	41.0	40.0	41.0	37.2	41.0
25-29	39.62805273634703	41.0	39.4	41.0	37.0	41.0
30-34	39.46130245462033	41.0	39.0	41.0	36.4	41.0
35-39	39.28192560295346	40.4	39.0	41.0	35.8	41.0
40-44	39.07032533986977	40.0	38.2	41.0	35.0	41.0
45-49	39.1756293692201	40.0	39.0	41.0	35.0	41.0
50-54	38.99411294251048	40.0	38.0	41.0	35.0	41.0
55-59	38.584219949781755	40.0	37.2	41.0	35.0	41.0
60-64	38.004886583930684	39.2	35.8	41.0	34.0	41.0
65-69	37.27673395192655	37.8	35.0	40.2	34.0	41.0
70-74	36.47005439850459	36.4	35.0	39.0	33.4	41.0
75-79	35.11752132035785	35.2	34.2	37.0	31.8	39.2
80-84	35.07020856587828	35.0	35.0	36.2	33.0	38.0
85-89	34.6483503289483	35.0	35.0	35.4	33.0	36.6
90-94	34.41353682047061	35.0	34.4	35.0	33.0	36.0
95-99	34.34955094345069	35.0	34.0	35.0	33.0	35.4
100	34.32430840066615	35.0	34.0	35.0	32.0	35.0
>>END_MODULE
>>Per sequence quality scores	pass
#Quality	Count
19	1.0
20	4.0
21	38.0
22	262.0
23	1158.0
24	3669.0
25	9707.0
26	22151.0
27	45277.0
28	89443.0
29	167194.0
30	365486.0
31	734145.0
32	1241779.0
33	1900508.0
34	2996200.0
35	4754553.0
36	9093045.0
37	1.935713E7
38	2.7133353E7
39	9649103.0
40	116681.0
>>END_MODULE
>>Per base sequence content	fail
#Base	G	A	T	C
1	56.09615330249489	10.475821275687256	5.968021797662446	27.46000362415541
2	31.05520010594266	10.630967530393047	30.072983893363347	28.240848470300943
3	27.52728350057162	14.849460182437014	22.855101139410948	34.768155177580425
4	28.905500790634036	21.477072205165392	22.175691543116336	27.44173546108423
5	29.336090790687862	25.389942850957837	23.959626956189474	21.314339402164826
6	26.050583073285456	28.34921285077499	23.316852702776167	22.283351373163388
7	18.85792189782797	23.821404099054636	39.811887060455426	17.50878694266197
8	21.178448501499815	24.260917234460404	31.67606511435011	22.884569149689668
9	21.120820878371276	22.084065543690304	33.70837153288427	23.086742045054145
10-14	24.555115597482814	26.870587870604517	27.210454999052725	21.363841532859944
15-19	24.720718753975884	25.206213801495558	27.63133813744244	22.441729307086117
20-24	24.38536439984256	25.41777768375203	27.34588561124447	22.85097230516094
25-29	24.55936483056096	25.499298165359	27.225628160600262	22.715708843479774
30-34	24.386582903654443	25.546597598065162	27.150634763094196	22.916184735186203
35-39	24.212052163670432	25.460603802943904	27.045305771706417	23.282038261679247
40-44	24.444806892355576	25.318540912113967	27.04156601768366	23.195086177846797
45-49	24.221183666661446	25.116747210060396	27.2101228095109	23.451946313767255
50-54	24.366840579129192	25.32076400545859	27.187051388062443	23.125344027349772
55-59	24.025461349351698	25.413588992273727	27.066915304476908	23.494034353897664
60-64	24.081784625989698	25.303520821381202	27.268299521305522	23.346395031323578
65-69	23.987046046808153	25.48305166130962	27.294632344841762	23.235269947040464
70-74	24.071987175784308	25.52511312327971	27.073577561656904	23.32932213927908
75-79	24.119229543307146	25.435924353567106	27.347885254166275	23.09696084895947
80-84	23.971009891476232	25.521467440627138	27.27554160952561	23.23198105837102
85-89	24.132508482228154	25.393896739159032	27.14648190185346	23.32711287675935
90-94	23.862754767062096	25.484230095534137	27.11999913546144	23.53301600194232
95-99	23.893670083292324	25.72566232567617	27.228238898837155	23.152428692194356
100	24.2330176703523	25.717751072292476	26.282631955312596	23.766599302042625
>>END_MODULE
>>Per base GC content	fail
#Base	%GC
1	83.55615692665029
2	59.29604857624361
3	62.29543867815204
4	56.34723625171827
5	50.65043019285269
6	48.333934446448836
7	36.36670884048994
8	44.06301765118948
9	44.20756292342543
10-14	45.91895713034276
15-19	47.162448061062
20-24	47.2363367050035
25-29	47.27507367404073
30-34	47.30276763884064
35-39	47.494090425349675
40-44	47.63989307020237
45-49	47.673129980428705
50-54	47.492184606478965
55-59	47.51949570324936
60-64	47.42817965731327
65-69	47.22231599384861
70-74	47.401309315063386
75-79	47.21619039226662
80-84	47.20299094984725
85-89	47.459621358987505
90-94	47.395770769004415
95-99	47.046098775486676
100	47.999616972394925
>>END_MODULE
>>Per sequence GC content	pass
#GC Content	Count
0	3398.0
1	2592.5
2	1359.5
3	931.0
4	1009.0
5	1473.0
6	2367.5
7	3127.5
8	3841.5
9	5052.0
10	6503.5
11	7847.5
12	8999.5
13	10726.5
14	12870.5
15	14596.5
16	17100.5
17	20540.5
18	25049.0
19	31329.0
20	39997.0
21	52412.5
22	72122.5
23	95931.5
24	125884.5
25	175988.5
26	242655.0
27	319317.0
28	434050.5
29	565937.0
30	698182.5
31	828324.0
32	968772.0
33	1131547.5
34	1240922.0
35	1354394.5
36	1485804.5
37	1621279.0
38	1751914.5
39	1864482.5
40	1982348.5
41	2146719.0
42	2424064.5
43	2708188.5
44	2907978.5
45	3097205.0
46	3118572.5
47	3060265.0
48	3067871.0
49	3016772.5
50	3000460.0
51	3095570.0
52	3134394.5
53	3018000.0
54	2911487.0
55	2863879.5
56	2726181.5
57	2430749.0
58	2174931.5
59	2031096.5
60	1808865.5
61	1524077.0
62	1295271.5
63	1099305.0
64	925928.0
65	768093.5
66	632153.5
67	520167.0
68	430932.5
69	347582.5
70	269860.0
71	204627.0
72	151252.0
73	109752.5
74	79595.5
75	59437.5
76	45662.5
77	33974.5
78	24957.0
79	17856.5
80	12515.5
81	9040.5
82	6717.5
83	5277.0
84	4181.0
85	3305.0
86	2650.0
87	1941.5
88	1389.5
89	1151.5
90	1185.0
91	1357.0
92	1597.0
93	1788.5
94	1465.5
95	665.0
96	123.5
97	45.5
98	29.5
99	12.5
100	12.5
>>END_MODULE
>>Per base N content	pass
#Base	N-Count
1	0.0027020803714561084
2	0.011175207100814903
3	0.005144122517550553
4	0.0067622811773506136
5	1.8666110236357112E-4
6	0.0
7	0.0
8	8.792381580297866E-4
9	0.0
10-14	0.0
15-19	6.874277838768757E-5
20-24	4.943300917766296E-5
25-29	1.1259704164439462E-4
30-34	1.6188250004269103E-4
35-39	1.9509422226830656E-4
40-44	2.3674303934883496E-4
45-49	9.203053310143926E-4
50-54	0.0028328984902729233
55-59	3.8386889420128044E-5
60-64	1.5719235383380557E-6
65-69	0.0
70-74	1.7175389731788902E-5
75-79	0.01067984393110746
80-84	0.0
85-89	0.0025711131460642023
90-94	0.0017352395021921463
95-99	5.312155636707603E-4
100	0.0
>>END_MODULE
>>Sequence Length Distribution	warn
#Length	Count
24-25	28288.0
26-27	59784.0
28-29	63689.0
30-31	65116.0
32-33	66085.0
34-35	67351.0
36-37	69568.0
38-39	65675.0
40-41	65181.0
42-43	65902.0
44-45	58405.0
46-47	61563.0
48-49	69431.0
50-51	76411.0
52-53	79554.0
54-55	82176.0
56-57	93852.0
58-59	97479.0
60-61	104991.0
62-63	109379.0
64-65	118308.0
66-67	127418.0
68-69	136873.0
70-71	151847.0
72-73	179455.0
74-75	261994.0
76-77	171534.0
78-79	186597.0
80-81	206685.0
82-83	248244.0
84-85	294626.0
86-87	350872.0
88-89	369574.0
90-91	408610.0
92-93	510341.0
94-95	708043.0
96-97	747881.0
98-99	5041197.0
100-101	6.6010908E7
>>END_MODULE
>>Sequence Duplication Levels	fail
#Total Duplicate Percentage	84.84881959910913
#Duplication Level	Relative count
1	100.0
2	62.298320711228186
3	35.76838045063268
4	22.62100757326309
5	16.18138200291641
6	12.54057105226022
7	10.329742697210593
8	8.629286419869231
9	7.5168164071687285
10++	194.50350439813727
>>END_MODULE
>>Overrepresented sequences	pass
>>END_MODULE
>>Kmer Content	warn
#Sequence	Count	Obs/Exp Overall	Obs/Exp Max	Max Obs/Exp Position
AAAAA	23907910	3.34428	4.210342	9
CCAGG	18332310	3.0574384	5.8245735	2
CCCAG	16780505	2.969603	7.332075	1
CAGCA	17244780	2.835174	5.310861	3
CTCCT	18515810	2.7543242	5.870751	1
CCAGC	14927515	2.6416838	5.798741	2
TCCAG	17097200	2.5956478	6.362954	2
CTCCA	16102815	2.5940325	7.107612	1
GGCAG	15469915	2.4315076	9.908876	1
CTTCA	17174325	2.3734534	5.291824	6
CAGCT	15528495	2.3574913	5.008592	3
GCCAG	13516695	2.2542963	10.494237	1
CCCCA	11940705	2.2422094	6.2669983	1
GGCTG	14927935	2.1666367	7.977936	1
GGAGG	14401065	2.1331894	5.0434175	1
TCCAC	12875290	2.0741048	5.0200734	2
CCACA	11747835	2.0494282	5.69392	2
GGCCA	12245495	2.0422873	8.565073	1
GCTGG	12798535	1.8575761	5.543341	1
GGGAG	12184975	1.8049264	7.555206	1
GGGCA	11395090	1.7910407	6.9655175	1
CCACT	11095760	1.7874365	5.3622656	3
CCAGT	11587050	1.7591126	5.175674	3
GGGGA	11800670	1.7480004	9.032274	1
GCCTC	10680485	1.7453521	5.725912	1
GGCCT	11174345	1.7209222	6.056645	1
GGGCT	11793645	1.7117267	5.960123	1
GGGGG	11275235	1.6942556	12.18053	1
GCCCC	8847885	1.6854043	6.2445765	1
GCCTG	10687935	1.6460122	6.366217	1
GCTCC	9806185	1.6024781	5.1645646	1
GGGGC	10031845	1.5995101	7.9814587	1
GTCCT	11335345	1.589111	7.028123	1
GGGTG	11353965	1.5530344	5.598395	1
GTCCA	10204100	1.549157	8.323282	1
GCCAC	8734530	1.5457275	6.8931785	1
GCCCA	8469270	1.498785	7.5278606	1
GTGGG	10640775	1.4554819	6.5927677	1
GGGGT	10502260	1.4365355	8.425429	1
GCCAT	9116915	1.3841039	5.296913	1
GTCAG	9601735	1.3737816	5.846544	1
GTCCC	7669890	1.2533754	5.442051	1
GCCCT	7508030	1.2269253	5.134382	1
GTCTG	8898525	1.1756679	5.130625	1
>>END_MODULE
