##FastQC	0.10.1
>>Basic Statistics	pass
#Measure	Value	
Filename	SRR018269_2.fastq.gz	
File type	Conventional base calls	
Encoding	Sanger / Illumina 1.9	
Total Sequences	15844233	
Filtered Sequences	0	
Sequence length	51	
%GC	50	
>>END_MODULE
>>Per base sequence quality	fail
#Base	Mean	Median	Lower Quartile	Upper Quartile	10th Percentile	90th Percentile
1	25.51368734605203	27.0	15.0	40.0	6.0	40.0
2	25.333879525755524	26.0	14.0	40.0	6.0	40.0
3	24.93239395053077	26.0	14.0	40.0	6.0	40.0
4	24.870618161194674	26.0	14.0	40.0	6.0	40.0
5	24.668936135942964	25.0	13.0	40.0	6.0	40.0
6	23.666612830043587	23.0	13.0	37.0	6.0	40.0
7	24.99102449452744	26.0	14.0	40.0	6.0	40.0
8	23.803023977241434	24.0	13.0	38.0	6.0	40.0
9	23.638340271820038	24.0	13.0	37.0	5.0	40.0
10	22.151932693744154	21.0	11.0	34.0	5.0	40.0
11	22.224614785707836	21.0	12.0	34.0	5.0	40.0
12	22.141361718172156	21.0	11.0	33.0	5.0	40.0
13	21.46462122843056	20.0	11.0	32.0	5.0	40.0
14	21.028162865315096	20.0	11.0	31.0	5.0	40.0
15	20.57255223398949	19.0	10.0	30.0	5.0	40.0
16	20.03468953025369	19.0	10.0	29.0	5.0	40.0
17	19.501942441770453	18.0	10.0	28.0	5.0	40.0
18	18.905605907209267	17.0	10.0	27.0	5.0	38.0
19	18.41227057188568	17.0	10.0	26.0	4.0	37.0
20	17.83864545541586	16.0	9.0	25.0	4.0	35.0
21	17.285650305697978	16.0	9.0	24.0	4.0	34.0
22	16.690557630653373	15.0	9.0	23.0	4.0	33.0
23	16.147847737407044	14.0	8.0	22.0	4.0	32.0
24	15.630619797121135	14.0	8.0	22.0	4.0	30.0
25	15.104208136802836	13.0	8.0	21.0	4.0	29.0
26	14.622515207899303	13.0	7.0	20.0	4.0	28.0
27	14.12035552620313	12.0	7.0	19.0	4.0	27.0
28	13.66367087633715	12.0	7.0	19.0	4.0	26.0
29	13.212245805776776	11.0	6.0	18.0	3.0	25.0
30	12.796443791251997	11.0	6.0	17.0	3.0	24.0
31	12.359014349258812	11.0	6.0	17.0	3.0	24.0
32	11.929316174534923	10.0	6.0	16.0	3.0	23.0
33	11.532236871295694	10.0	5.0	16.0	3.0	22.0
34	11.142068789319117	10.0	5.0	15.0	3.0	21.0
35	10.753188936315189	10.0	5.0	15.0	3.0	20.0
36	10.41723458623715	10.0	5.0	14.0	3.0	20.0
37	10.083600891251725	9.0	5.0	14.0	3.0	19.0
38	9.729177549964078	9.0	5.0	13.0	3.0	18.0
39	9.387093587931963	8.0	5.0	13.0	3.0	18.0
40	9.073085519507318	8.0	4.0	12.0	3.0	17.0
41	8.759827124481191	8.0	4.0	12.0	2.0	17.0
42	8.448329243832756	7.0	4.0	11.0	2.0	16.0
43	8.144322921784854	7.0	4.0	11.0	2.0	15.0
44	7.871494505287823	7.0	4.0	10.0	2.0	15.0
45	7.587745017382665	6.0	4.0	10.0	2.0	14.0
46	7.326516846855257	6.0	4.0	10.0	2.0	14.0
47	7.0640556724961066	6.0	4.0	10.0	2.0	13.0
48	6.810220665146745	6.0	4.0	10.0	2.0	13.0
49	6.584565122211974	5.0	3.0	9.0	2.0	12.0
50	6.315302293269734	5.0	3.0	9.0	2.0	12.0
51	6.525802290334912	5.0	3.0	9.0	2.0	12.0
>>END_MODULE
>>Per sequence quality scores	fail
#Quality	Count
0	209009.0
1	7614.0
2	9600.0
3	17227.0
4	45654.0
5	141559.0
6	312316.0
7	512153.0
8	692702.0
9	830964.0
10	922520.0
11	978742.0
12	1007766.0
13	1020845.0
14	1023225.0
15	1016159.0
16	998641.0
17	966679.0
18	919979.0
19	849319.0
20	759395.0
21	654817.0
22	536674.0
23	422537.0
24	315996.0
25	227760.0
26	158298.0
27	106136.0
28	69073.0
29	43481.0
30	26752.0
31	15904.0
32	9340.0
33	5556.0
34	3172.0
35	1937.0
36	1401.0
37	1127.0
38	1023.0
39	966.0
40	215.0
>>END_MODULE
>>Per base sequence content	pass
#Base	G	A	T	C
1	31.03463840842236	19.109292398250908	21.20223712523568	28.653832068091052
2	29.495066392496966	22.260333836655082	24.444904325113665	23.799695445734287
3	30.965111246488846	22.406302088087042	21.384161086815514	25.2444255786086
4	31.056638658204932	23.016107825377976	21.907180092201052	24.02007342421604
5	30.000281580176758	24.45596789985985	23.918431342433493	21.625319177529903
6	27.852843695463385	26.512613296966524	22.400631768779792	23.233911238790295
7	26.91096456315415	22.843441583496276	28.180865736735473	22.0647281166141
8	26.804803879519877	24.531174864176673	25.15521042942912	23.508810826874328
9	26.49712864704717	23.93030779380034	25.843693794478284	23.72886976467421
10	26.341655316644015	28.387183401311756	23.68706006450567	21.584101217538567
11	27.932344127475332	25.982697924721553	22.395555833841996	23.689402113961116
12	27.008455489722255	24.701149673823856	24.284458964191955	24.005935872261933
13	26.37464874015185	25.201970410544032	24.787054119950483	23.63632672935363
14	26.37956979388602	25.535000650778272	24.964194371761735	23.121235183573972
15	26.32625589231595	25.58440039447745	24.753337714562555	23.336005998644055
16	26.35862568499625	25.55890255042803	24.67852096097982	23.403950803595894
17	26.310047010788974	25.68368061360642	24.74351607904782	23.26275629655679
18	26.208722350221556	25.491410660878078	24.63892868401022	23.660938304890145
19	26.339768561378946	25.338899404581472	24.664514956953422	23.656817077086163
20	26.35580995410689	25.491963820420015	24.65351098002029	23.498715245452804
21	26.26726081233996	25.399355748899115	24.64896019913286	23.684423239628064
22	26.456461481248546	25.331015939251138	24.552442533661694	23.660080045838622
23	26.384310077102164	25.325940598626985	24.615551205003584	23.674198119267274
24	26.337485237941856	25.332829106514478	24.671864380584967	23.6578212749587
25	26.48130159726992	25.309092289449282	24.66255003150604	23.547056081774763
26	26.376395916719442	25.39067863737624	24.74745922150424	23.48546622440008
27	26.275701964247812	25.30337740506287	24.787220858904753	23.633699771784567
28	26.411361493522058	25.269356031837642	24.709601980742157	23.609680493898143
29	26.321045272448	25.282525091232245	24.812598621544744	23.583831014775008
30	26.34648661946511	25.161051440073017	24.85921825442515	23.63324368603672
31	26.33706985784437	25.206746890622604	24.71742246999631	23.738760781536712
32	26.51084281472128	25.198785899557958	24.631353544287073	23.65901774143369
33	26.32655670548204	25.049966975664788	24.861978838725594	23.761497480127574
34	26.56803057279734	25.205040106081494	24.588247146409394	23.63868217471177
35	26.63356362466629	25.073365730380203	24.623865048645634	23.669205596307876
36	26.604662855965394	24.924680188273676	24.76676631373649	23.703890642024437
37	26.69312003634748	24.863477420931705	24.811902260006118	23.631500282714697
38	26.785462382935314	24.93130030432055	24.82854504831351	23.454692264430623
39	26.80140517417957	24.748774710460534	24.855967078189302	23.593853037170597
40	26.94650252242458	24.71600663062989	24.793736198220664	23.543754648724864
41	27.031394601088714	24.707187809257807	24.874679591263064	23.386737998390416
42	27.055810594993517	24.6195030007285	24.883382092762403	23.441304311515577
43	27.087052956991197	24.681994861964853	24.79898855572724	23.43196362531671
44	27.160556041049766	24.686337324200576	24.911078381533137	23.242028253216517
45	27.15591946326652	24.593756533361688	24.985450026942495	23.2648739764293
46	27.340727456004842	24.573781092465723	24.806700132636774	23.27879131889266
47	27.535739914278697	24.64936690836826	24.823587906489962	22.991305270863084
48	27.458572878569626	24.522810960956846	24.81953111356571	23.19908504690782
49	27.61678218214616	24.53301338561421	24.761605039047964	23.08859939319166
50	27.48909464848856	24.526511101212304	24.78731760952817	23.197076640770966
51	28.630645516584053	23.662239319708153	25.084122763280032	22.622992400427762
>>END_MODULE
>>Per base GC content	warn
#Base	%GC
1	59.68847047651341
2	53.29476183823125
3	56.20953682509744
4	55.076712082420975
5	51.62560075770666
6	51.08675493425368
7	48.97569267976825
8	50.313614706394205
9	50.225998411721385
10	47.925756534182575
11	51.62174624143645
12	51.01439136198419
13	50.01097546950548
14	49.50080497745999
15	49.66226189096
16	49.762576488592146
17	49.572803307345765
18	49.8696606551117
19	49.996585638465106
20	49.854525199559696
21	49.95168405196802
22	50.116541527087165
23	50.05850819636943
24	49.995306512900555
25	50.028357679044674
26	49.86186214111952
27	49.90940173603238
28	50.0210419874202
29	49.90487628722301
30	49.97973030550183
31	50.07583063938108
32	50.169860556154966
33	50.08805418560961
34	50.206712747509116
35	50.30276922097416
36	50.30855349798984
37	50.32462031906218
38	50.24015464736594
39	50.39525821135017
40	50.490257171149445
41	50.41813259947913
42	50.4971149065091
43	50.519016582307906
44	50.40258429426628
45	50.42079343969582
46	50.6195187748975
47	50.52704518514177
48	50.65765792547745
49	50.705381575337825
50	50.686171289259526
51	51.253637917011815
>>END_MODULE
>>Per sequence GC content	pass
#GC Content	Count
0	203537.0
1	106145.5
2	8754.0
3	7456.0
4	6158.0
5	5862.5
6	5567.0
7	5608.5
8	5650.0
9	5757.5
10	5865.0
11	6168.5
12	6472.0
13	7115.5
14	7759.0
15	9004.0
16	10249.0
17	12842.5
18	15436.0
19	19849.5
20	24263.0
21	31432.5
22	38602.0
23	49379.0
24	60156.0
25	76251.0
26	114483.5
27	136621.0
28	164107.5
29	191594.0
30	228532.5
31	265471.0
32	315311.5
33	365152.0
34	421777.5
35	478403.0
36	538267.0
37	598131.0
38	654347.5
39	710564.0
40	769155.0
41	827746.0
42	869706.5
43	911667.0
44	937800.5
45	963934.0
46	981549.0
47	999164.0
48	999235.0
49	999306.0
50	996057.0
51	992808.0
52	978626.5
53	964445.0
54	941830.0
55	919215.0
56	885483.5
57	851752.0
58	811688.5
59	771625.0
60	725358.5
61	679092.0
62	633025.0
63	586958.0
64	539027.0
65	491096.0
66	446861.0
67	402626.0
68	363069.5
69	323513.0
70	288004.0
71	252495.0
72	221404.5
73	190314.0
74	166638.5
75	122706.0
76	102449.0
77	87914.0
78	73379.0
79	62543.5
80	51708.0
81	43972.0
82	36236.0
83	30649.5
84	25063.0
85	20779.0
86	16495.0
87	13931.5
88	11368.0
89	9667.5
90	7967.0
91	6851.5
92	5736.0
93	4664.5
94	3593.0
95	2755.0
96	1917.0
97	1277.5
98	638.0
99	426.5
100	215.0
>>END_MODULE
>>Per base N content	pass
#Base	N-Count
1	1.4239692132777901
2	1.4305204928506166
3	1.3914147816432643
4	1.379669183102773
5	1.376734361328819
6	1.3775548491365912
7	1.3966280349449545
8	1.3913201099731365
9	1.4109108342448637
10	1.4777111646868613
11	1.4190336635418073
12	1.3411504362502116
13	1.436415382177225
14	1.5622277203320603
15	1.628630429759522
16	1.4844896562679935
17	1.4700806280745808
18	1.4927387144584405
19	1.474990932031863
20	1.5005459715216256
21	1.538692343138352
22	1.5142670522454449
23	1.4959259940194012
24	1.4989681103528332
25	1.570350549629004
26	1.452395960094755
27	1.5542058741499194
28	1.5579611837316454
29	1.5932106022424688
30	1.714970992915845
31	1.7460422350517062
32	1.6910064374842253
33	1.7669078711478177
34	1.893162010429915
35	1.6623651015483045
36	1.7395603813703069
37	1.5380990673388861
38	1.61406361544923
39	1.7063811167129392
40	1.6536174392285194
41	1.6572149626933663
42	1.7546636684779884
43	1.7519434358229902
44	1.6835778671015507
45	1.706116036036582
46	1.7619533870778092
47	1.7750370118894365
48	1.9144315789852369
49	1.8515190984631442
50	3.1986969643781427
51	1.8108165917529742
>>END_MODULE
>>Sequence Length Distribution	pass
#Length	Count
51	1.5844233E7
>>END_MODULE
>>Sequence Duplication Levels	warn
#Total Duplicate Percentage	31.39010459872041
#Duplication Level	Relative count
1	100.0
2	16.538579131691588
3	7.0008060481405305
4	3.1658235588415145
5	1.6662960698204459
6	0.9818500194563344
7	0.7685252098504641
8	0.5579798765912503
9	0.49196731335816335
10++	7.801990105064206
>>END_MODULE
>>Overrepresented sequences	fail
#Sequence	Count	Percentage	Possible Source
NNNNNNNNNNNNNNNNNNNNNNNNNNNNNNNNNNNNNNNNNNNNNNNNNNN	196072	1.2374975803498978	No Hit
>>END_MODULE
>>Kmer Content	warn
#Sequence	Count	Obs/Exp Overall	Obs/Exp Max	Max Obs/Exp Position
TTTTT	2671155	4.1269827	5.586539	47
AAAAA	2308375	3.3653488	4.406484	2
GGGGG	2979760	2.7697515	5.4658604	47
>>END_MODULE
