##FastQC	0.10.1
>>Basic Statistics	pass
#Measure	Value	
Filename	D03LTACXX_s7_1_nextera12index_11_SL6064.fastq.gz	
File type	Conventional base calls	
Encoding	Sanger / Illumina 1.9	
Total Sequences	28010983	
Filtered Sequences	0	
Sequence length	20-50	
%GC	48	
>>END_MODULE
>>Per base sequence quality	pass
#Base	Mean	Median	Lower Quartile	Upper Quartile	10th Percentile	90th Percentile
1	33.118050908816734	34.0	33.0	34.0	31.0	34.0
2	33.33185893547542	34.0	34.0	34.0	31.0	34.0
3	33.44113721392784	34.0	34.0	34.0	31.0	34.0
4	36.64491453227472	37.0	37.0	37.0	35.0	37.0
5	36.59747956721119	37.0	37.0	37.0	35.0	37.0
6	36.63647991218302	37.0	37.0	37.0	36.0	37.0
7	36.63776808546847	37.0	37.0	37.0	36.0	37.0
8	36.631144326495075	37.0	37.0	37.0	36.0	37.0
9	37.820333010091076	39.0	39.0	39.0	35.0	39.0
10	38.11573731632339	39.0	39.0	39.0	37.0	39.0
11	38.30021895340124	39.0	39.0	39.0	37.0	39.0
12	38.29752186847566	39.0	39.0	39.0	37.0	39.0
13	38.413811432465614	39.0	39.0	39.0	37.0	39.0
14	40.08727241025422	41.0	40.0	41.0	38.0	41.0
15	40.107458242361574	41.0	40.0	41.0	38.0	41.0
16	40.144305717510875	41.0	40.0	41.0	39.0	41.0
17	40.13102039296515	41.0	40.0	41.0	38.0	41.0
18	40.10960600704374	41.0	40.0	41.0	38.0	41.0
19	40.02266878673983	41.0	40.0	41.0	38.0	41.0
20	40.03184886442578	41.0	40.0	41.0	38.0	41.0
21	40.01820195498869	41.0	40.0	41.0	38.0	41.0
22	39.9856921219248	41.0	40.0	41.0	38.0	41.0
23	39.95618178506819	41.0	40.0	41.0	38.0	41.0
24	39.9101043633943	41.0	40.0	41.0	38.0	41.0
25	39.87194665234977	41.0	40.0	41.0	38.0	41.0
26	39.8098258099693	41.0	40.0	41.0	38.0	41.0
27	39.73840015575896	41.0	40.0	41.0	38.0	41.0
28	39.72286365233167	41.0	40.0	41.0	38.0	41.0
29	39.795063267990706	41.0	40.0	41.0	38.0	41.0
30	39.80694144385139	41.0	40.0	41.0	38.0	41.0
31	39.808278949877426	41.0	40.0	41.0	38.0	41.0
32	39.785143000771804	41.0	40.0	41.0	38.0	41.0
33	39.76029597117416	41.0	40.0	41.0	38.0	41.0
34	39.71801406464625	41.0	40.0	41.0	38.0	41.0
35	39.68614178204506	41.0	40.0	41.0	38.0	41.0
36	39.644508092346555	41.0	40.0	41.0	37.0	41.0
37	39.601823765611215	41.0	40.0	41.0	37.0	41.0
38	39.54601865164073	41.0	40.0	41.0	37.0	41.0
39	39.4932029412809	41.0	40.0	41.0	37.0	41.0
40	39.58418895786093	41.0	40.0	41.0	37.0	41.0
41	39.62407138761445	41.0	40.0	41.0	37.0	41.0
42	39.624943771712196	41.0	40.0	41.0	37.0	41.0
43	39.61135176076284	41.0	40.0	41.0	37.0	41.0
44	39.56649377484802	41.0	40.0	41.0	37.0	41.0
45	39.537485220927735	41.0	40.0	41.0	37.0	41.0
46	39.487005398677915	41.0	39.0	41.0	36.0	41.0
47	39.44649786868483	41.0	39.0	41.0	36.0	41.0
48	39.41275658481968	41.0	39.0	41.0	36.0	41.0
49	39.397737280146735	41.0	39.0	41.0	36.0	41.0
50	38.72842354414784	40.0	38.0	41.0	35.0	41.0
>>END_MODULE
>>Per sequence quality scores	pass
#Quality	Count
17	2.0
18	30.0
19	274.0
20	1692.0
21	5472.0
22	10350.0
23	15426.0
24	22030.0
25	28788.0
26	36967.0
27	45397.0
28	56219.0
29	71649.0
30	90612.0
31	115257.0
32	149885.0
33	202748.0
34	298111.0
35	466363.0
36	776274.0
37	1480243.0
38	3900157.0
39	2.0237037E7
>>END_MODULE
>>Per base sequence content	fail
#Base	G	A	T	C
1	43.83351344720748	19.337311368187258	10.290602796767253	26.53857238783801
2	17.097639879328764	20.97099555556476	36.50841171836062	25.422952846745865
3	19.296038271845013	22.818288811927808	31.21018637582266	26.675486540404524
4	12.80142863961611	14.994104276883109	37.620396970716804	34.58407011278398
5	13.602485853495395	36.42290597227523	36.14603600309208	13.8285721711373
6	34.41580754234866	37.19687738198977	15.798010373288221	12.589304702373353
7	28.0230650955734	31.198758715465285	21.985751089135285	18.792425099826023
8	26.441153457556272	35.760808537137024	20.30079058632109	17.497247418985616
9	26.672983950616796	13.123198853821016	18.227821565562337	41.975995629999844
10	14.575307835501524	27.279449635880326	36.618443558371375	21.526798970246777
11	38.64038616566937	20.461277635276133	21.492537409344042	19.405798789710452
12	20.04883227411191	24.6195786845467	32.68909198938145	22.64249705195994
13	29.810942372140243	19.856743335283877	25.749874611683566	24.582439680892314
14	20.956801123330802	18.936511439102297	26.88876002673666	33.21792741083024
15	24.399368633367846	28.19504406539392	22.71502217540884	24.690565125829394
16	24.532455715674097	27.256708556068883	24.945104568447313	23.265731159809707
17	23.78692672085089	26.952792053031484	25.733727374008975	23.526553852108652
18	23.609749789930614	27.248661712443294	26.248396923449636	22.89319157417646
19	25.166714070691487	26.10120822964335	25.47589279533674	23.25618490432842
20	24.19072190361902	26.170709539183257	25.767710472709936	23.87085808448779
21	24.434191546301914	25.872362903510588	25.571030435782525	24.12241511440497
22	23.745528698821893	26.002145710314966	25.96172704753489	24.290598543328247
23	24.082177181546438	25.686512691366488	25.758851910549392	24.47245821653768
24	23.84296198872965	26.197584757167146	25.92797926235788	24.031473991745326
25	24.322466540969792	25.495535729120178	26.256902338002586	23.925095391907448
26	24.14645469765877	25.877380147573408	26.151998161970525	23.8241669927973
27	24.282691500216913	26.416699321978854	25.114362698117183	24.18624647968705
28	23.9247571508686	26.126879103094392	26.002913481692136	23.945450264344874
29	24.560114979266356	25.927932556673067	25.393522990096013	24.118429473964564
30	23.739992350052553	26.643485051091332	25.761512781042033	23.85500981781408
31	24.45882267710958	25.389218472039992	26.045698023127166	24.106260827723265
32	24.03130517977011	25.73783439942653	26.015780126007403	24.215080294795953
33	24.03772339965318	25.840036243121418	25.975668758716402	24.146571598509
34	23.894671434962333	25.821276988820212	26.389168901245835	23.894882674971623
35	23.921357522001113	26.012345556537614	25.887827750559406	24.17846917090187
36	23.907953803220888	26.046451424855434	26.075817366983067	23.969777404940615
37	24.1655412061883	25.737501833957648	26.02292190827352	24.074035051580527
38	24.386473903792364	25.85411043627471	25.894394842678224	23.865020817254702
39	24.301140942413486	26.201561591631346	25.373719340288325	24.123578125666846
40	23.94105173996372	26.094904528688716	26.20384073871968	23.760202992627878
41	24.554805567076077	25.521164059718643	25.730091302109496	24.193939071095784
42	23.86039963035591	26.348217418272846	25.73394683056697	24.057436120804272
43	24.174862132790572	25.62953947693022	26.116238279701548	24.079360110577657
44	23.975423845203856	25.685729072441333	25.96412509447782	24.374721987876992
45	23.971934216865233	26.199395380152552	25.814291691383957	24.014378711598265
46	23.79874317810728	25.594858938265425	26.651514826105466	23.95488305752183
47	24.103461866076763	25.54074744051478	26.043439962658848	24.312350730749603
48	24.100233686071455	24.595437583217972	26.75435402908543	24.54997470162514
49	24.118989673106775	20.435048838960544	28.687521035957342	26.75844045197534
50	25.586128689811126	0.0	38.35864675348581	36.05522455670307
>>END_MODULE
>>Per base GC content	fail
#Base	%GC
1	70.37208583504548
2	42.520592726074625
3	45.971524812249534
4	47.38549875240008
5	27.431058024632694
6	47.00511224472201
7	46.81549019539943
8	43.93840087654189
9	68.64897958061664
10	36.1021068057483
11	58.04618495537982
12	42.691329326071845
13	54.39338205303256
14	54.17472853416104
15	49.089933759197244
16	47.79818687548381
17	47.31348057295954
18	46.50294136410707
19	48.422898975019905
20	48.06157998810681
21	48.55660666070688
22	48.036127242150144
23	48.554635398084116
24	47.87443598047497
25	48.24756193287724
26	47.97062169045606
27	48.46893797990396
28	47.87020741521347
29	48.67854445323092
30	47.59500216786663
31	48.56508350483285
32	48.24638547456606
33	48.18429499816218
34	47.78955410993396
35	48.09982669290298
36	47.87773120816151
37	48.23957625776883
38	48.25149472104707
39	48.42471906808033
40	47.7012547325916
41	48.74874463817186
42	47.91783575116018
43	48.25422224336823
44	48.35014583308085
45	47.98631292846349
46	47.75362623562911
47	48.41581259682636
48	48.650208387696594
49	50.877430125082114
50	61.6413532465142
>>END_MODULE
>>Per sequence GC content	warn
#GC Content	Count
0	2788.0
1	1914.5
2	992.5
3	1055.5
4	1180.0
5	1674.5
6	2204.0
7	3143.0
8	4092.0
9	5673.0
10	7370.5
11	10548.5
12	13708.0
13	19550.5
14	25728.0
15	32891.0
16	40345.5
17	50047.5
18	60775.0
19	78282.5
20	95555.0
21	118929.0
22	143490.5
23	174956.5
24	207249.5
25	232963.0
26	272801.0
27	325809.5
28	379292.5
29	423311.5
30	467944.5
31	509750.5
32	543404.0
33	604184.5
34	673497.5
35	722916.0
36	775035.0
37	862066.5
38	953892.0
39	1056692.5
40	1158722.0
41	1279872.5
42	1403608.5
43	1570568.0
44	1757784.5
45	1934073.0
46	2087887.5
47	2215340.0
48	2354507.5
49	2482972.5
50	2584915.5
51	2595196.0
52	2575894.0
53	2452520.0
54	2290058.5
55	2131829.0
56	1979552.0
57	1800044.5
58	1627598.0
59	1443304.0
60	1265033.5
61	1076764.5
62	884757.5
63	735445.0
64	588535.0
65	474444.0
66	376492.0
67	308063.0
68	243100.5
69	183484.0
70	132568.5
71	108680.5
72	93361.5
73	83348.5
74	70911.0
75	57149.0
76	47394.0
77	42418.5
78	37904.5
79	30436.5
80	23495.5
81	18742.0
82	13646.5
83	10738.5
84	7894.5
85	5748.5
86	3846.5
87	3232.0
88	2660.5
89	2883.0
90	3125.5
91	2210.5
92	1351.0
93	919.0
94	412.5
95	228.0
96	84.0
97	77.0
98	40.0
99	4.0
100	4.0
>>END_MODULE
>>Per base N content	pass
#Base	N-Count
1	0.0
2	0.0
3	0.0
4	0.0
5	0.0
6	0.0
7	0.0
8	0.0
9	0.0
10	0.0
11	0.0
12	0.0
13	0.0
14	0.0
15	0.0
16	0.0
17	0.0
18	0.0
19	0.0
20	0.0
21	0.0
22	0.0
23	0.0
24	0.0
25	0.0
26	0.0
27	0.0
28	0.0
29	0.0
30	0.0
31	0.0
32	0.0
33	0.0
34	0.0
35	0.0
36	0.0
37	0.0
38	0.0
39	0.0
40	0.0
41	0.0
42	0.0
43	0.0
44	0.0
45	0.0
46	0.0
47	0.0
48	0.0
49	0.0
50	0.0
>>END_MODULE
>>Sequence Length Distribution	warn
#Length	Count
20	4376.0
21	4691.0
22	4655.0
23	4879.0
24	4945.0
25	5296.0
26	5580.0
27	5903.0
28	5964.0
29	6332.0
30	6387.0
31	6951.0
32	7033.0
33	7676.0
34	8204.0
35	8823.0
36	9154.0
37	9966.0
38	11078.0
39	11733.0
40	12855.0
41	14421.0
42	16398.0
43	20892.0
44	29337.0
45	73449.0
46	174055.0
47	708069.0
48	2060707.0
49	6670309.0
50	1.8090865E7
>>END_MODULE
>>Sequence Duplication Levels	fail
#Total Duplicate Percentage	65.13547584222904
#Duplication Level	Relative count
1	100.0
2	27.310549432720276
3	14.087543024023919
4	8.947838079013547
5	6.211683992165861
6	4.7294556664232985
7	3.8869380801724436
8	3.1730579795802476
9	2.7199295391069547
10++	60.71225764581812
>>END_MODULE
>>Overrepresented sequences	pass
>>END_MODULE
>>Kmer Content	warn
#Sequence	Count	Obs/Exp Overall	Obs/Exp Max	Max Obs/Exp Position
GTGTG	3865195	3.0731883	9.380129	9
CACAC	3324350	2.8837578	8.1340885	5
ACACA	3394355	2.840074	9.105927	6
TGTGT	3809585	2.8076313	9.067935	10
CAGCA	3167090	2.7431903	7.707692	4
TGCTG	3423855	2.7264009	7.11657	2
TCCAG	3140855	2.610424	10.5898695	2
CTCCA	3115600	2.5933516	8.093855	1
TGGAG	3094885	2.5644522	8.09333	5
CTGGA	3090185	2.5644314	10.4177685	4
CAGAG	2946625	2.5483778	9.4088545	4
GAGGA	2906850	2.510181	7.1026587	6
AGCAG	2869035	2.4812744	7.242924	7
CTCTG	3110770	2.48084	8.223417	2
CTGCT	3043620	2.4272878	7.8164353	9
AGGAG	2733710	2.3606675	8.501715	7
AGCTG	2788025	2.31368	7.946834	7
CAGCT	2744575	2.2810683	5.4240246	9
CTTCA	2878235	2.2173486	5.590022	1
TGAAG	2765670	2.2137437	5.659511	5
AGAGA	2652165	2.2123806	5.5838766	6
CTCCT	2756580	2.2016993	5.09542	1
AGAAG	2633875	2.1971235	5.767293	5
GGAGA	2511070	2.168409	5.2748723	6
GAAGA	2580070	2.1522405	5.1602592	6
CTTCT	2904970	2.1474206	5.060135	1
CTGCA	2519610	2.0940955	5.594698	4
CCAGA	2412335	2.0894554	7.6573777	3
TGCAG	2504475	2.0783722	5.7579803	2
TCTGG	2592025	2.064018	7.1409616	3
GAGAG	2354925	2.0335715	7.105598	7
CAGTG	2388915	1.9824733	7.403199	9
GCTGC	2288130	1.9686431	5.5489483	8
CACTG	2362770	1.963743	7.941884	7
CAGGA	2267800	1.9612986	8.163891	4
CTGTG	2453585	1.953779	9.724075	9
GCTGA	2343530	1.9448099	5.723333	8
CTGAA	2405010	1.9279706	5.9864025	4
CACAG	2204500	1.9094383	6.216153	7
TCCTG	2380105	1.8981345	7.1461554	2
ACAGA	2257200	1.8857577	7.165379	8
CCTCA	2265155	1.8854612	5.752562	1
AGAGG	2172845	1.8763382	6.220901	5
CAGAA	2238360	1.870018	6.319516	4
CTGAG	2237655	1.856948	6.9763117	9
CTCAG	2231625	1.8547457	5.7059655	2
TGAGG	2229995	1.8477957	5.5524254	5
ACAGC	2099540	1.8185266	7.1222005	8
GAGCT	2170660	1.8013514	5.98357	6
GCTGT	2260510	1.8000343	6.72773	8
TTCAG	2314935	1.7806972	6.009561	2
AAGAG	2127705	1.7748872	5.7053976	5
AAACA	2192130	1.7691274	5.159909	6
AGAGC	2041045	1.7651901	6.5127053	5
GGCTG	2019555	1.7349439	6.046026	7
CCAGG	1926280	1.7271816	6.0911016	3
CCTCT	2159185	1.7245559	5.142722	1
TTCTG	2335310	1.7237072	5.5281463	2
TCAGA	2119445	1.6990482	5.9916778	3
TCTGA	2167840	1.6675484	5.6491265	3
CTCTT	2252990	1.6654621	5.108611	1
CCTGG	1929685	1.6602468	5.5596857	3
GCTCA	1995300	1.6583315	5.1622624	1
TGAGC	1998015	1.6580795	5.757792	5
CAAGA	1959715	1.6372266	7.0023484	4
GCTCT	2002345	1.5968709	5.3522887	1
AACAG	1889230	1.5783405	6.7276616	7
CCTGA	1875670	1.5589048	5.2105412	3
GACAG	1788820	1.5470543	7.0886774	7
TCTTG	2088825	1.5417749	6.219352	2
TGCTC	1933085	1.541636	5.3383546	10
CAGGG	1719775	1.5396913	5.9246626	4
TCAGG	1852795	1.5375668	5.4839973	3
GTCCA	1838345	1.5278833	7.851172	1
CTGTC	1901610	1.5165347	5.6362166	9
CCCTG	1752625	1.5101907	5.049179	2
TGGAC	1796785	1.4910861	8.096348	5
ACCTG	1793845	1.4908986	5.3566985	7
TGTGC	1819565	1.4489115	6.87264	10
GTGCT	1819035	1.4484897	5.2576537	1
AACAC	1725195	1.4434794	5.304608	5
TCAAG	1791545	1.4361879	5.046332	3
GGACA	1656355	1.4324926	6.353749	6
ACTGG	1721735	1.4288049	5.355573	8
GAACA	1696480	1.4173092	5.0950813	6
AGACA	1692320	1.4138337	5.5236998	6
AGCAC	1630670	1.4124125	5.71537	5
ACACC	1618985	1.4044131	5.3193207	6
ACTGA	1744305	1.398318	6.268715	8
GTGTT	1881480	1.3866346	5.2440305	1
GACTG	1652970	1.3717393	6.9228334	7
TACAG	1684495	1.3503715	5.6269636	7
ACAGT	1670855	1.339437	6.832066	8
TGAAC	1656765	1.3281418	5.4577947	5
ACTGC	1597335	1.3275753	6.1996937	8
ACTGT	1706365	1.3125722	8.066741	8
ACACT	1632140	1.3103808	6.9061646	6
GTTCA	1688140	1.298553	5.590131	1
AGTGT	1681305	1.2913418	5.2165685	8
AGGAC	1483180	1.2827227	6.8274784	5
AACTG	1584150	1.2699301	5.833059	7
AGACT	1573515	1.2614046	5.8175974	6
AGAAC	1484350	1.240087	5.063044	5
GTCCT	1534950	1.2241231	5.85355	1
ATACA	1540200	1.1927176	6.0910707	6
AAGAC	1401420	1.1708039	5.3074	5
GTGCA	1405815	1.1666344	5.0597467	1
GTACA	1453360	1.1650827	6.3744	1
GTCTT	1491215	1.1006753	5.1315436	1
TGTAC	1349140	1.0377871	5.5955415	5
TACTG	1285110	0.9885339	5.4196014	7
TACAC	1216925	0.97702104	7.357418	5
GTGTA	1232235	0.94642943	6.985517	1
GGACT	1138230	0.9445755	5.480608	6
ATACT	1011170	0.75136745	5.1466436	6
TATAC	771840	0.57352906	5.0847635	5
>>END_MODULE
