##FastQC	0.10.1
>>Basic Statistics	pass
#Measure	Value	
Filename	SRR018267_1.fastq.gz	
File type	Conventional base calls	
Encoding	Sanger / Illumina 1.9	
Total Sequences	14468771	
Filtered Sequences	0	
Sequence length	51	
%GC	49	
>>END_MODULE
>>Per base sequence quality	fail
#Base	Mean	Median	Lower Quartile	Upper Quartile	10th Percentile	90th Percentile
1	32.161823004870286	40.0	26.0	40.0	13.0	40.0
2	30.420378275390494	39.0	22.0	40.0	10.0	40.0
3	29.514957697512802	36.0	20.0	40.0	9.0	40.0
4	29.340742762464068	35.0	20.0	40.0	9.0	40.0
5	29.237834436663626	35.0	19.0	40.0	9.0	40.0
6	27.865195115742726	31.0	17.0	40.0	8.0	40.0
7	29.330899632042	36.0	19.0	40.0	9.0	40.0
8	28.187408937497178	32.0	18.0	40.0	8.0	40.0
9	28.03209470935714	32.0	18.0	40.0	8.0	40.0
10	26.632603556998724	29.0	16.0	40.0	8.0	40.0
11	26.826931395900868	29.0	16.0	40.0	8.0	40.0
12	27.04955023477806	30.0	16.0	40.0	8.0	40.0
13	26.612286074608548	29.0	16.0	40.0	7.0	40.0
14	26.268638158693644	28.0	15.0	40.0	7.0	40.0
15	25.773338177789945	27.0	15.0	40.0	7.0	40.0
16	25.325603881628922	26.0	14.0	40.0	7.0	40.0
17	24.52832448588757	25.0	13.0	40.0	6.0	40.0
18	23.99285191534236	24.0	13.0	38.0	6.0	40.0
19	23.344171388157292	23.0	12.0	37.0	6.0	40.0
20	22.679293424438054	22.0	12.0	35.0	5.0	40.0
21	22.175320764977204	21.0	11.0	34.0	5.0	40.0
22	21.453718218361463	20.0	11.0	32.0	5.0	40.0
23	20.796616865385456	19.0	10.0	31.0	5.0	40.0
24	20.179072293009543	18.0	10.0	30.0	5.0	40.0
25	19.51500428059854	18.0	10.0	28.0	5.0	40.0
26	18.853010943362086	17.0	10.0	27.0	5.0	40.0
27	18.22244342660479	16.0	10.0	26.0	5.0	38.0
28	17.602071523559257	16.0	9.0	25.0	4.0	36.0
29	16.99489604196514	15.0	9.0	24.0	4.0	35.0
30	16.40973880919119	14.0	8.0	23.0	4.0	33.0
31	15.832059129279191	14.0	8.0	22.0	4.0	32.0
32	15.259895190821666	13.0	8.0	21.0	4.0	31.0
33	14.726591913024265	12.0	7.0	20.0	4.0	30.0
34	14.217171382420801	12.0	7.0	19.0	4.0	28.0
35	13.669546362991024	11.0	6.0	19.0	3.0	27.0
36	13.226600033962802	11.0	6.0	18.0	3.0	26.0
37	12.76106837270422	10.0	6.0	17.0	3.0	25.0
38	12.250877631555575	10.0	5.0	16.0	3.0	24.0
39	11.84323817136922	10.0	5.0	16.0	3.0	23.0
40	11.439943931658052	10.0	5.0	15.0	3.0	23.0
41	11.067009008574399	10.0	5.0	15.0	3.0	22.0
42	10.699194769203272	9.0	5.0	14.0	3.0	21.0
43	10.371700955112221	9.0	5.0	14.0	3.0	21.0
44	10.018964914158914	9.0	5.0	13.0	3.0	20.0
45	9.740768652707269	8.0	4.0	13.0	2.0	19.0
46	9.39778589349434	8.0	4.0	12.0	2.0	19.0
47	9.071850746687469	8.0	4.0	12.0	2.0	18.0
48	8.77986181410985	7.0	4.0	11.0	2.0	17.0
49	8.509374293089579	7.0	4.0	11.0	2.0	17.0
50	8.233380983084189	7.0	4.0	11.0	2.0	16.0
51	8.608986139873249	7.0	4.0	11.0	2.0	18.0
>>END_MODULE
>>Per sequence quality scores	fail
#Quality	Count
0	79720.0
1	23004.0
2	11349.0
3	13408.0
4	24458.0
5	55547.0
6	114216.0
7	198320.0
8	297608.0
9	394300.0
10	481557.0
11	554808.0
12	612444.0
13	656758.0
14	689602.0
15	713653.0
16	733152.0
17	746813.0
18	754964.0
19	762616.0
20	761773.0
21	755209.0
22	734014.0
23	699870.0
24	653225.0
25	592417.0
26	521160.0
27	444332.0
28	363991.0
29	290993.0
30	223788.0
31	166705.0
32	120165.0
33	83882.0
34	56658.0
35	36050.0
36	21451.0
37	12125.0
38	6078.0
39	4198.0
40	2390.0
>>END_MODULE
>>Per base sequence content	warn
#Base	G	A	T	C
1	33.77506868805112	22.750793217878893	19.601163517845176	23.872974576224806
2	27.442257249902386	22.166727591531867	27.362146793226156	23.02886836533959
3	27.491572257992054	23.45361836378717	23.74986605340448	25.304943324816293
4	28.92020782560096	24.649908408470107	23.62494278363602	22.80494098229291
5	28.846208849355033	25.39813865947486	24.558805371253094	21.196847119917013
6	26.895583491784187	27.29851666553155	23.130786991808193	22.67511285087607
7	26.065319247862313	23.26444232804735	28.876602122759003	21.793636301331336
8	25.97371734666702	24.78903247246679	25.471820214019697	23.76542996684649
9	25.736221367967726	23.964179996480276	26.27735642838444	24.022242207167558
10	25.567704592316364	28.758065949358596	23.93143477470583	21.74279468361921
11	26.98316514991767	25.813629779782204	22.733224353874697	24.469980716425425
12	25.895821622163872	24.545271770985543	24.91188107995434	24.64702552689624
13	25.397021692987842	25.62953300276063	25.497621981599	23.47582332265253
14	25.291376055697963	25.466325172761987	25.671021988321097	23.57127678321895
15	25.42282851333712	25.52715840267428	25.279236188225447	23.770776895763156
16	25.508894117541914	25.63309518586102	25.082813513087405	23.77519718350966
17	25.525634986269154	25.52709356168064	25.230465383259883	23.716806068790326
18	25.403816254653698	25.564240091261603	25.02453430189216	24.00740935219254
19	25.431922837798492	25.477600655481226	25.371936222006624	23.718540284713658
20	25.4049329972408	25.445289796027804	25.258545342678794	23.891231864052607
21	25.423391610650935	25.263638062405803	25.23532545009055	24.07764487685271
22	25.748782056044696	25.45596436414136	25.064577145388515	23.73067643442543
23	25.529477419864037	25.486976181845233	25.1800732404243	23.80347315786643
24	25.39277978359514	25.44221151418607	25.229773764653572	23.935234937565212
25	25.733636218067517	25.339960053725186	25.020902201707884	23.90550152649941
26	25.569779553009088	25.37339505450806	25.281913196362726	23.77491219612013
27	25.498351729584527	25.159783737539897	25.424269258406053	23.917595274469516
28	25.682979902165	25.344284827865614	25.232217426260988	23.740517843708396
29	25.521197324163815	25.2288276651437	25.397253152966066	23.852721857726426
30	25.471717420849455	25.155044680710326	25.380674706561173	23.99256319187905
31	25.724738876430603	25.06951750827353	25.379776745178535	23.82596687011733
32	25.74277766899689	24.832026670356914	25.578386191646807	23.846809468999393
33	25.59895807316194	24.86579609809801	25.478840542003724	24.05640528673633
34	25.823707869346222	24.823108773497317	25.491668150661283	23.86151520649517
35	25.82129496857306	24.76768155858958	25.553086075734615	23.857937397102745
36	25.743209871712132	24.528175842457784	25.814779057914162	23.913835227915925
37	25.879204235358156	24.471108209440043	25.76755237099021	23.882135184211588
38	25.9036060781554	24.49678928084994	25.823618576420987	23.775986064573672
39	25.91774239509568	24.20688186548522	25.813749021588393	24.06162671783071
40	26.076646074451084	24.240316241143876	25.82072454464931	23.862313139755734
41	25.904496412335792	24.29439713479167	26.062425245340737	23.7386812075318
42	25.99794456426554	24.067782066701156	26.090917896792604	23.8433554722407
43	26.033560104538335	24.362160067971885	25.941059451541097	23.663220375948683
44	26.065347652806825	24.060155009056807	26.290724468894695	23.583772869241674
45	25.945799886736005	23.955972645834397	26.51041181753716	23.58781564989244
46	26.25145172722006	23.824961604218377	26.412613498434784	23.510973170126775
47	26.4067787083081	23.869157551435666	26.50902872020538	23.215035020050856
48	26.189517672605632	23.670316366184835	26.627311946105376	23.51285401510416
49	26.466404771917833	23.43263748825643	26.703572886453063	23.39738485337267
50	26.398815870981217	23.338796684848305	26.896310235519284	23.366077208651195
51	26.97873616951629	22.20816857677059	28.049655288919805	22.763439964793314
>>END_MODULE
>>Per base GC content	warn
#Base	%GC
1	57.64804326427593
2	50.471125615241974
3	52.79651558280835
4	51.72514880789387
5	50.04305596927205
6	49.570696342660256
7	47.85895554919365
8	49.73914731351351
9	49.75846357513528
10	47.31049927593558
11	51.4531458663431
12	50.54284714906011
13	48.87284501564037
14	48.86265283891691
15	49.19360540910027
16	49.284091301051575
17	49.24244105505948
18	49.41122560684624
19	49.15046312251215
20	49.2961648612934
21	49.50103648750365
22	49.47945849047012
23	49.332950577730465
24	49.32801472116036
25	49.63913774456693
26	49.34469174912922
27	49.41594700405405
28	49.4234977458734
29	49.37391918189024
30	49.46428061272851
31	49.55070574654793
32	49.58958713799628
33	49.65536335989827
34	49.68522307584139
35	49.6792323656758
36	49.65704509962805
37	49.76133941956975
38	49.67959214272907
39	49.979369112926385
40	49.93895921420682
41	49.64317761986759
42	49.84130003650624
43	49.696780480487014
44	49.6491205220485
45	49.533615536628446
46	49.76242489734683
47	49.62181372835895
48	49.70237168770979
49	49.86378962529051
50	49.76489307963241
51	49.7421761343096
>>END_MODULE
>>Per sequence GC content	pass
#GC Content	Count
0	54840.0
1	52824.5
2	50809.0
3	33644.5
4	16480.0
5	12941.5
6	9403.0
7	8930.0
8	8457.0
9	8624.0
10	8791.0
11	9314.0
12	9837.0
13	10866.0
14	11895.0
15	13906.0
16	15917.0
17	19323.0
18	22729.0
19	28778.5
20	34828.0
21	44066.5
22	53305.0
23	66436.0
24	79567.0
25	98101.0
26	142349.0
27	168063.0
28	191797.5
29	215532.0
30	249431.5
31	283331.0
32	333234.0
33	383137.0
34	433865.0
35	484593.0
36	527743.0
37	570893.0
38	615700.5
39	660508.0
40	712073.0
41	763638.0
42	802223.5
43	840809.0
44	860643.5
45	880478.0
46	892798.0
47	905118.0
48	909554.5
49	913991.0
50	907736.5
51	901482.0
52	882077.5
53	862673.0
54	837510.0
55	812347.0
56	778929.5
57	745512.0
58	709465.5
59	673419.0
60	634525.5
61	595632.0
62	550883.5
63	506135.0
64	462077.5
65	418020.0
66	377591.0
67	337162.0
68	301540.5
69	265919.0
70	236816.0
71	207713.0
72	181677.0
73	155641.0
74	136291.5
75	101647.5
76	86353.0
77	75578.0
78	64803.0
79	55531.5
80	46260.0
81	39819.5
82	33379.0
83	28573.5
84	23768.0
85	20136.5
86	16505.0
87	14118.5
88	11732.0
89	10374.0
90	9016.0
91	7756.5
92	6497.0
93	5464.0
94	4431.0
95	3439.0
96	2447.0
97	1708.0
98	969.0
99	699.5
100	430.0
>>END_MODULE
>>Per base N content	pass
#Base	N-Count
1	0.23209987911205454
2	0.6815506306651753
3	0.866473040453816
4	0.933196053762963
5	0.9257247903087277
6	0.9562318734604343
7	0.9706214854046691
8	0.9423882650433821
9	0.9152401402994077
10	0.9098837765833738
11	0.9173965086599271
12	0.9272729522085876
13	0.911162392438169
14	0.932276832634921
15	0.9821152052237193
16	1.0148270367953158
17	0.9656728964747593
18	0.9665852061657482
19	1.029182091554286
20	1.0126983141830084
21	1.0615690855843942
22	1.0223052116866043
23	1.0473660824405888
24	1.008979961048523
25	0.9850802117194335
26	0.9693083123646093
27	0.9872642258281648
28	1.0223743260571339
29	1.0550170432582007
30	1.053399766987811
31	1.0173566227566944
32	1.0612649823540645
33	1.0732770599520858
34	1.1095828387912146
35	1.0862360044263608
36	1.0929953898641427
37	1.1677909616511313
38	1.125085192100974
39	1.140214327809874
40	1.1928587438421687
41	1.1656760619129296
42	1.2496085534839136
43	1.2231861296304987
44	1.2979609671063284
45	1.2686702968759405
46	1.3256965639998035
47	1.3878303831057939
48	1.4215374616130145
49	1.443412159885591
50	1.448042822711065
51	1.4836090777855284
>>END_MODULE
>>Sequence Length Distribution	pass
#Length	Count
51	1.4468771E7
>>END_MODULE
>>Sequence Duplication Levels	warn
#Total Duplicate Percentage	29.908785405664897
#Duplication Level	Relative count
1	100.0
2	14.149207628256782
3	5.2934461455815205
4	2.3939027665860864
5	1.3409884501745903
6	0.8816814396991673
7	0.7218640881009938
8	0.5405586892291163
9	0.4371474617244158
10++	8.541498791297341
>>END_MODULE
>>Overrepresented sequences	warn
#Sequence	Count	Percentage	Possible Source
GNNNNNNNNNNNNNNNNNNNNNNNNNNNNNNNNNNNNNNNNNNNNNNNNNN	18938	0.13088879490870373	No Hit
NNNNNNNNNNNNNNNNNNNNNNNNNNNNNNNNNNNNNNNNNNNNNNNNNNN	14606	0.10094844959533882	No Hit
>>END_MODULE
>>Kmer Content	warn
#Sequence	Count	Obs/Exp Overall	Obs/Exp Max	Max Obs/Exp Position
TTTTT	3742355	5.2306705	7.7265215	47
AAAAA	2200855	3.534494	5.427822	2
GGGGG	2302175	2.7797496	5.6138253	47
>>END_MODULE
