##FastQC	0.10.1
>>Basic Statistics	pass
#Measure	Value	
Filename	SRR2040583_1.fastq.gz	
File type	Conventional base calls	
Encoding	Sanger / Illumina 1.9	
Total Sequences	16202310	
Filtered Sequences	0	
Sequence length	25-100	
%GC	49	
>>END_MODULE
>>Per base sequence quality	pass
#Base	Mean	Median	Lower Quartile	Upper Quartile	10th Percentile	90th Percentile
1	32.89138184616885	34.0	33.0	34.0	31.0	34.0
2	33.277436303835685	34.0	33.0	34.0	31.0	34.0
3	33.399476062363945	34.0	34.0	34.0	31.0	34.0
4	36.64023136207121	37.0	37.0	37.0	35.0	37.0
5	36.65668370744665	37.0	37.0	37.0	35.0	37.0
6	36.6835362982192	37.0	37.0	37.0	35.0	37.0
7	36.60715200486844	37.0	37.0	37.0	35.0	37.0
8	36.57169095024105	37.0	37.0	37.0	35.0	37.0
9	38.52906085613718	39.0	39.0	39.0	37.0	39.0
10-14	38.82455310384754	39.4	39.2	39.4	37.2	39.4
15-19	40.1602026871477	41.0	40.0	41.0	38.2	41.0
20-24	40.11364065988122	41.0	40.0	41.0	38.4	41.0
25-29	39.9430537388217	41.0	40.0	41.0	38.0	41.0
30-34	39.64148113241926	41.0	39.6	41.0	37.2	41.0
35-39	39.303290062895925	40.6	39.0	41.0	35.4	41.0
40-44	39.208637820891205	40.4	38.8	41.0	35.0	41.0
45-49	39.04704055526607	40.2	38.0	41.0	35.0	41.0
50-54	38.80048582154101	40.0	37.2	41.0	35.0	41.0
55-59	38.34412073737945	39.8	35.6	41.0	35.0	41.0
60-64	37.68928469123707	38.8	35.0	41.0	34.6	41.0
65-69	36.895651417539455	36.8	35.0	39.8	33.6	41.0
70-74	36.286327541265415	35.6	35.0	39.0	33.0	41.0
75-79	35.18567612310697	34.8	34.2	37.0	32.2	39.4
80-84	35.286219284863975	35.0	35.0	36.2	33.0	38.6
85-89	34.83790437482652	35.0	35.0	35.4	33.0	37.0
90-94	34.52903488973872	35.0	35.0	35.0	33.0	36.0
95-99	34.46263166215935	35.0	35.0	35.0	33.0	36.0
100	33.939185165231976	34.0	33.0	35.0	31.0	35.0
>>END_MODULE
>>Per sequence quality scores	pass
#Quality	Count
18	1.0
19	0.0
20	1.0
21	6.0
22	62.0
23	224.0
24	617.0
25	1399.0
26	2867.0
27	5477.0
28	10317.0
29	18912.0
30	38918.0
31	77087.0
32	147285.0
33	271143.0
34	520733.0
35	1140816.0
36	2429711.0
37	4304483.0
38	4844473.0
39	2342572.0
40	45206.0
>>END_MODULE
>>Per base sequence content	fail
#Base	G	A	T	C
1	25.594146973632594	15.917583512404887	21.989626621222495	36.49864289274002
2	24.307267246047473	22.248782165198893	25.884142726454996	27.55980786229864
3	18.11859842600359	24.958638001193677	28.364554652584516	28.55820892021822
4	23.484472275866835	26.58996772682414	25.517848998074967	24.40771099923406
5	25.669747091618415	29.691025538950928	23.445076658822106	21.19415071060855
6	24.284129855557634	29.58090543879237	23.070321454163018	23.06464325148698
7	21.802909585114715	25.211047066745422	29.608722459945525	23.37732088819434
8	21.875757222272625	23.70171290390074	29.130907876716343	25.291621997110287
9	22.54238438839894	21.993400940976933	30.722903092213393	24.741311578410734
10-14	25.49453874169794	24.92378679336465	25.251411681420738	24.33026278351667
15-19	25.738390390012288	25.082949283157774	25.256441828356575	23.922218498473367
20-24	25.88992810875938	24.909291927852447	25.330871806985378	23.869908156402794
25-29	25.8302995707594	24.964842477741026	25.269404245960985	23.93545370553859
30-34	25.729570207745255	24.727455122029042	25.059488761259008	24.483485908966692
35-39	25.698802901572204	25.35589054677875	24.86262347132298	24.08268308032607
40-44	25.690479300163037	25.06641179041862	24.9218091224557	24.32129978696264
45-49	25.23696532586477	25.256219450077992	25.184916004666675	24.321899219390566
50-54	25.11128745683712	25.491127856119483	24.66953520067607	24.728049486367325
55-59	25.31895415919972	25.379622132682627	24.58427426918055	24.717149438937106
60-64	25.47438199347824	25.002551076006345	24.7498725863162	24.77319434419921
65-69	25.37035833160642	24.77158937649187	24.97977174344039	24.878280548461323
70-74	25.27956233205831	24.8909818030591	24.973301804219677	24.856154060662917
75-79	25.17572077334075	25.170849524942245	24.8980258496413	24.755403852075705
80-84	25.325222307155475	24.948708916482232	24.71652376173838	25.009545014623914
85-89	24.832782251140344	25.16287652455934	25.089856735369192	24.914484488931123
90-94	25.042521509447152	24.887420062452918	25.17321246648739	24.89684596161254
95-99	25.050397904022958	25.851973234395427	24.706529600067018	24.391099261514597
100	21.034321751153268	28.339316411195465	24.108856150779665	26.5175056868716
>>END_MODULE
>>Per base GC content	fail
#Base	%GC
1	62.09278986637262
2	51.867075108346114
3	46.67680734622181
4	47.8921832751009
5	46.863897802226965
6	47.348773107044615
7	45.18023047330905
8	47.167379219382916
9	47.28369596680967
10-14	49.82480152521461
15-19	49.660608888485655
20-24	49.75983626516217
25-29	49.765753276297986
30-34	50.213056116711954
35-39	49.78148598189827
40-44	50.011779087125674
45-49	49.55886454525533
50-54	49.83933694320445
55-59	50.036103598136826
60-64	50.247576337677444
65-69	50.248638880067745
70-74	50.13571639272122
75-79	49.93112462541645
80-84	50.334767321779395
85-89	49.74726674007146
90-94	49.93936747105969
95-99	49.44149716553755
100	47.551827438024866
>>END_MODULE
>>Per sequence GC content	warn
#GC Content	Count
0	28211.0
1	18208.0
2	7445.5
3	6801.0
4	6368.5
5	5291.5
6	4697.0
7	4729.5
8	4842.5
9	5970.5
10	7376.0
11	7843.5
12	8183.5
13	8561.0
14	9208.0
15	9826.5
16	12417.5
17	14398.0
18	15810.0
19	20609.5
20	27196.5
21	36671.5
22	47886.5
23	58098.5
24	72953.5
25	91558.0
26	110796.0
27	137324.0
28	167591.5
29	185767.5
30	201815.0
31	222220.0
32	241752.5
33	266152.0
34	282904.0
35	295971.5
36	316651.0
37	344454.0
38	370837.0
39	398947.5
40	409420.5
41	394152.5
42	391346.0
43	391478.0
44	385014.5
45	387859.0
46	397512.0
47	396944.5
48	407356.0
49	426548.0
50	448520.0
51	480592.0
52	499707.5
53	476296.0
54	404310.0
55	351421.5
56	325347.0
57	321391.0
58	349109.0
59	367540.0
60	387984.5
61	405333.0
62	413051.0
63	429616.5
64	432777.0
65	407095.5
66	381559.0
67	350085.0
68	303402.0
69	263125.0
70	224387.0
71	180744.5
72	151115.5
73	128552.0
74	97479.0
75	78901.5
76	69278.5
77	61626.0
78	54035.5
79	47753.0
80	42555.0
81	33717.0
82	26769.5
83	22316.5
84	16891.0
85	12173.0
86	7550.0
87	4459.5
88	3382.5
89	2755.5
90	2106.5
91	1789.5
92	1493.5
93	1113.5
94	792.0
95	480.0
96	271.0
97	192.0
98	113.0
99	21.5
100	6.0
>>END_MODULE
>>Per base N content	pass
#Base	N-Count
1	0.04444427985885963
2	0.007535962464611527
3	0.0014812702633143053
4	0.0
5	0.0
6	0.0
7	0.0
8	0.0
9	0.0
10-14	0.0
15-19	0.0
20-24	7.011345913021045E-4
25-29	0.0021897281286939307
30-34	0.0
35-39	0.0
40-44	0.0
45-49	0.0
50-54	0.0
55-59	0.0
60-64	0.0
65-69	0.0
70-74	0.0
75-79	0.0
80-84	0.0
85-89	0.0
90-94	0.0
95-99	0.0
100	0.0
>>END_MODULE
>>Sequence Length Distribution	warn
#Length	Count
24-25	8073.0
26-27	18401.0
28-29	20486.0
30-31	18644.0
32-33	22872.0
34-35	23102.0
36-37	24635.0
38-39	21948.0
40-41	25418.0
42-43	25460.0
44-45	28159.0
46-47	24753.0
48-49	25821.0
50-51	31241.0
52-53	34947.0
54-55	35098.0
56-57	35530.0
58-59	37230.0
60-61	39703.0
62-63	39996.0
64-65	38620.0
66-67	36460.0
68-69	36892.0
70-71	40875.0
72-73	38749.0
74-75	51351.0
76-77	37135.0
78-79	43292.0
80-81	49893.0
82-83	55326.0
84-85	60614.0
86-87	71025.0
88-89	83666.0
90-91	97549.0
92-93	132555.0
94-95	178584.0
96-97	171218.0
98-99	2308616.0
100-101	1.2128373E7
>>END_MODULE
>>Sequence Duplication Levels	fail
#Total Duplicate Percentage	98.06940627757469
#Duplication Level	Relative count
1	100.0
2	17.293704375987566
3	7.86006242083132
4	4.6332449691160535
5	3.345652088747274
6	2.3662457395823813
7	1.8243075597111404
8	1.491309400995077
9	1.2993457565587578
10++	121.06115413244186
>>END_MODULE
>>Overrepresented sequences	warn
#Sequence	Count	Percentage	Possible Source
CCTAACCCTAACCCTAACCCTAACCCTAACCCTAACCCTAACCCTAACCC	46734	0.2884403520238781	No Hit
CCCTAACCCTAACCCTAACCCTAACCCTAACCCTAACCCTAACCCTAACC	28999	0.17898065152438142	No Hit
TGTGAGTGTAAATTAGTGCGATGAGTAGGGGAAGGGAGCCTACTAGGGTG	25264	0.15592838305155254	No Hit
AAAAAAAAAAAAAAAAAAAAAAAAAAAAAAAAAAAAAAAAAAAAAAAAAA	24987	0.1542187502893106	No Hit
TGCTCACCCTGATCAGAGGATTGAGTAAACGGCTAGGCTAGAGGTGGCTA	24764	0.15284240333631438	No Hit
GTGATAGTGGTTCACTGGATAAGTGGCGTTGGCTTGCCATGATTGTGAGG	23206	0.14322649054363235	No Hit
GTGTAAATTAGTGCGATGAGTAGGGGAAGGGAGCCTACTAGGGTGTAGAA	18841	0.11628588762960343	No Hit
GTAAATTAGTGCGATGAGTAGGGGAAGGGAGCCTACTAGGGTGTAGAATA	17557	0.1083610917208719	No Hit
CGTGATAGTGGTTCACTGGATAAGTGGCGTTGGCTTGCCATGATTGTGAG	17359	0.1071390437536376	No Hit
>>END_MODULE
>>Kmer Content	warn
#Sequence	Count	Obs/Exp Overall	Obs/Exp Max	Max Obs/Exp Position
AAAAA	11527605	7.748729	9.480562	95-96
CCTCC	5743670	4.0962696	5.537605	65-69
TTTTT	5225085	3.4746485	6.6832695	2
CTCCT	4895660	3.430954	5.002911	85-89
CTCCC	4486575	3.1997347	4.301677	8
GCCTC	4278985	2.9925904	5.143603	90-94
CCCAG	4199600	2.9433997	8.07376	1
ACCCT	3058370	2.147971	5.5969005	5
CCTAA	2677620	1.8519392	5.7376423	1
CCCCA	2411330	1.7234173	5.0799565	1
CCCAA	1628805	1.1464161	5.1136365	1
>>END_MODULE
