Sender: LSF System <lsfadmin@node0080b>
Subject: Job 379657: <encode_tri_13> in cluster <thmorgan-cluster1> Done

Job <encode_tri_13> was submitted from host <node0081b> by user <aalonso> in cluster <thmorgan-cluster1>.
Job was executed on host(s) <node0080b>, in queue <normal>, as user <aalonso> in cluster <thmorgan-cluster1>.
</gpfs/gpfs1/home/aalonso> was used as the home directory.
</gpfs/gpfs1/home/aalonso/article/zebrafish> was used as the working directory.
Started at Fri Feb 19 16:14:34 2016
Results reported on Fri Feb 19 17:48:09 2016

Your job looked like:

------------------------------------------------------------
# LSBATCH: User input
/gpfs/gpfs1/myerslab/reference/genomes/rnaseq_pipeline/bin/trim_galore --illumina --paired --gzip --path_to_cutadapt /gpfs/gpfs1/software/python2.7/bin/cutadapt -o /gpfs/gpfs1/home/aalonso/article/zebrafish/encode/results_trimgalore /gpfs/gpfs1/myerslab/data/Libraries/SL7128/D06BVACXX_s3_1_nextera12index_5_SL7128.fastq.gz /gpfs/gpfs1/myerslab/data/Libraries/SL7128/D06BVACXX_s3_2_nextera12index_5_SL7128.fastq.gz && (echo 'ZF_17' >> /gpfs/gpfs1/home/aalonso/article/zebrafish/encode/results_trimgalore/samples_ok.txt) || (echo 'ZF_17' >> /gpfs/gpfs1/home/aalonso/article/zebrafish/encode/results_trimgalore/samples_ko.txt)
mv /gpfs/gpfs1/home/aalonso/article/zebrafish/encode/results_trimgalore/D06BVACXX_s3_1_nextera12index_5_SL7128_val_1.fq.gz /gpfs/gpfs1/home/aalonso/article/zebrafish/encode/results_trimgalore/D06BVACXX_s3_1_nextera12index_5_SL7128.fastq.gz
mv /gpfs/gpfs1/home/aalonso/article/zebrafish/encode/results_trimgalore/D06BVACXX_s3_2_nextera12index_5_SL7128_val_2.fq.gz /gpfs/gpfs1/home/aalonso/article/zebrafish/encode/results_trimgalore/D06BVACXX_s3_2_nextera12index_5_SL7128.fastq.gz

------------------------------------------------------------

Successfully completed.

Resource usage summary:

    CPU time :                                   5705.00 sec.
    Max Memory :                                 14 MB
    Average Memory :                             10.87 MB
    Total Requested Memory :                     -
    Delta Memory :                               -
    Max Swap :                                   630 MB
    Max Processes :                              10
    Max Threads :                                11

The output (if any) follows:

No quality encoding type selected. Assuming that the data provided uses Sanger encoded Phred scores (default)

Path to Cutadapt set as: '/gpfs/gpfs1/software/python2.7/bin/cutadapt' (user defined)
1.3.1-rc1
Cutadapt seems to be working fine (tested command '/gpfs/gpfs1/software/python2.7/bin/cutadapt --version')
Writing report to '/gpfs/gpfs1/home/aalonso/article/zebrafish/encode/results_trimgalore/D06BVACXX_s3_1_nextera12index_5_SL7128.fastq.gz_trimming_report.txt'

SUMMARISING RUN PARAMETERS
==========================
Input filename: /gpfs/gpfs1/myerslab/data/Libraries/SL7128/D06BVACXX_s3_1_nextera12index_5_SL7128.fastq.gz
Trimming mode: paired-end
Trim Galore version: 0.4.1
Cutadapt version: 1.3.1-rc1
Quality Phred score cutoff: 20
Quality encoding type selected: ASCII+33
Adapter sequence: 'AGATCGGAAGAGC' (Illumina TruSeq, Sanger iPCR; user defined)
Maximum trimming error rate: 0.1 (default)
Minimum required adapter overlap (stringency): 1 bp
Minimum required sequence length for both reads before a sequence pair gets removed: 20 bp
Output file(s) will be GZIP compressed

Writing final adapter and quality trimmed output to D06BVACXX_s3_1_nextera12index_5_SL7128_trimmed.fq.gz


  >>> Now performing quality (cutoff 20) and adapter trimming in a single pass for the adapter sequence: 'AGATCGGAAGAGC' from file /gpfs/gpfs1/myerslab/data/Libraries/SL7128/D06BVACXX_s3_1_nextera12index_5_SL7128.fastq.gz <<< 
10000000 sequences processed
20000000 sequences processed
30000000 sequences processed
40000000 sequences processed
cutadapt version 1.3.1-rc1
Command line parameters: -f fastq -e 0.1 -q 20 -O 1 -a AGATCGGAAGAGC /gpfs/gpfs1/myerslab/data/Libraries/SL7128/D06BVACXX_s3_1_nextera12index_5_SL7128.fastq.gz
Maximum error rate: 10.00%
   No. of adapters: 1
   Processed reads:     48811128
   Processed bases:   2440556400 bp (2440.6 Mbp)
     Trimmed reads:     16231986 (33.3%)
   Quality-trimmed:     67481055 bp (67.5 Mbp) (2.76% of total)
     Trimmed bases:     23459589 bp (23.5 Mbp) (0.96% of total)
   Too short reads:            0 (0.0% of processed reads)
    Too long reads:            0 (0.0% of processed reads)
        Total time:    804.65 s
     Time per read:      0.016 ms

=== Adapter 1 ===

Adapter 'AGATCGGAAGAGC', length 13, was trimmed 16231986 times.

No. of allowed errors:
0-9 bp: 0; 10-13 bp: 1

Overview of removed sequences
length	count	expect	max.err	error counts
1	10988155	12202782.0	0	10988155
2	3806292	3050695.5	0	3806292
3	1112164	762673.9	0	1112164
4	226112	190668.5	0	226112
5	77421	47667.1	0	77421
6	13064	11916.8	0	13064
7	2160	2979.2	0	2160
8	470	744.8	0	470
9	699	186.2	0	163 536
10	918	46.5	1	16 902
11	424	11.6	1	3 421
12	691	2.9	1	0 691
13	45	0.7	1	0 45
14	123	0.7	1	1 122
15	87	0.7	1	0 87
16	17	0.7	1	0 17
17	57	0.7	1	0 57
18	37	0.7	1	0 37
19	94	0.7	1	0 94
20	37	0.7	1	0 37
21	32	0.7	1	0 32
22	37	0.7	1	0 37
23	37	0.7	1	0 37
24	337	0.7	1	0 337
25	40	0.7	1	0 40
26	54	0.7	1	0 54
27	53	0.7	1	0 53
28	46	0.7	1	0 46
29	359	0.7	1	0 359
30	51	0.7	1	0 51
31	162	0.7	1	0 162
32	139	0.7	1	0 139
33	139	0.7	1	0 139
34	285	0.7	1	0 285
35	85	0.7	1	0 85
36	342	0.7	1	0 342
37	58	0.7	1	0 58
38	13	0.7	1	0 13
39	28	0.7	1	0 28
40	82	0.7	1	0 82
41	215	0.7	1	0 215
42	39	0.7	1	0 39
43	98	0.7	1	0 98
44	16	0.7	1	0 16
45	35	0.7	1	0 35
46	44	0.7	1	0 44
47	2	0.7	1	0 2
48	39	0.7	1	0 39
49	2	0.7	1	0 2
50	50	0.7	1	0 50


RUN STATISTICS FOR INPUT FILE: /gpfs/gpfs1/myerslab/data/Libraries/SL7128/D06BVACXX_s3_1_nextera12index_5_SL7128.fastq.gz
=============================================
48811128 sequences processed in total
The length threshold of paired-end sequences gets evaluated later on (in the validation step)

Writing report to '/gpfs/gpfs1/home/aalonso/article/zebrafish/encode/results_trimgalore/D06BVACXX_s3_2_nextera12index_5_SL7128.fastq.gz_trimming_report.txt'

SUMMARISING RUN PARAMETERS
==========================
Input filename: /gpfs/gpfs1/myerslab/data/Libraries/SL7128/D06BVACXX_s3_2_nextera12index_5_SL7128.fastq.gz
Trimming mode: paired-end
Trim Galore version: 0.4.1
Cutadapt version: 1.3.1-rc1
Quality Phred score cutoff: 20
Quality encoding type selected: ASCII+33
Adapter sequence: 'AGATCGGAAGAGC' (Illumina TruSeq, Sanger iPCR; user defined)
Maximum trimming error rate: 0.1 (default)
Minimum required adapter overlap (stringency): 1 bp
Minimum required sequence length for both reads before a sequence pair gets removed: 20 bp
Output file(s) will be GZIP compressed

Writing final adapter and quality trimmed output to D06BVACXX_s3_2_nextera12index_5_SL7128_trimmed.fq.gz


  >>> Now performing quality (cutoff 20) and adapter trimming in a single pass for the adapter sequence: 'AGATCGGAAGAGC' from file /gpfs/gpfs1/myerslab/data/Libraries/SL7128/D06BVACXX_s3_2_nextera12index_5_SL7128.fastq.gz <<< 
10000000 sequences processed
20000000 sequences processed
30000000 sequences processed
40000000 sequences processed
cutadapt version 1.3.1-rc1
Command line parameters: -f fastq -e 0.1 -q 20 -O 1 -a AGATCGGAAGAGC /gpfs/gpfs1/myerslab/data/Libraries/SL7128/D06BVACXX_s3_2_nextera12index_5_SL7128.fastq.gz
Maximum error rate: 10.00%
   No. of adapters: 1
   Processed reads:     48811128
   Processed bases:   2440556400 bp (2440.6 Mbp)
     Trimmed reads:     16157153 (33.1%)
   Quality-trimmed:     65182311 bp (65.2 Mbp) (2.67% of total)
     Trimmed bases:     23232847 bp (23.2 Mbp) (0.95% of total)
   Too short reads:            0 (0.0% of processed reads)
    Too long reads:            0 (0.0% of processed reads)
        Total time:    793.05 s
     Time per read:      0.016 ms

=== Adapter 1 ===

Adapter 'AGATCGGAAGAGC', length 13, was trimmed 16157153 times.

No. of allowed errors:
0-9 bp: 0; 10-13 bp: 1

Overview of removed sequences
length	count	expect	max.err	error counts
1	11052134	12202782.0	0	11052134
2	3683661	3050695.5	0	3683661
3	1093927	762673.9	0	1093927
4	227960	190668.5	0	227960
5	77419	47667.1	0	77419
6	13098	11916.8	0	13098
7	2348	2979.2	0	2348
8	486	744.8	0	486
9	657	186.2	0	164 493
10	904	46.5	1	15 889
11	435	11.6	1	9 426
12	756	2.9	1	0 756
13	38	0.7	1	0 38
14	120	0.7	1	0 120
15	117	0.7	1	0 117
16	18	0.7	1	0 18
17	42	0.7	1	0 42
18	32	0.7	1	0 32
19	83	0.7	1	0 83
20	42	0.7	1	0 42
21	29	0.7	1	0 29
22	30	0.7	1	0 30
23	27	0.7	1	0 27
24	288	0.7	1	0 288
25	41	0.7	1	0 41
26	42	0.7	1	0 42
27	65	0.7	1	0 65
28	38	0.7	1	0 38
29	401	0.7	1	0 401
30	32	0.7	1	0 32
31	147	0.7	1	0 147
32	140	0.7	1	0 140
33	110	0.7	1	0 110
34	316	0.7	1	0 316
35	45	0.7	1	0 45
36	359	0.7	1	0 359
37	28	0.7	1	0 28
38	25	0.7	1	0 25
39	29	0.7	1	0 29
40	48	0.7	1	0 48
41	245	0.7	1	0 245
42	57	0.7	1	0 57
43	108	0.7	1	0 108
44	15	0.7	1	0 15
45	38	0.7	1	0 38
46	58	0.7	1	0 58
47	3	0.7	1	0 3
48	50	0.7	1	0 50
49	7	0.7	1	0 7
50	55	0.7	1	0 55


RUN STATISTICS FOR INPUT FILE: /gpfs/gpfs1/myerslab/data/Libraries/SL7128/D06BVACXX_s3_2_nextera12index_5_SL7128.fastq.gz
=============================================
48811128 sequences processed in total
The length threshold of paired-end sequences gets evaluated later on (in the validation step)

Validate paired-end files D06BVACXX_s3_1_nextera12index_5_SL7128_trimmed.fq.gz and D06BVACXX_s3_2_nextera12index_5_SL7128_trimmed.fq.gz
file_1: D06BVACXX_s3_1_nextera12index_5_SL7128_trimmed.fq.gz, file_2: D06BVACXX_s3_2_nextera12index_5_SL7128_trimmed.fq.gz


>>>>> Now validing the length of the 2 paired-end infiles: D06BVACXX_s3_1_nextera12index_5_SL7128_trimmed.fq.gz and D06BVACXX_s3_2_nextera12index_5_SL7128_trimmed.fq.gz <<<<<
Writing validated paired-end read 1 reads to D06BVACXX_s3_1_nextera12index_5_SL7128_val_1.fq.gz
Writing validated paired-end read 2 reads to D06BVACXX_s3_2_nextera12index_5_SL7128_val_2.fq.gz

Total number of sequences analysed: 48811128

Number of sequence pairs removed because at least one read was shorter than the length cutoff (20 bp): 1318884 (2.70%)

Deleting both intermediate output files D06BVACXX_s3_1_nextera12index_5_SL7128_trimmed.fq.gz and D06BVACXX_s3_2_nextera12index_5_SL7128_trimmed.fq.gz

====================================================================================================

