##FastQC	0.10.1
>>Basic Statistics	pass
#Measure	Value	
Filename	SRR2040575_1.fastq.gz	
File type	Conventional base calls	
Encoding	Sanger / Illumina 1.9	
Total Sequences	73730964	
Filtered Sequences	0	
Sequence length	25-100	
%GC	49	
>>END_MODULE
>>Per base sequence quality	pass
#Base	Mean	Median	Lower Quartile	Upper Quartile	10th Percentile	90th Percentile
1	32.602178441611045	34.0	31.0	34.0	31.0	34.0
2	32.93780923575067	34.0	31.0	34.0	31.0	34.0
3	33.068101876438234	34.0	33.0	34.0	31.0	34.0
4	36.420341472817306	37.0	37.0	37.0	35.0	37.0
5	36.37556167039943	37.0	37.0	37.0	35.0	37.0
6	36.358296590290074	37.0	37.0	37.0	35.0	37.0
7	36.34268145470063	37.0	37.0	37.0	35.0	37.0
8	36.30634027787837	37.0	37.0	37.0	35.0	37.0
9	38.1468206085031	39.0	39.0	39.0	37.0	39.0
10-14	38.400940256253804	39.4	39.2	39.4	37.0	39.4
15-19	39.605083858662155	41.0	40.0	41.0	37.0	41.0
20-24	39.66703772379811	41.0	40.0	41.0	37.0	41.0
25-29	39.497147136280596	41.0	39.2	41.0	36.6	41.0
30-34	39.208402221382286	40.0	39.0	41.0	35.8	41.0
35-39	38.89011166491495	40.0	38.0	41.0	35.0	41.0
40-44	38.800895192896476	40.0	38.0	41.0	35.0	41.0
45-49	38.741314899832744	40.0	38.0	41.0	35.0	41.0
50-54	38.56125136401549	40.0	37.2	41.0	35.0	41.0
55-59	38.09458126124321	39.4	36.0	41.0	34.2	41.0
60-64	37.418040169216745	38.4	35.0	40.6	33.8	41.0
65-69	36.63053957164004	36.6	35.0	39.6	33.0	41.0
70-74	35.94569189798058	35.4	35.0	38.4	33.0	40.6
75-79	34.70389761735778	34.8	33.8	36.2	31.6	38.8
80-84	34.78869817926477	35.0	35.0	36.0	33.0	37.4
85-89	34.4100022236525	35.0	34.0	35.0	32.4	36.2
90-94	34.15850410107878	35.0	34.0	35.0	32.0	36.0
95-99	34.21653692432881	35.0	34.0	35.0	32.4	35.0
100	33.890007322722994	34.0	33.0	35.0	31.0	35.0
>>END_MODULE
>>Per sequence quality scores	pass
#Quality	Count
20	5.0
21	41.0
22	271.0
23	1140.0
24	3746.0
25	9732.0
26	23231.0
27	48268.0
28	95715.0
29	181491.0
30	400055.0
31	805143.0
32	1405517.0
33	2240892.0
34	3594290.0
35	5975813.0
36	1.1115486E7
37	1.9353526E7
38	2.1636638E7
39	6712710.0
40	127254.0
>>END_MODULE
>>Per base sequence content	fail
#Base	G	A	T	C
1	42.25915685569453	8.402162207400313	10.497119995286843	38.84156094161832
2	27.24164975220937	10.895091961989744	35.36506791922017	26.498190366580722
3	26.72368558750975	13.835202263190267	22.544947330405172	36.89616481889481
4	29.16590918301299	20.9505195130773	21.401555254316218	28.482016049593494
5	30.56969931927107	24.4272745437046	23.6068648173378	21.39616131968653
6	25.827347110231734	28.64906255667565	23.70049576457457	21.82309456851805
7	20.134896106878518	23.81696108028643	37.7235078602797	18.324634952555346
8	22.422058661812695	22.78925174503347	31.428448433144045	23.36024116000979
9	22.249474454179115	20.81713457591576	33.80507950499603	23.1283114649091
10-14	25.623718143709606	25.28169982966722	26.135756478105996	22.958825548517172
15-19	25.995496274807962	23.974817418635677	26.39823236272891	23.631453943827456
20-24	25.618741483711272	24.202958678100636	26.523555171236733	23.654744666951355
25-29	25.520937464971215	24.27412244490493	26.399218162927053	23.805721927196807
30-34	25.53906302790156	24.2442119601356	26.246098162599225	23.97062684936361
35-39	25.52522994789689	24.286979466368937	26.247965425163155	23.93982516057102
40-44	25.637373428327315	24.203513026355413	26.174797398345156	23.98431614697212
45-49	25.611961440325064	24.201607626559387	26.220756832110474	23.96567410100508
50-54	25.632634444890968	24.2664074388986	26.05190011854976	24.049057997660675
55-59	25.50170163381434	24.249573855333942	26.160681064311557	24.088043446540166
60-64	25.51091315731734	24.08513714356194	26.20972073662926	24.19422896249146
65-69	25.423548708990296	24.29275601153181	26.23802859646759	24.04566668301031
70-74	25.505090305930732	24.356657216300718	26.039126678859798	24.099125798908748
75-79	25.460746712780345	24.283034829809978	26.125137189860574	24.1310812675491
80-84	25.389936577014172	24.322124351926526	26.21137559984279	24.07656347121651
85-89	25.407972899859455	24.4846006964201	26.143687191642567	23.96373921207788
90-94	25.169486698547693	24.61970617745787	26.098619951940872	24.112187172053563
95-99	25.150413375428926	24.948090448235945	26.054795891591326	23.8467002847438
100	21.883429877147677	26.547936871028327	25.94906900483328	25.619564246990713
>>END_MODULE
>>Per base GC content	fail
#Base	%GC
1	81.10071779731285
2	53.73984011879009
3	63.61985040640457
4	57.647925232606475
5	51.96586063895761
6	47.650441678749786
7	38.45953105943386
8	45.782299821822484
9	45.37778591908822
10-14	48.58254369222678
15-19	49.62695021863542
20-24	49.27348615066263
25-29	49.32665939216802
30-34	49.509689877265174
35-39	49.4650551084679
40-44	49.621689575299435
45-49	49.577635541330146
50-54	49.681692442551636
55-59	49.589745080354504
60-64	49.7051421198088
65-69	49.469215392000606
70-74	49.60421610483948
75-79	49.59182798032945
80-84	49.466500048230685
85-89	49.371712111937335
90-94	49.28167387060125
95-99	48.99711366017273
100	47.50299412413839
>>END_MODULE
>>Per sequence GC content	warn
#GC Content	Count
0	155.0
1	160.0
2	356.0
3	556.5
4	627.0
5	946.0
6	1461.0
7	1833.0
8	2165.0
9	2799.0
10	3612.0
11	4330.0
12	5058.0
13	6270.0
14	7604.0
15	8637.0
16	9839.0
17	11580.0
18	13782.0
19	16793.0
20	20764.0
21	25513.0
22	32295.5
23	42192.0
24	55596.0
25	72856.0
26	94280.0
27	123250.5
28	160675.5
29	204178.5
30	260386.0
31	336610.0
32	436550.0
33	568423.0
34	749116.5
35	965390.0
36	1219505.5
37	1512347.0
38	1804185.0
39	2059460.5
40	2259315.0
41	2424202.5
42	2597403.5
43	2751818.5
44	2860412.5
45	2927201.0
46	2937710.0
47	2882653.5
48	2813745.0
49	2789831.0
50	2803787.5
51	2777106.0
52	2673613.0
53	2567109.5
54	2481944.0
55	2418549.5
56	2311805.5
57	2192716.5
58	2130386.5
59	2056721.5
60	1945147.5
61	1818083.5
62	1659614.5
63	1495718.5
64	1343544.5
65	1182829.5
66	1028435.5
67	892544.5
68	767817.0
69	639322.0
70	519825.0
71	422268.5
72	350762.0
73	284765.5
74	222474.0
75	180088.0
76	150053.0
77	124925.0
78	104815.5
79	86232.0
80	67643.0
81	52383.5
82	40782.0
83	31360.0
84	24131.5
85	18627.5
86	14116.5
87	10276.5
88	7144.5
89	5207.0
90	4129.0
91	3310.0
92	3027.0
93	3055.0
94	2706.0
95	1661.0
96	619.5
97	306.5
98	192.5
99	68.5
100	58.0
>>END_MODULE
>>Per base N content	pass
#Base	N-Count
1	0.041924041573632484
2	0.0048839724922082935
3	0.0
4	0.0
5	0.0
6	0.0
7	0.0
8	0.0
9	0.0
10-14	0.0
15-19	0.0
20-24	6.808537048288151E-5
25-29	5.255859317347545E-4
30-34	0.0
35-39	0.0
40-44	0.0
45-49	0.0
50-54	0.0
55-59	0.0
60-64	0.0
65-69	0.0
70-74	0.0
75-79	0.0
80-84	0.0
85-89	0.0
90-94	0.0
95-99	0.0
100	0.0
>>END_MODULE
>>Sequence Length Distribution	warn
#Length	Count
24-25	27893.0
26-27	63445.0
28-29	71667.0
30-31	76935.0
32-33	81896.0
34-35	84436.0
36-37	83879.0
38-39	73927.0
40-41	79927.0
42-43	80877.0
44-45	82745.0
46-47	81189.0
48-49	85434.0
50-51	103010.0
52-53	118533.0
54-55	131069.0
56-57	145991.0
58-59	160302.0
60-61	176826.0
62-63	194245.0
64-65	215378.0
66-67	236436.0
68-69	245682.0
70-71	275847.0
72-73	313018.0
74-75	395511.0
76-77	357008.0
78-79	396698.0
80-81	463517.0
82-83	521108.0
84-85	621784.0
86-87	706381.0
88-89	778374.0
90-91	863864.0
92-93	1075061.0
94-95	1218449.0
96-97	844095.0
98-99	8758024.0
100-101	5.3440503E7
>>END_MODULE
>>Sequence Duplication Levels	fail
#Total Duplicate Percentage	78.25666474119974
#Duplication Level	Relative count
1	100.0
2	45.97379596272667
3	28.093867611246402
4	20.1199508925876
5	15.877392476905428
6	13.013464286433072
7	10.890172479723066
8	9.402861915591604
9	7.921589148066899
10++	151.2266790106064
>>END_MODULE
>>Overrepresented sequences	pass
>>END_MODULE
>>Kmer Content	warn
#Sequence	Count	Obs/Exp Overall	Obs/Exp Max	Max Obs/Exp Position
CTCCA	15691265	2.5940652	9.005629	1
CTCCT	16639775	2.5066082	8.461613	1
CCCAG	13367025	2.259639	7.2005157	1
TCCAG	14497275	2.2568285	6.5160537	2
CTGGG	15684585	2.1422591	5.353083	1
GGCAG	14042200	2.1048348	6.3137918	1
GGCTG	14752080	2.014894	5.1445704	1
GCCAG	12226170	1.9461846	5.7010736	1
CTCAG	12086785	1.8815812	5.4156566	1
CCCCA	10344710	1.8570917	6.0773144	1
CTCTG	12825145	1.8192424	5.6556263	1
CTCCC	10678900	1.7468582	5.624027	1
GGGGA	11983280	1.6914062	5.3037133	1
GGGGG	12195985	1.6039342	6.2371387	1
GTGGG	11496240	1.4785775	5.6205935	1
GTCCA	8890525	1.384011	6.5148325	1
GTCCT	9145810	1.2973299	5.7121115	1
GTCAG	8656785	1.2689897	5.009307	1
>>END_MODULE
