Sender: LSF System <lsfadmin@node0082b>
Subject: Job 379688: <g1k_v37_sFusion_1> in cluster <thmorgan-cluster1> Done

Job <g1k_v37_sFusion_1> was submitted from host <node0086a> by user <aalonso> in cluster <thmorgan-cluster1>.
Job was executed on host(s) <node0082b>, in queue <normal>, as user <aalonso> in cluster <thmorgan-cluster1>.
</gpfs/gpfs1/home/aalonso> was used as the home directory.
</gpfs/gpfs1/home/aalonso/article/fusion_set> was used as the working directory.
Started at Fri Feb 19 17:03:28 2016
Results reported on Fri Feb 19 17:06:34 2016

Your job looked like:

------------------------------------------------------------
# LSBATCH: User input
/gpfs/gpfs1/software/STAR_2.4.2a/STAR-Fusion-0.1.1/STAR-Fusion -J /gpfs/gpfs1/home/aalonso/article/fusion_set/g1k_v37/results_star/M010403_Chimeric.out.junction -S /gpfs/gpfs1/home/aalonso/article/fusion_set/g1k_v37/results_star/M010403_Chimeric.out.sam -G /gpfs/gpfs1/myerslab/reference/genomes/rnaseq_pipeline/bedpipe-test/genomes_processed/g1k_v37/genesets.gtf --out_prefix /gpfs/gpfs1/home/aalonso/article/fusion_set/g1k_v37/results_star-fusion/M010403 && (echo 'M010403' >> /gpfs/gpfs1/home/aalonso/article/fusion_set/g1k_v37/results_star-fusion/samples_ok.txt) || (echo 'M010403' >> /gpfs/gpfs1/home/aalonso/article/fusion_set/g1k_v37/results_star-fusion/samples_ko.txt)
/gpfs/gpfs1/software/STAR_2.4.2a/STAR-Fusion-0.1.1/STAR-Fusion -J /gpfs/gpfs1/home/aalonso/article/fusion_set/g1k_v37/results_star/M970109_Chimeric.out.junction -S /gpfs/gpfs1/home/aalonso/article/fusion_set/g1k_v37/results_star/M970109_Chimeric.out.sam -G /gpfs/gpfs1/myerslab/reference/genomes/rnaseq_pipeline/bedpipe-test/genomes_processed/g1k_v37/genesets.gtf --out_prefix /gpfs/gpfs1/home/aalonso/article/fusion_set/g1k_v37/results_star-fusion/M970109 && (echo 'M970109' >> /gpfs/gpfs1/home/aalonso/article/fusion_set/g1k_v37/results_star-fusion/samples_ok.txt) || (echo 'M970109' >> /gpfs/gpfs1/home/aalonso/article/fusion_set/g1k_v37/results_star-fusion/samples_ko.txt)

------------------------------------------------------------

Successfully completed.

Resource usage summary:

    CPU time :                                   167.41 sec.
    Max Memory :                                 1467 MB
    Average Memory :                             1065.33 MB
    Total Requested Memory :                     -
    Delta Memory :                               -
    Max Swap :                                   1828 MB
    Max Processes :                              4
    Max Threads :                                5

The output (if any) follows:

-parsing /gpfs/gpfs1/myerslab/reference/genomes/rnaseq_pipeline/bedpipe-test/genomes_processed/g1k_v37/genesets.gtf
-building interval tree for fast searching of gene overlaps
-mapping junction reads to genes
-outputting fusion candidates to file: /gpfs/gpfs1/home/aalonso/article/fusion_set/g1k_v37/results_star-fusion/M010403.fusion_candidates.txt

	* process complete.  See output: /gpfs/gpfs1/home/aalonso/article/fusion_set/g1k_v37/results_star-fusion/M010403.fusion_candidates.txt

-parsing /gpfs/gpfs1/myerslab/reference/genomes/rnaseq_pipeline/bedpipe-test/genomes_processed/g1k_v37/genesets.gtf
-building interval tree for fast searching of gene overlaps
-mapping junction reads to genes
-outputting fusion candidates to file: /gpfs/gpfs1/home/aalonso/article/fusion_set/g1k_v37/results_star-fusion/M970109.fusion_candidates.txt

	* process complete.  See output: /gpfs/gpfs1/home/aalonso/article/fusion_set/g1k_v37/results_star-fusion/M970109.fusion_candidates.txt

