Sender: LSF System <lsfadmin@node0092b>
Subject: Job 379682: <colorectal_GSE29580_kal_2> in cluster <thmorgan-cluster1> Done

Job <colorectal_GSE29580_kal_2> was submitted from host <node0087b> by user <aalonso> in cluster <thmorgan-cluster1>.
Job was executed on host(s) <node0092b>, in queue <normal>, as user <aalonso> in cluster <thmorgan-cluster1>.
</gpfs/gpfs1/home/aalonso> was used as the home directory.
</gpfs/gpfs1/home/aalonso/article/colorectal_GSE29580> was used as the working directory.
Started at Fri Feb 19 16:29:47 2016
Results reported on Fri Feb 19 16:46:24 2016

Your job looked like:

------------------------------------------------------------
# LSBATCH: User input
/gpfs/gpfs1/software/kallisto-0.42.4/kallisto quant -b 20 -i /gpfs/gpfs1/myerslab/reference/genomes/rnaseq_pipeline/bedpipe-test/genomes_processed/g1k_v37/kallisto.idx -o /gpfs/gpfs1/home/aalonso/article/colorectal_GSE29580/results_kallisto/P2N --single -l 65.0 -s 0.001 /gpfs/gpfs1/home/aalonso/article/colorectal_GSE29580/results_trimgalore/SRR222177.fastq.gz && (echo 'P2N' >> /gpfs/gpfs1/home/aalonso/article/colorectal_GSE29580/results_kallisto/samples_ok.txt) || (echo 'P2N' >> /gpfs/gpfs1/home/aalonso/article/colorectal_GSE29580/results_kallisto/samples_ko.txt)

------------------------------------------------------------

Successfully completed.

Resource usage summary:

    CPU time :                                   973.57 sec.
    Max Memory :                                 3686 MB
    Average Memory :                             3634.03 MB
    Total Requested Memory :                     -
    Delta Memory :                               -
    Max Swap :                                   4022 MB
    Max Processes :                              4
    Max Threads :                                6

The output (if any) follows:


[quant] fragment length distribution is truncated gaussian with mean = 65, sd = 0.001
[index] k-mer length: 31
[index] number of targets: 180,253
[index] number of k-mers: 101,446,106
[index] number of equivalence classes: 693,993
[quant] running in single-end mode
[quant] will process file 1: /gpfs/gpfs1/home/aalonso/article/colorectal_GSE29580/results_trimgalore/SRR222177.fastq.gz
[quant] finding pseudoalignments for the reads ... done
[quant] processed 11,133,764 reads, 8,859,815 reads pseudoaligned
[   em] quantifying the abundances ... done
[   em] the Expectation-Maximization algorithm ran for 1,237 rounds
[bstrp] running EM for the bootstrap: 1[bstrp] running EM for the bootstrap: 2[bstrp] running EM for the bootstrap: 3[bstrp] running EM for the bootstrap: 4[bstrp] running EM for the bootstrap: 5[bstrp] running EM for the bootstrap: 6[bstrp] running EM for the bootstrap: 7[bstrp] running EM for the bootstrap: 8[bstrp] running EM for the bootstrap: 9[bstrp] running EM for the bootstrap: 10[bstrp] running EM for the bootstrap: 11[bstrp] running EM for the bootstrap: 12[bstrp] running EM for the bootstrap: 13[bstrp] running EM for the bootstrap: 14[bstrp] running EM for the bootstrap: 15[bstrp] running EM for the bootstrap: 16[bstrp] running EM for the bootstrap: 17[bstrp] running EM for the bootstrap: 18[bstrp] running EM for the bootstrap: 19[bstrp] running EM for the bootstrap: 20

