##FastQC	0.10.1
>>Basic Statistics	pass
#Measure	Value	
Filename	SRR2040582_1.fastq.gz	
File type	Conventional base calls	
Encoding	Sanger / Illumina 1.9	
Total Sequences	85271817	
Filtered Sequences	0	
Sequence length	25-100	
%GC	46	
>>END_MODULE
>>Per base sequence quality	pass
#Base	Mean	Median	Lower Quartile	Upper Quartile	10th Percentile	90th Percentile
1	33.06292638281649	34.0	33.0	34.0	31.0	34.0
2	33.174500128219385	34.0	33.0	34.0	31.0	34.0
3	33.24716942527447	34.0	34.0	34.0	31.0	34.0
4	36.5864513476944	37.0	37.0	37.0	35.0	37.0
5	36.53362629765471	37.0	37.0	37.0	35.0	37.0
6	36.522030649352764	37.0	37.0	37.0	35.0	37.0
7	36.50679148774325	37.0	37.0	37.0	35.0	37.0
8	36.50300667335375	37.0	37.0	37.0	35.0	37.0
9	38.35856131692374	39.0	39.0	39.0	37.0	39.0
10-14	38.64673814327189	39.4	39.2	39.4	37.2	39.4
15-19	39.87038543813368	41.0	40.0	41.0	38.0	41.0
20-24	39.828771726536566	41.0	40.0	41.0	38.0	41.0
25-29	39.7184390347599	41.0	40.0	41.0	37.2	41.0
30-34	39.56443106799349	41.0	39.2	41.0	37.0	41.0
35-39	39.383075835370775	40.8	39.0	41.0	36.0	41.0
40-44	39.174503030998345	40.0	38.6	41.0	35.2	41.0
45-49	39.271998541373385	40.2	39.0	41.0	35.0	41.0
50-54	39.09814185348277	40.2	38.4	41.0	35.0	41.0
55-59	38.70465145401316	40.0	37.4	41.0	35.0	41.0
60-64	38.16898948928665	39.4	36.2	41.0	34.4	41.0
65-69	37.512784115887584	38.2	35.0	40.6	34.0	41.0
70-74	36.756412800552496	36.6	35.0	39.4	34.0	41.0
75-79	35.39941654896699	35.2	34.4	37.4	32.2	39.4
80-84	35.29177738093563	35.0	35.0	36.6	33.0	38.6
85-89	34.79875710126733	35.0	35.0	35.8	33.0	37.0
90-94	34.50678111848024	35.0	35.0	35.0	33.0	36.0
95-99	34.40625070986606	35.0	34.0	35.0	33.0	35.8
100	34.34979892620945	35.0	34.0	35.0	32.0	35.0
>>END_MODULE
>>Per sequence quality scores	pass
#Quality	Count
20	3.0
21	34.0
22	222.0
23	1046.0
24	3387.0
25	8550.0
26	19349.0
27	40247.0
28	79464.0
29	152061.0
30	331790.0
31	671552.0
32	1170006.0
33	1854552.0
34	2991735.0
35	4922873.0
36	9651511.0
37	2.0166473E7
38	2.9998742E7
39	1.3066696E7
40	141524.0
>>END_MODULE
>>Per base sequence content	fail
#Base	G	A	T	C
1	53.97075933988296	9.49323558707122	5.165597108574035	31.37040796447179
2	27.94386653068604	11.03641950363787	33.07871623450242	27.940997731173667
3	25.765903513617054	15.176222443009923	23.4408152862023	35.61705875717072
4	27.72123195159926	23.408249196967304	22.43378385760669	26.43673499382674
5	28.4673048825998	27.10652572949733	23.735087982687613	20.691081405215254
6	24.123698454789583	29.959564483069478	24.07101164503156	21.84572541710938
7	18.056926123668738	23.652023270478686	40.487208100655344	17.803842505197235
8	20.24827661714551	23.424175640095832	32.59131326547111	23.736234477287553
9	20.068610711086407	21.929391981878375	34.75292076865208	23.249076538383136
10-14	23.477356885687094	27.516944549217243	27.32056454244431	21.685134022651354
15-19	23.630350591060097	25.87339069596368	27.76379491355169	22.73246379942454
20-24	23.420348474943506	26.064880823480763	27.68770718711532	22.827063514460416
25-29	23.343758443957498	26.1591938553277	27.588075408541673	22.908972292173132
30-34	23.334196376824814	26.15853500843439	27.408369516517546	23.098899098223253
35-39	23.292442073966065	26.193869504377744	27.463054644783263	23.050633776872928
40-44	23.312727163319217	26.18337760463474	27.422301110872706	23.081594121173342
45-49	23.27148958537438	26.108839925753184	27.457168752517426	23.162501736355015
50-54	23.23838141630085	26.1551078988188	27.423064709041583	23.18344597583876
55-59	23.130910518787715	26.20405195314651	27.45668789818908	23.20834962987669
60-64	23.125998790953467	26.08293311295447	27.52410835178083	23.266959744311233
65-69	23.050449891988258	26.184057033297215	27.52014684048385	23.245346234230677
70-74	23.151063407023937	26.251550810942557	27.426813525910866	23.170572256122636
75-79	23.13275027413963	26.22780242228764	27.423010379368655	23.216436924204075
80-84	23.109244017053847	26.20227997354271	27.53181503171744	23.15666097768601
85-89	23.054154401933644	26.28631106828017	27.44125005270156	23.218284477084627
90-94	23.02771529755781	26.284330744558503	27.435753562334042	23.25220039554965
95-99	22.94282447892168	26.42176332807414	27.426094148960743	23.209318044043435
100	23.295513582411363	26.632876735486704	26.605121613610816	23.466488068491117
>>END_MODULE
>>Per base GC content	fail
#Base	%GC
1	85.34116730435474
2	55.884864261859704
3	61.38296227078778
4	54.157966945426004
5	49.158386287815055
6	45.96942387189897
7	35.86076862886597
8	43.98451109443306
9	43.317687249469536
10-14	45.16249090833845
15-19	46.36281439048464
20-24	46.24741198940392
25-29	46.25273073613063
30-34	46.43309547504806
35-39	46.34307585083899
40-44	46.394321284492555
45-49	46.43399132172939
50-54	46.42182739213961
55-59	46.3392601486644
60-64	46.3929585352647
65-69	46.29579612621894
70-74	46.32163566314658
75-79	46.349187198343714
80-84	46.265904994739856
85-89	46.27243887901827
90-94	46.279915693107455
95-99	46.152142522965114
100	46.76200165090248
>>END_MODULE
>>Per sequence GC content	pass
#GC Content	Count
0	3527.0
1	2886.5
2	2140.5
3	2072.0
4	2288.5
5	3171.5
6	4699.0
7	5917.5
8	7024.0
9	8855.0
10	11065.5
11	13052.0
12	14991.0
13	17870.5
14	21316.5
15	24554.0
16	28466.0
17	33664.5
18	40365.5
19	50130.5
20	64203.5
21	85000.0
22	115560.5
23	158039.0
24	215006.0
25	290316.5
26	385782.0
27	501278.5
28	637324.0
29	789155.0
30	956201.0
31	1135033.0
32	1313821.5
33	1496836.0
34	1688034.0
35	1871874.0
36	2061961.5
37	2263949.0
38	2449138.5
39	2612913.0
40	2748346.5
41	2850224.5
42	2950828.5
43	3038260.5
44	3067348.0
45	3071192.0
46	3069499.0
47	3024945.0
48	2961247.0
49	2923328.5
50	2900204.5
51	2828295.0
52	2719337.0
53	2624006.0
54	2546234.5
55	2472879.5
56	2355537.0
57	2234501.0
58	2133094.0
59	2011089.0
60	1868386.5
61	1704724.0
62	1519896.5
63	1335262.5
64	1158565.0
65	985112.0
66	821571.0
67	674540.0
68	544824.0
69	426884.0
70	324392.0
71	241718.0
72	178235.5
73	128216.5
74	90033.5
75	63094.5
76	44447.0
77	31226.5
78	22188.5
79	16123.0
80	11796.0
81	8731.0
82	6701.0
83	5219.5
84	3998.5
85	3142.5
86	2499.0
87	1769.0
88	1159.5
89	857.5
90	670.0
91	474.5
92	373.5
93	360.5
94	295.5
95	159.0
96	63.5
97	41.0
98	25.5
99	10.5
100	10.0
>>END_MODULE
>>Per base N content	pass
#Base	N-Count
1	0.002735956711230863
2	0.011342551783551182
3	0.0051435517082977136
4	0.0066551883138599
5	1.8177166319793562E-4
6	0.0
7	0.0
8	8.420132527491469E-4
9	0.0
10-14	0.0
15-19	7.599228242081437E-5
20-24	5.253787426624204E-5
25-29	1.0702728879476579E-4
30-34	1.704826615993921E-4
35-39	1.9720891750545528E-4
40-44	2.431713506639147E-4
45-49	9.629798471097406E-4
50-54	0.0029686967486464814
55-59	4.9196788864273093E-5
60-64	2.8604862684108734E-6
65-69	0.0
70-74	1.6814243237835613E-5
75-79	0.010768456183513242
80-84	0.0
85-89	0.0025418557360140062
90-94	0.0017081428290255096
95-99	5.516697623503869E-4
100	0.0
>>END_MODULE
>>Sequence Length Distribution	warn
#Length	Count
24-25	28757.0
26-27	60683.0
28-29	64772.0
30-31	64074.0
32-33	66808.0
34-35	67678.0
36-37	68905.0
38-39	67816.0
40-41	68078.0
42-43	69308.0
44-45	62320.0
46-47	64149.0
48-49	71923.0
50-51	79100.0
52-53	81070.0
54-55	85399.0
56-57	96288.0
58-59	98930.0
60-61	102219.0
62-63	108979.0
64-65	116385.0
66-67	125998.0
68-69	134692.0
70-71	149182.0
72-73	171923.0
74-75	252564.0
76-77	161332.0
78-79	174266.0
80-81	195446.0
82-83	228319.0
84-85	262702.0
86-87	304157.0
88-89	339854.0
90-91	379204.0
92-93	461510.0
94-95	628593.0
96-97	788991.0
98-99	5333025.0
100-101	7.3586418E7
>>END_MODULE
>>Sequence Duplication Levels	fail
#Total Duplicate Percentage	68.38147621062349
#Duplication Level	Relative count
1	100.0
2	40.94185268535977
3	21.80980475640168
4	14.886564077610851
5	11.662915881029134
6	9.566023964479045
7	7.624232102670154
8	6.596314092816739
9	5.588163736998966
10++	85.4418830971352
>>END_MODULE
>>Overrepresented sequences	pass
>>END_MODULE
>>Kmer Content	warn
#Sequence	Count	Obs/Exp Overall	Obs/Exp Max	Max Obs/Exp Position
AAAAA	30736155	3.3890214	4.4008217	9
CCAGG	17617220	2.8283236	5.950403	2
GGAGG	15924005	2.4797394	5.564059	1
TCTTC	22076450	2.471252	5.1282597	7
CCAGC	15128530	2.4660819	5.0777545	2
CTCCA	17498640	2.457648	7.9918284	1
CCCAG	14912190	2.4308167	6.9488225	1
CTCCT	18417145	2.4295425	6.259784	1
GGCAG	15355855	2.4279892	11.734924	1
GGCTG	16272260	2.4166152	9.586611	1
GCTGG	16178840	2.402741	7.102255	1
CCTGG	15495820	2.3366473	5.59107	1
CAGGA	16020075	2.3235662	5.2224154	3
TCCAG	16780440	2.3211312	6.4442225	2
GCAGG	14481180	2.28969	5.416167	2
CTGCT	17600425	2.286685	5.5964694	3
GGGAG	13500780	2.1023867	8.424388	1
GCCAG	12855140	2.0638044	10.64224	1
CTCTG	15881945	2.0634165	5.445924	1
GGCCA	11979370	1.9232057	7.8379655	1
GGGCA	11795245	1.8650038	7.4151063	1
GCCTG	12312540	1.8566338	7.619305	1
CCCCA	10789480	1.7857896	5.8333597	1
GGGGC	10330520	1.7806444	8.198955	1
GCCTC	11482785	1.7581052	6.3457513	1
GCTCC	11455070	1.7538617	5.377792	1
GGGGG	10288940	1.746653	10.58284	1
GGGGA	11182720	1.7414106	8.564852	1
GGGCT	11493305	1.7068862	5.202351	1
GGCCT	11074165	1.6698967	5.971986	1
GCCAC	10225235	1.666802	7.448051	1
GGGAA	11362080	1.6230406	5.3675385	1
GTGGG	11072330	1.619495	7.5211143	1
GCCCA	9693125	1.5800636	7.084647	1
GTGGC	9976850	1.4816754	5.1596804	1
GGGGT	9467215	1.3847228	7.6696506	1
GTCCA	9746500	1.3481712	8.658266	1
GCCCC	7452325	1.3446331	5.3513985	1
GGCAC	8285610	1.3301979	5.079138	1
GTCAG	9451580	1.2876024	6.877095	1
GTCTG	9994530	1.2788706	6.0423217	1
GGCAA	8816245	1.2787161	5.1240954	1
GTCCT	9747095	1.2663635	7.1525064	1
GCCAT	8965710	1.2401695	5.157887	1
GCCCT	8098755	1.2399834	5.535657	1
GGCAT	9015565	1.2282035	5.162265	1
GTGGA	9119670	1.2235944	5.2431264	1
GTCCC	7076885	1.0835271	5.44652	1
>>END_MODULE
