##FastQC	0.10.1
>>Basic Statistics	pass
#Measure	Value	
Filename	SRR2040579_2.fastq.gz	
File type	Conventional base calls	
Encoding	Sanger / Illumina 1.9	
Total Sequences	67904633	
Filtered Sequences	0	
Sequence length	25-100	
%GC	50	
>>END_MODULE
>>Per base sequence quality	pass
#Base	Mean	Median	Lower Quartile	Upper Quartile	10th Percentile	90th Percentile
1	32.747632801431976	34.0	31.0	34.0	31.0	34.0
2	32.91765874060464	34.0	31.0	34.0	31.0	34.0
3	32.87884987170168	34.0	31.0	34.0	31.0	34.0
4	36.30950447814069	37.0	37.0	37.0	35.0	37.0
5	36.30068415214025	37.0	37.0	37.0	35.0	37.0
6	36.289815674285435	37.0	37.0	37.0	35.0	37.0
7	36.253639468164124	37.0	37.0	37.0	35.0	37.0
8	36.208243405129664	37.0	37.0	37.0	35.0	37.0
9	37.959214240948775	39.0	39.0	39.0	35.0	39.0
10-14	38.223803518678906	39.4	38.2	39.4	35.4	39.4
15-19	39.473159305639726	41.0	39.0	41.0	37.0	41.0
20-24	39.48877697932629	41.0	39.0	41.0	37.0	41.0
25-29	39.31812792969488	41.0	39.0	41.0	36.0	41.0
30-34	39.05591137053174	40.0	38.6	41.0	35.2	41.0
35-39	38.91190622247336	40.0	38.0	41.0	35.0	41.0
40-44	38.780096904451035	40.0	38.0	41.0	35.0	41.0
45-49	38.30865995356578	40.0	37.4	41.0	34.0	41.0
50-54	37.046117719119835	38.6	35.4	39.6	32.4	40.2
55-59	37.86790169599665	39.0	35.6	41.0	34.0	41.0
60-64	37.322031914472475	37.8	35.0	40.4	33.6	41.0
65-69	36.45017269626871	36.4	35.0	39.2	33.0	41.0
70-74	35.54424211022082	35.2	34.6	37.6	32.4	39.6
75-79	34.73674570874332	35.0	34.0	36.2	31.8	38.0
80-84	34.25371929310184	35.0	34.0	35.2	31.2	36.6
85-89	33.86489155680185	35.0	34.0	35.0	31.0	35.8
90-94	33.583583159377596	35.0	33.2	35.0	30.8	35.0
95-99	33.715689371546624	35.0	33.2	35.0	31.2	35.0
100	33.08951858520251	34.0	32.0	35.0	31.0	35.0
>>END_MODULE
>>Per sequence quality scores	pass
#Quality	Count
19	2.0
20	6.0
21	44.0
22	240.0
23	959.0
24	3059.0
25	7510.0
26	16685.0
27	33809.0
28	66615.0
29	128830.0
30	415554.0
31	853541.0
32	1502517.0
33	2546682.0
34	4188151.0
35	6713475.0
36	1.134371E7
37	1.8353554E7
38	1.7717594E7
39	3949772.0
40	62324.0
>>END_MODULE
>>Per base sequence content	fail
#Base	G	A	T	C
1	30.23648622031431	15.792066794617682	13.37385624335824	40.59759074170977
2	26.020037542946444	24.89706262016025	27.32987600418958	21.75302383270373
3	22.70430060346545	26.426102619537023	25.618107677571867	25.251489099425662
4	25.68399125285016	30.13252129644821	20.53085096564766	23.652636485053975
5	27.96626704395855	31.788336150789593	19.936147803051966	20.309249002199895
6	23.25718335006685	35.68016191178001	19.597598001891857	21.46505673626128
7	22.86759432158333	21.833999161736138	31.13142073825802	24.16698577842251
8	23.33295795392806	23.510489291960074	24.938518552585904	28.21803420152596
9	23.599179532184074	22.514068241476775	27.478890219243773	26.40786200709538
10-14	25.00904578350941	26.709198021762464	22.09383541064694	26.187920784081182
15-19	25.2373313025637	26.130681834330804	22.937315632057096	25.694671231048403
20-24	24.870727156422447	26.505840919573192	23.196557737084007	25.42687418692035
25-29	25.18027855295408	26.171632254926863	23.17908698556117	25.46900220655789
30-34	24.732482949431216	26.213232024513637	23.339969808556525	25.71431521749862
35-39	24.88966507440041	26.259787877410368	23.302400500082708	25.54814654810652
40-44	24.654370333077594	26.016012272624874	23.40272930597766	25.92688808831987
45-49	24.339864704588678	26.084125515267765	23.750868666324067	25.825141113819488
50-54	24.521012363445983	26.162279703940317	23.574391177629103	25.7423167549846
55-59	24.79602469341878	26.149316971044563	23.38250096224171	25.67215737329495
60-64	24.693314733641422	25.961148532791455	23.645115258408833	25.700421475158286
65-69	24.53950963532261	26.493886791252976	23.547707871318565	25.41889570210585
70-74	24.365544384498293	26.676931114593287	23.319806386919907	25.637718113988512
75-79	24.41852822379674	26.474495657776327	23.556908888520244	25.550067229906688
80-84	24.16461830170343	26.726823723033043	23.80635883509797	25.302199140165555
85-89	24.280125171548985	26.6371587864608	23.55793885271299	25.52477718927722
90-94	23.86024096650865	26.91552355427907	23.820048937334192	25.404186541878094
95-99	23.80741266295775	27.669319244887845	23.504843286190535	25.018424805963868
100	22.38724208683148	26.366860997367976	23.86971981988095	27.376177095919594
>>END_MODULE
>>Per base GC content	fail
#Base	%GC
1	70.83407696202408
2	47.77306137565017
3	47.95578970289111
4	49.336627737904124
5	48.27551604615844
6	44.72224008632813
7	47.03458010000584
8	51.550992155454026
9	50.00704153927945
10-14	51.19696656759059
15-19	50.9320025336121
20-24	50.297601343342805
25-29	50.649280759511974
30-34	50.44679816692984
35-39	50.43781162250692
40-44	50.581258421397465
45-49	50.16500581840817
50-54	50.263329118430576
55-59	50.46818206671373
60-64	50.39373620879971
65-69	49.95840533742846
70-74	50.0032624984868
75-79	49.96859545370343
80-84	49.46681744186899
85-89	49.80490236082621
90-94	49.26442750838674
95-99	48.82583746892162
100	49.76341918275107
>>END_MODULE
>>Per sequence GC content	warn
#GC Content	Count
0	601.0
1	459.0
2	475.5
3	631.5
4	680.0
5	892.0
6	1202.0
7	1406.0
8	1625.0
9	1937.0
10	2193.0
11	2483.5
12	2859.5
13	3324.0
14	3785.5
15	4203.5
16	4792.5
17	5561.0
18	6600.0
19	8096.5
20	10402.5
21	13525.5
22	17563.5
23	23595.0
24	31708.0
25	41882.0
26	55815.5
27	73860.5
28	94088.0
29	117270.5
30	148441.0
31	192093.5
32	262210.0
33	353413.5
34	449102.5
35	597966.0
36	794977.5
37	1020143.5
38	1251101.0
39	1452436.0
40	1684401.5
41	2003406.5
42	2356009.5
43	2698127.0
44	3001792.5
45	3210141.5
46	3225225.5
47	3144035.5
48	3112674.5
49	3052727.0
50	2967907.5
51	2939797.5
52	2935174.5
53	2896392.0
54	2807368.0
55	2662690.5
56	2512062.0
57	2357188.0
58	2235587.5
59	2109123.5
60	1938646.0
61	1769632.0
62	1561311.0
63	1349336.0
64	1184395.0
65	1021140.0
66	870409.5
67	741526.0
68	632508.0
69	550254.5
70	474324.5
71	410918.5
72	336041.0
73	266045.5
74	223744.5
75	190381.5
76	168749.5
77	150682.0
78	132241.0
79	112971.0
80	92752.0
81	77771.5
82	67558.0
83	59455.5
84	51766.5
85	41811.0
86	33643.5
87	26533.5
88	19834.0
89	16546.0
90	15148.0
91	15009.0
92	15601.5
93	15670.0
94	12978.0
95	7593.0
96	3276.5
97	1876.0
98	1267.0
99	675.0
100	631.0
>>END_MODULE
>>Per base N content	pass
#Base	N-Count
1	0.0
2	0.0
3	0.0
4	0.0
5	0.0
6	0.0
7	0.0
8	2.9453071339035143E-6
9	6.568034908604837E-4
10-14	0.0025412109951319524
15-19	0.0
20-24	0.0
25-29	4.5482391688204406E-4
30-34	0.01447373323513779
35-39	0.004380150239867383
40-44	0.05080030882053133
45-49	0.0
50-54	9.127445841729631E-6
55-59	0.0011495496204947798
60-64	0.0
65-69	0.0
70-74	3.757132613323535E-4
75-79	0.001180868145471743
80-84	0.0
85-89	0.0
90-94	5.88509660224707E-4
95-99	1.6605891863194153E-4
100	0.0
>>END_MODULE
>>Sequence Length Distribution	warn
#Length	Count
24-25	46765.0
26-27	100161.0
28-29	110162.0
30-31	120702.0
32-33	118124.0
34-35	125009.0
36-37	138728.0
38-39	154847.0
40-41	156333.0
42-43	178561.0
44-45	205745.0
46-47	237211.0
48-49	254972.0
50-51	236153.0
52-53	165899.0
54-55	188216.0
56-57	208738.0
58-59	243422.0
60-61	287975.0
62-63	345419.0
64-65	399991.0
66-67	443639.0
68-69	489476.0
70-71	540579.0
72-73	615957.0
74-75	681170.0
76-77	778611.0
78-79	784644.0
80-81	836803.0
82-83	946961.0
84-85	1089243.0
86-87	1227361.0
88-89	1294790.0
90-91	1412709.0
92-93	1659819.0
94-95	1778509.0
96-97	1762505.0
98-99	2.0141955E7
100-101	2.7396769E7
>>END_MODULE
>>Sequence Duplication Levels	fail
#Total Duplicate Percentage	88.91465105299086
#Duplication Level	Relative count
1	100.0
2	58.222559817698446
3	36.30839346752754
4	23.72904345938907
5	17.17758124898269
6	13.702457815636699
7	11.507785795670339
8	9.795995876512398
9	8.32293418696761
10++	263.79740654332375
>>END_MODULE
>>Overrepresented sequences	warn
#Sequence	Count	Percentage	Possible Source
CCTCACCCGGCCCGGACACGGACAGGATTGACAGATTGATAGCTCTTTCT	119664	0.17622361643571507	No Hit
CCTGCCAGTAGCATATGCTTGTCTCAAAGATTAAGCCATGCATGTCTAAG	79053	0.11641768242823727	No Hit
>>END_MODULE
>>Kmer Content	warn
#Sequence	Count	Obs/Exp Overall	Obs/Exp Max	Max Obs/Exp Position
CCTCA	10283765	1.6376896	5.4631896	1
>>END_MODULE
