##FastQC	0.10.1
>>Basic Statistics	pass
#Measure	Value	
Filename	SRR018260_2.fastq.gz	
File type	Conventional base calls	
Encoding	Sanger / Illumina 1.9	
Total Sequences	16066999	
Filtered Sequences	0	
Sequence length	51	
%GC	49	
>>END_MODULE
>>Per base sequence quality	fail
#Base	Mean	Median	Lower Quartile	Upper Quartile	10th Percentile	90th Percentile
1	20.067730632210782	19.0	10.0	30.0	4.0	40.0
2	21.16207843169717	20.0	10.0	33.0	4.0	40.0
3	20.111100647980372	19.0	10.0	31.0	4.0	40.0
4	19.603331026534576	18.0	10.0	29.0	4.0	40.0
5	19.47008181179323	18.0	10.0	29.0	4.0	40.0
6	18.395498064075312	16.0	9.0	27.0	4.0	40.0
7	20.302622412561302	19.0	10.0	31.0	4.0	40.0
8	19.01865563071237	17.0	9.0	28.0	4.0	40.0
9	18.79133371452877	17.0	9.0	28.0	4.0	40.0
10	16.901930036841353	15.0	8.0	24.0	3.0	37.0
11	16.87106185791136	15.0	8.0	24.0	3.0	36.0
12	17.046983509490477	15.0	8.0	25.0	4.0	36.0
13	16.639509469067622	14.0	8.0	24.0	3.0	35.0
14	16.21612268725479	14.0	8.0	23.0	3.0	34.0
15	15.784035836437159	14.0	7.0	22.0	3.0	33.0
16	15.338194519088475	13.0	7.0	22.0	3.0	32.0
17	14.94903397952536	13.0	7.0	21.0	3.0	31.0
18	14.497930820808541	12.0	7.0	20.0	3.0	30.0
19	14.12189388945627	12.0	6.0	20.0	3.0	29.0
20	13.687917077731816	12.0	6.0	19.0	3.0	28.0
21	13.21894119741963	11.0	6.0	18.0	3.0	27.0
22	12.751179482864224	11.0	5.0	18.0	3.0	26.0
23	12.32885780350145	10.0	5.0	17.0	3.0	25.0
24	11.940390859550062	10.0	5.0	16.0	3.0	24.0
25	11.561819540786678	10.0	5.0	16.0	3.0	23.0
26	11.172582882466104	10.0	5.0	15.0	3.0	22.0
27	10.79686349641274	10.0	5.0	15.0	3.0	21.0
28	10.387165580828132	9.0	5.0	14.0	3.0	20.0
29	10.043569741928781	9.0	5.0	14.0	2.0	20.0
30	9.724928905516208	9.0	5.0	13.0	2.0	19.0
31	9.434726173817525	8.0	4.0	13.0	2.0	18.0
32	9.09052922701993	8.0	4.0	12.0	2.0	18.0
33	8.829569541891425	8.0	4.0	12.0	2.0	17.0
34	8.534077210062689	7.0	4.0	11.0	2.0	16.0
35	8.23235372081619	7.0	4.0	11.0	2.0	16.0
36	7.94948988295823	7.0	4.0	10.0	2.0	15.0
37	7.679408830485395	6.0	4.0	10.0	2.0	15.0
38	7.397044090187595	6.0	4.0	10.0	2.0	14.0
39	7.147163449751879	6.0	4.0	10.0	2.0	13.0
40	6.929363846976028	6.0	4.0	10.0	2.0	13.0
41	6.68353337172673	5.0	4.0	9.0	2.0	12.0
42	6.453444043906395	5.0	4.0	9.0	2.0	12.0
43	6.247767053449123	5.0	3.0	8.0	2.0	11.0
44	6.091003304350738	5.0	3.0	8.0	2.0	11.0
45	5.903935327312835	5.0	3.0	8.0	2.0	11.0
46	5.708693515198451	5.0	3.0	8.0	2.0	10.0
47	5.517299901493739	5.0	3.0	7.0	2.0	10.0
48	5.340481442738622	5.0	3.0	7.0	2.0	10.0
49	5.200264903234263	5.0	3.0	7.0	2.0	10.0
50	5.053992036720734	4.0	3.0	6.0	2.0	9.0
51	5.564564795205377	4.0	3.0	7.0	2.0	10.0
>>END_MODULE
>>Per sequence quality scores	fail
#Quality	Count
0	708266.0
1	9874.0
2	8085.0
3	28792.0
4	190387.0
5	529639.0
6	875934.0
7	1119875.0
8	1253172.0
9	1307539.0
10	1301175.0
11	1258409.0
12	1190516.0
13	1097633.0
14	985224.0
15	861552.0
16	731311.0
17	602311.0
18	486275.0
19	385413.0
20	302277.0
21	233406.0
22	177659.0
23	132377.0
24	95198.0
25	67283.0
26	45220.0
27	29974.0
28	18840.0
29	11664.0
30	7283.0
31	4301.0
32	2721.0
33	1771.0
34	1207.0
35	885.0
36	763.0
37	710.0
38	782.0
39	1059.0
40	237.0
>>END_MODULE
>>Per base sequence content	warn
#Base	G	A	T	C
1	35.446066457415135	18.465074941970045	16.932369797753207	29.15648880286162
2	30.94133598935578	22.672975761278703	26.083712346729637	20.30197590263588
3	30.168942447967474	23.660580926530486	22.141420990280093	24.02905563522195
4	31.01408641856478	25.19417652131588	21.962451152229733	21.829285907889613
5	30.018877445393972	26.332336064650008	23.88174685618029	19.767039633775735
6	27.283951606561846	28.8913505983511	23.114246620160422	20.71045117492663
7	25.587774529557546	22.87222245243842	30.473051282873243	21.066951735130793
8	25.77145336646251	25.144413432448058	26.72140309731454	22.36273010377489
9	26.026289526231274	23.984312140165628	27.353648133103235	22.635750200499864
10	25.625029321462268	30.444057256345165	24.408781582472802	19.522131839719766
11	27.715853197963003	26.915458032508326	22.266899378688628	23.10178939084004
12	26.531192898375703	24.63164084985305	25.199644861424975	23.637521390346272
13	25.758843795734638	25.993500588336914	26.0114473088068	22.236208307121647
14	25.902384936889263	26.02629935710306	26.086173177363182	21.98514252864449
15	26.010271314202804	25.946234535013502	25.640225973346332	22.403268177437365
16	26.27970359109584	26.072031636356662	25.109330030684536	22.538934741862963
17	26.498312438079086	26.15673041799139	25.358657860165874	21.986299283763646
18	26.13587129895953	26.149930629333713	25.010029336788257	22.704168734918497
19	26.372238891341972	25.69692910682787	25.239453610738398	22.691378391091764
20	26.156338394560624	26.101445743597345	25.565591398972266	22.176624462869764
21	26.177041979015193	25.84311265633955	25.410037361772403	22.569808002872858
22	26.566263401518274	25.78656539429372	25.033142890848282	22.61402831333972
23	26.41762828917186	25.92974825027145	25.12428512153505	22.528338339021644
24	25.89967468217661	26.20358915857831	25.375769035960626	22.520967123284453
25	26.622422651821942	25.763863421917065	24.87063503353375	22.74307889272724
26	26.238312464147263	26.217955677533883	25.26136939581579	22.282362462503063
27	26.007438390612016	25.867698593995534	25.504118037063016	22.620744978329434
28	26.3474560553905	26.183389308471384	25.036892185706332	22.432262450431782
29	26.328080520689422	26.12915586775838	25.254273783058302	22.288489828493898
30	26.101413795689233	26.00873969025051	25.276196571175575	22.613649942884688
31	26.52032477663187	25.720340022890277	25.09617673963985	22.663158460838
32	26.67416419922761	25.853840553925107	25.217381652699927	22.254613594147354
33	26.291140918662286	26.03615260565386	25.27884548348561	22.39386099219824
34	26.862037076947793	25.957873398145498	24.817495366361154	22.362594158545555
35	27.197475170137437	25.942715672239803	24.702339505668025	22.157469651954738
36	26.796631112574026	25.735696726985847	25.052279667813487	22.41539249262664
37	26.95139817377679	25.65843020873259	24.896346854800434	22.493824762690185
38	26.95788682403542	25.91454775764645	24.90229349000072	22.225271928317408
39	27.11112016393267	25.606319252452813	24.735688076676702	22.546872506937813
40	27.220099815874267	25.63411688555139	24.64719249075289	22.498590807821458
41	27.19185877388123	25.60011421479095	24.94659243750221	22.26143457382561
42	27.22026941605053	25.392391888058185	24.985121243493666	22.402217452397615
43	27.325739530494666	25.687215211985954	24.78279623259436	22.204249024925023
44	27.33901767120971	25.90498960603539	25.034308477818072	21.721684244936824
45	27.026137515185916	25.714972161413947	25.383774956831257	21.87511536656888
46	27.857135765711654	25.247873513052845	24.730755152699228	22.164235568536274
47	28.115906777235466	25.559487728611174	24.761475479756392	21.563130014396968
48	27.568060854980175	25.409923658238377	24.85448400888505	22.167531477896397
49	27.895267295694037	25.27039087766159	24.848425500079895	21.985916326564475
50	27.98299242184229	25.037753609603048	24.913495600801387	22.065758367753276
51	29.95559209311377	24.072820782950107	25.126169300462863	20.84541782347326
>>END_MODULE
>>Per base GC content	fail
#Base	%GC
1	64.60255526027674
2	51.24331189199166
3	54.197998083189425
4	52.843372326454386
5	49.78591707916971
6	47.994402781488475
7	46.654726264688335
8	48.1341834702374
9	48.66203972673113
10	45.147161161182034
11	50.81764258880305
12	50.168714288721986
13	47.995052102856285
14	47.88752746553375
15	48.41353949164017
16	48.818638332958805
17	48.48461172184273
18	48.840040033878026
19	49.06361728243373
20	48.33296285743039
21	48.74684998188805
22	49.180291714858
23	48.945966628193496
24	48.42064180546106
25	49.36550154454918
26	48.52067492665032
27	48.62818336894145
28	48.77971850582228
29	48.61657034918332
30	48.715063738573924
31	49.18348323746987
32	48.92877779337497
33	48.68500191086053
34	49.22463123549335
35	49.354944822092165
36	49.21202360520066
37	49.445222936466976
38	49.18315875235283
39	49.657992670870485
40	49.71869062369572
41	49.45329334770684
42	49.62248686844815
43	49.529988555419685
44	49.060701916146535
45	48.9012528817548
46	50.02137133424793
47	49.679036791632434
48	49.73559233287658
49	49.88118362225851
50	50.048750789595566
51	50.80100991658703
>>END_MODULE
>>Per sequence GC content	warn
#GC Content	Count
0	707208.0
1	360203.0
2	13198.0
3	11196.5
4	9195.0
5	8113.0
6	7031.0
7	6657.5
8	6284.0
9	6410.5
10	6537.0
11	6911.0
12	7285.0
13	7936.5
14	8588.0
15	10040.5
16	11493.0
17	14215.5
18	16938.0
19	21688.0
20	26438.0
21	33916.0
22	41394.0
23	52400.5
24	63407.0
25	82811.5
26	132510.5
27	162805.0
28	187968.5
29	213132.0
30	251021.0
31	288910.0
32	360947.5
33	432985.0
34	502678.0
35	572371.0
36	632723.0
37	693075.0
38	732034.5
39	770994.0
40	817563.5
41	864133.0
42	910152.5
43	956172.0
44	980115.0
45	1004058.0
46	1017190.0
47	1030322.0
48	1026933.0
49	1023544.0
50	1000157.5
51	976771.0
52	945877.5
53	914984.0
54	878051.5
55	841119.0
56	790540.0
57	739961.0
58	695226.5
59	650492.0
60	607929.5
61	565367.0
62	522189.0
63	479011.0
64	439723.5
65	400436.0
66	363901.0
67	327366.0
68	293218.5
69	259071.0
70	232583.5
71	206096.0
72	182937.0
73	159778.0
74	142638.5
75	110835.5
76	96172.0
77	85966.5
78	75761.0
79	66559.5
80	57358.0
81	50340.0
82	43322.0
83	37511.5
84	31701.0
85	27450.5
86	23200.0
87	20381.5
88	17563.0
89	15850.0
90	14137.0
91	12603.0
92	11069.0
93	8927.5
94	6786.0
95	4872.0
96	2958.0
97	1983.5
98	1009.0
99	654.0
100	299.0
>>END_MODULE
>>Per base N content	pass
#Base	N-Count
1	4.5065105188591845
2	4.36713165912315
3	4.38801296993919
4	4.4292092132451115
5	4.458860052210124
6	4.464007248646745
7	4.475677131740657
8	4.485019262153436
9	4.483444605927964
10	4.480482011606524
11	4.515946008336715
12	4.514732340494949
13	4.525730038322651
14	4.55228135633792
15	4.546586453388091
16	4.557397433086291
17	4.567947007403187
18	4.555841448673769
19	4.615597474052248
20	4.632881348906539
21	4.60635492664187
22	4.611545690642043
23	4.629146986316486
24	4.619985350095559
25	4.619026863697446
26	4.608296795188696
27	4.61425310351983
28	4.592469321744527
29	4.640692390657397
30	4.633646893237499
31	4.638121904407911
32	4.673237360629698
33	4.744980689922244
34	4.699440138136562
35	4.715323627019583
36	4.699813574395567
37	4.696782516759975
38	4.693147737172324
39	4.664785253300881
40	4.7103320290242126
41	4.7021662228273
42	4.719362962554488
43	4.693309559551227
44	4.7274416336243
45	4.745889384819156
46	4.7100955193935095
47	4.710481403527815
48	4.7157841984056885
49	4.726115934904832
50	4.721037201782361
51	4.789307573866159
>>END_MODULE
>>Sequence Length Distribution	pass
#Length	Count
51	1.6066999E7
>>END_MODULE
>>Sequence Duplication Levels	warn
#Total Duplicate Percentage	29.315168579371303
#Duplication Level	Relative count
1	100.0
2	8.764543494976744
3	3.5446420693045595
4	1.6380733887131134
5	0.9132621547692579
6	0.6327917207648964
7	0.4544251301508868
8	0.3970705020735904
9	0.33719479144344583
10++	9.372124390213157
>>END_MODULE
>>Overrepresented sequences	fail
#Sequence	Count	Percentage	Possible Source
NNNNNNNNNNNNNNNNNNNNNNNNNNNNNNNNNNNNNNNNNNNNNNNNNNN	688853	4.287378122074944	No Hit
>>END_MODULE
>>Kmer Content	warn
#Sequence	Count	Obs/Exp Overall	Obs/Exp Max	Max Obs/Exp Position
TTTTT	3607825	5.2319994	7.1616597	2
GGGGG	3658690	3.4043455	7.099298	47
CCACC	1011220	2.2252247	5.06196	11
CGGGG	1432005	1.6267099	5.5429096	1
>>END_MODULE
